Date	OrderNumber	OrderLineNumber	Site	Customer	Product	Qty Shipped	Due Date
1/1/2018	TY3-2-10000	1	CDC_TAMPA	OPTC-100094	B08B6C16Q2	66	1/2/2018
 1/2/2018	TY3-2-10001	1	CDC_TAMPA	OPTC-100094	B08B6C16Q2	80	1/3/2018
 1/3/2018	TY3-2-10002	1	CDC_TAMPA	OPTC-100094	B08B6C16Q2	47	1/4/2018
 1/4/2018	TY3-2-10003	1	CDC_TAMPA	OPTC-100094	B08B6C16Q2	61	1/5/2018
 1/5/2018	TY3-2-10004	1	CDC_TAMPA	OPTC-100094	B08B6C16Q2	54	1/6/2018
 1/6/2018	TY3-2-10005	1	CDC_TAMPA	OPTC-100094	B08B6C16Q2	51	1/7/2018
 1/7/2018	TY3-2-10006	1	CDC_TAMPA	OPTC-100094	B08B6C16Q2	56	1/8/2018
 1/8/2018	TY3-2-10007	1	CDC_TAMPA	OPTC-100094	B08B6C16Q2	63	1/9/2018
 1/9/2018	TY3-2-10008	1	CDC_TAMPA	OPTC-100094	B08B6C16Q2	65	1/10/2018
 1/10/2018	TY3-2-10009	1	CDC_TAMPA	OPTC-100094	B08B6C16Q2	72	1/11/2018
 1/11/2018	TY3-2-10010	1	CDC_TAMPA	OPTC-100094	B08B6C16Q2	66	1/12/2018
 1/12/2018	TY3-2-10011	1	CDC_TAMPA	OPTC-100094	B08B6C16Q2	79	1/13/2018
 1/13/2018	TY3-2-10012	1	CDC_TAMPA	OPTC-100094	B08B6C16Q2	56	1/14/2018
 1/14/2018	TY3-2-10013	1	CDC_TAMPA	OPTC-100094	B08B6C16Q2	87	1/15/2018
 1/15/2018	TY3-2-10014	1	CDC_TAMPA	OPTC-100094	B08B6C16Q2	48	1/16/2018
 1/16/2018	TY3-2-10015	1	CDC_TAMPA	OPTC-100094	B08B6C16Q2	78	1/17/2018
 1/17/2018	TY3-2-10016	1	CDC_TAMPA	OPTC-100094	B08B6C16Q2	66	1/18/2018
 1/18/2018	TY3-2-10017	1	CDC_TAMPA	OPTC-100094	B08B6C16Q2	73	1/19/2018
 1/19/2018	TY3-2-10018	1	CDC_TAMPA	OPTC-100094	B08B6C16Q2	53	1/20/2018
 1/20/2018	TY3-2-10019	1	CDC_TAMPA	OPTC-100094	B08B6C16Q2	56	1/21/2018
 1/21/2018	TY3-2-10020	1	CDC_TAMPA	OPTC-100094	B08B6C16Q2	84	1/22/2018
 1/22/2018	TY3-2-10021	1	CDC_TAMPA	OPTC-100094	B08B6C16Q2	92	1/23/2018
 1/23/2018	TY3-2-10022	1	CDC_TAMPA	OPTC-100094	B08B6C16Q2	61	1/24/2018
 1/24/2018	TY3-2-10023	1	CDC_TAMPA	OPTC-100094	B08B6C16Q2	79	1/25/2018
 1/25/2018	TY3-2-10024	1	CDC_TAMPA	OPTC-100094	B08B6C16Q2	87	1/26/2018
 1/26/2018	TY3-2-10025	1	CDC_TAMPA	OPTC-100094	B08B6C16Q2	88	1/27/2018
 1/27/2018	TY3-2-10026	1	CDC_TAMPA	OPTC-100094	B08B6C16Q2	51	1/28/2018
 1/28/2018	TY3-2-10027	1	CDC_TAMPA	OPTC-100094	B08B6C16Q2	49	1/29/2018
 1/29/2018	TY3-2-10028	1	CDC_TAMPA	OPTC-100094	B08B6C16Q2	55	1/30/2018
 1/30/2018	TY3-2-10029	1	CDC_TAMPA	OPTC-100094	B08B6C16Q2	87	1/31/2018
 1/31/2018	TY3-2-10030	1	CDC_TAMPA	OPTC-100094	B08B6C16Q2	51	2/1/2018
 2/1/2018	TY3-2-10031	1	CDC_TAMPA	OPTC-100094	B08B6C16Q2	66	2/2/2018
 2/2/2018	TY3-2-10032	1	CDC_TAMPA	OPTC-100094	B08B6C16Q2	91	2/3/2018
 2/3/2018	TY3-2-10033	1	CDC_TAMPA	OPTC-100094	B08B6C16Q2	72	2/4/2018
 2/4/2018	TY3-2-10034	1	CDC_TAMPA	OPTC-100094	B08B6C16Q2	79	2/5/2018
 2/5/2018	TY3-2-10035	1	CDC_TAMPA	OPTC-100094	B08B6C16Q2	61	2/6/2018
 2/6/2018	TY3-2-10036	1	CDC_TAMPA	OPTC-100094	B08B6C16Q2	79	2/7/2018
 2/7/2018	TY3-2-10037	1	CDC_TAMPA	OPTC-100094	B08B6C16Q2	85	2/8/2018
 2/8/2018	TY3-2-10038	1	CDC_TAMPA	OPTC-100094	B08B6C16Q2	48	2/9/2018
 2/9/2018	TY3-2-10039	1	CDC_TAMPA	OPTC-100094	B08B6C16Q2	82	2/10/2018
 2/10/2018	TY3-2-10040	1	CDC_TAMPA	OPTC-100094	B08B6C16Q2	93	2/11/2018
 2/11/2018	TY3-2-10041	1	CDC_TAMPA	OPTC-100094	B08B6C16Q2	81	2/12/2018
 2/12/2018	TY3-2-10042	1	CDC_TAMPA	OPTC-100094	B08B6C16Q2	60	2/13/2018
 2/13/2018	TY3-2-10043	1	CDC_TAMPA	OPTC-100094	B08B6C16Q2	83	2/14/2018
 2/14/2018	TY3-2-10044	1	CDC_TAMPA	OPTC-100094	B08B6C16Q2	52	2/15/2018
 2/15/2018	TY3-2-10045	1	CDC_TAMPA	OPTC-100094	B08B6C16Q2	68	2/16/2018
 2/16/2018	TY3-2-10046	1	CDC_TAMPA	OPTC-100094	B08B6C16Q2	89	2/17/2018
 2/17/2018	TY3-2-10047	1	CDC_TAMPA	OPTC-100094	B08B6C16Q2	60	2/18/2018
 2/18/2018	TY3-2-10048	1	CDC_TAMPA	OPTC-100094	B08B6C16Q2	60	2/19/2018
 2/19/2018	TY3-2-10049	1	CDC_TAMPA	OPTC-100094	B08B6C16Q2	53	2/20/2018
 2/20/2018	TY3-2-10050	1	CDC_TAMPA	OPTC-100094	B08B6C16Q2	48	2/21/2018
 2/21/2018	TY3-2-10051	1	CDC_TAMPA	OPTC-100094	B08B6C16Q2	78	2/22/2018
 2/22/2018	TY3-2-10052	1	CDC_TAMPA	OPTC-100094	B08B6C16Q2	57	2/23/2018
 2/23/2018	TY3-2-10053	1	CDC_TAMPA	OPTC-100094	B08B6C16Q2	59	2/24/2018
 2/24/2018	TY3-2-10054	1	CDC_TAMPA	OPTC-100094	B08B6C16Q2	70	2/25/2018
 2/25/2018	TY3-2-10055	1	CDC_TAMPA	OPTC-100094	B08B6C16Q2	49	2/26/2018
 2/26/2018	TY3-2-10056	1	CDC_TAMPA	OPTC-100094	B08B6C16Q2	73	2/27/2018
 2/27/2018	TY3-2-10057	1	CDC_TAMPA	OPTC-100094	B08B6C16Q2	54	2/28/2018
 2/28/2018	TY3-2-10058	1	CDC_TAMPA	OPTC-100094	B08B6C16Q2	74	3/1/2018
 3/1/2018	TY3-2-10059	1	CDC_TAMPA	OPTC-100094	B08B6C16Q2	79	3/2/2018
 3/2/2018	TY3-2-10060	1	CDC_TAMPA	OPTC-100094	B08B6C16Q2	52	3/3/2018
 3/3/2018	TY3-2-10061	1	CDC_TAMPA	OPTC-100094	B08B6C16Q2	66	3/4/2018
 3/4/2018	TY3-2-10062	1	CDC_TAMPA	OPTC-100094	B08B6C16Q2	79	3/5/2018
 3/5/2018	TY3-2-10063	1	CDC_TAMPA	OPTC-100094	B08B6C16Q2	66	3/6/2018
 3/6/2018	TY3-2-10064	1	CDC_TAMPA	OPTC-100094	B08B6C16Q2	49	3/7/2018
 3/7/2018	TY3-2-10065	1	CDC_TAMPA	OPTC-100094	B08B6C16Q2	72	3/8/2018
 3/8/2018	TY3-2-10066	1	CDC_TAMPA	OPTC-100094	B08B6C16Q2	78	3/9/2018
 3/9/2018	TY3-2-10067	1	CDC_TAMPA	OPTC-100094	B08B6C16Q2	71	3/10/2018
 3/10/2018	TY3-2-10068	1	CDC_TAMPA	OPTC-100094	B08B6C16Q2	91	3/11/2018
 3/11/2018	TY3-2-10069	1	CDC_TAMPA	OPTC-100094	B08B6C16Q2	74	3/12/2018
 3/12/2018	TY3-2-10070	1	CDC_TAMPA	OPTC-100094	B08B6C16Q2	89	3/13/2018
 3/13/2018	TY3-2-10071	1	CDC_TAMPA	OPTC-100094	B08B6C16Q2	53	3/14/2018
 3/14/2018	TY3-2-10072	1	CDC_TAMPA	OPTC-100094	B08B6C16Q2	53	3/15/2018
 3/15/2018	TY3-2-10073	1	CDC_TAMPA	OPTC-100094	B08B6C16Q2	84	3/16/2018
 3/16/2018	TY3-2-10074	1	CDC_TAMPA	OPTC-100094	B08B6C16Q2	65	3/17/2018
 3/17/2018	TY3-2-10075	1	CDC_TAMPA	OPTC-100094	B08B6C16Q2	55	3/18/2018
 3/18/2018	TY3-2-10076	1	CDC_TAMPA	OPTC-100094	B08B6C16Q2	90	3/19/2018
 3/19/2018	TY3-2-10077	1	CDC_TAMPA	OPTC-100094	B08B6C16Q2	63	3/20/2018
 3/20/2018	TY3-2-10078	1	CDC_TAMPA	OPTC-100094	B08B6C16Q2	82	3/21/2018
 3/21/2018	TY3-2-10079	1	CDC_TAMPA	OPTC-100094	B08B6C16Q2	80	3/22/2018
 3/22/2018	TY3-2-10080	1	CDC_TAMPA	OPTC-100094	B08B6C16Q2	88	3/23/2018
 3/23/2018	TY3-2-10081	1	CDC_TAMPA	OPTC-100094	B08B6C16Q2	76	3/24/2018
 3/24/2018	TY3-2-10082	1	CDC_TAMPA	OPTC-100094	B08B6C16Q2	82	3/25/2018
 3/25/2018	TY3-2-10083	1	CDC_TAMPA	OPTC-100094	B08B6C16Q2	63	3/26/2018
 3/26/2018	TY3-2-10084	1	CDC_TAMPA	OPTC-100094	B08B6C16Q2	59	3/27/2018
 3/27/2018	TY3-2-10085	1	CDC_TAMPA	OPTC-100094	B08B6C16Q2	88	3/28/2018
 3/28/2018	TY3-2-10086	1	CDC_TAMPA	OPTC-100094	B08B6C16Q2	67	3/29/2018
 3/29/2018	TY3-2-10087	1	CDC_TAMPA	OPTC-100094	B08B6C16Q2	91	3/30/2018
 3/30/2018	TY3-2-10088	1	CDC_TAMPA	OPTC-100094	B08B6C16Q2	78	3/31/2018
 3/31/2018	TY3-2-10089	1	CDC_TAMPA	OPTC-100094	B08B6C16Q2	76	4/1/2018
 4/1/2018	TY3-2-10090	1	CDC_TAMPA	OPTC-100094	B08B6C16Q2	52	4/2/2018
 4/2/2018	TY3-2-10091	1	CDC_TAMPA	OPTC-100094	B08B6C16Q2	91	4/3/2018
 4/3/2018	TY3-2-10092	1	CDC_TAMPA	OPTC-100094	B08B6C16Q2	68	4/4/2018
 4/4/2018	TY3-2-10093	1	CDC_TAMPA	OPTC-100094	B08B6C16Q2	74	4/5/2018
 4/5/2018	TY3-2-10094	1	CDC_TAMPA	OPTC-100094	B08B6C16Q2	66	4/6/2018
 4/6/2018	TY3-2-10095	1	CDC_TAMPA	OPTC-100094	B08B6C16Q2	58	4/7/2018
 4/7/2018	TY3-2-10096	1	CDC_TAMPA	OPTC-100094	B08B6C16Q2	89	4/8/2018
 4/8/2018	TY3-2-10097	1	CDC_TAMPA	OPTC-100094	B08B6C16Q2	73	4/9/2018
 4/9/2018	TY3-2-10098	1	CDC_TAMPA	OPTC-100094	B08B6C16Q2	47	4/10/2018
 4/10/2018	TY3-2-10099	1	CDC_TAMPA	OPTC-100094	B08B6C16Q2	75	4/11/2018
 4/11/2018	TY3-2-10100	1	CDC_TAMPA	OPTC-100094	B08B6C16Q2	62	4/12/2018
 4/12/2018	TY3-2-10101	1	CDC_TAMPA	OPTC-100094	B08B6C16Q2	71	4/13/2018
 4/13/2018	TY3-2-10102	1	CDC_TAMPA	OPTC-100094	B08B6C16Q2	88	4/14/2018
 4/14/2018	TY3-2-10103	1	CDC_TAMPA	OPTC-100094	B08B6C16Q2	63	4/15/2018
 4/15/2018	TY3-2-10104	1	CDC_TAMPA	OPTC-100094	B08B6C16Q2	89	4/16/2018
 4/16/2018	TY3-2-10105	1	CDC_TAMPA	OPTC-100094	B08B6C16Q2	76	4/17/2018
 4/17/2018	TY3-2-10106	1	CDC_TAMPA	OPTC-100094	B08B6C16Q2	48	4/18/2018
 4/18/2018	TY3-2-10107	1	CDC_TAMPA	OPTC-100094	B08B6C16Q2	90	4/19/2018
 4/19/2018	TY3-2-10108	1	CDC_TAMPA	OPTC-100094	B08B6C16Q2	79	4/20/2018
 4/20/2018	TY3-2-10109	1	CDC_TAMPA	OPTC-100094	B08B6C16Q2	93	4/21/2018
 4/21/2018	TY3-2-10110	1	CDC_TAMPA	OPTC-100094	B08B6C16Q2	55	4/22/2018
 4/22/2018	TY3-2-10111	1	CDC_TAMPA	OPTC-100094	B08B6C16Q2	53	4/23/2018
 4/23/2018	TY3-2-10112	1	CDC_TAMPA	OPTC-100094	B08B6C16Q2	90	4/24/2018
 4/24/2018	TY3-2-10113	1	CDC_TAMPA	OPTC-100094	B08B6C16Q2	79	4/25/2018
 4/25/2018	TY3-2-10114	1	CDC_TAMPA	OPTC-100094	B08B6C16Q2	50	4/26/2018
 4/26/2018	TY3-2-10115	1	CDC_TAMPA	OPTC-100094	B08B6C16Q2	82	4/27/2018
 4/27/2018	TY3-2-10116	1	CDC_TAMPA	OPTC-100094	B08B6C16Q2	82	4/28/2018
 4/28/2018	TY3-2-10117	1	CDC_TAMPA	OPTC-100094	B08B6C16Q2	90	4/29/2018
 4/29/2018	TY3-2-10118	1	CDC_TAMPA	OPTC-100094	B08B6C16Q2	80	4/30/2018
 4/30/2018	TY3-2-10119	1	CDC_TAMPA	OPTC-100094	B08B6C16Q2	53	5/1/2018
 5/1/2018	TY3-2-10120	1	CDC_TAMPA	OPTC-100094	B08B6C16Q2	48	5/2/2018
 5/2/2018	TY3-2-10121	1	CDC_TAMPA	OPTC-100094	B08B6C16Q2	48	5/3/2018
 5/3/2018	TY3-2-10122	1	CDC_TAMPA	OPTC-100094	B08B6C16Q2	48	5/4/2018
 5/4/2018	TY3-2-10123	1	CDC_TAMPA	OPTC-100094	B08B6C16Q2	58	5/5/2018
 5/5/2018	TY3-2-10124	1	CDC_TAMPA	OPTC-100094	B08B6C16Q2	87	5/6/2018
 5/6/2018	TY3-2-10125	1	CDC_TAMPA	OPTC-100094	B08B6C16Q2	72	5/7/2018
 5/7/2018	TY3-2-10126	1	CDC_TAMPA	OPTC-100094	B08B6C16Q2	72	5/8/2018
 5/8/2018	TY3-2-10127	1	CDC_TAMPA	OPTC-100094	B08B6C16Q2	86	5/9/2018
 5/9/2018	TY3-2-10128	1	CDC_TAMPA	OPTC-100094	B08B6C16Q2	53	5/10/2018
 5/10/2018	TY3-2-10129	1	CDC_TAMPA	OPTC-100094	B08B6C16Q2	60	5/11/2018
 5/11/2018	TY3-2-10130	1	CDC_TAMPA	OPTC-100094	B08B6C16Q2	74	5/12/2018
 5/12/2018	TY3-2-10131	1	CDC_TAMPA	OPTC-100094	B08B6C16Q2	92	5/13/2018
 5/13/2018	TY3-2-10132	1	CDC_TAMPA	OPTC-100094	B08B6C16Q2	73	5/14/2018
 5/14/2018	TY3-2-10133	1	CDC_TAMPA	OPTC-100094	B08B6C16Q2	48	5/15/2018
 5/15/2018	TY3-2-10134	1	CDC_TAMPA	OPTC-100094	B08B6C16Q2	84	5/16/2018
 5/16/2018	TY3-2-10135	1	CDC_TAMPA	OPTC-100094	B08B6C16Q2	58	5/17/2018
 5/17/2018	TY3-2-10136	1	CDC_TAMPA	OPTC-100094	B08B6C16Q2	84	5/18/2018
 5/18/2018	TY3-2-10137	1	CDC_TAMPA	OPTC-100094	B08B6C16Q2	65	5/19/2018
 5/19/2018	TY3-2-10138	1	CDC_TAMPA	OPTC-100094	B08B6C16Q2	87	5/20/2018
 5/20/2018	TY3-2-10139	1	CDC_TAMPA	OPTC-100094	B08B6C16Q2	81	5/21/2018
 5/21/2018	TY3-2-10140	1	CDC_TAMPA	OPTC-100094	B08B6C16Q2	73	5/22/2018
 5/22/2018	TY3-2-10141	1	CDC_TAMPA	OPTC-100094	B08B6C16Q2	53	5/23/2018
 5/23/2018	TY3-2-10142	1	CDC_TAMPA	OPTC-100094	B08B6C16Q2	50	5/24/2018
 5/24/2018	TY3-2-10143	1	CDC_TAMPA	OPTC-100094	B08B6C16Q2	53	5/25/2018
 5/25/2018	TY3-2-10144	1	CDC_TAMPA	OPTC-100094	B08B6C16Q2	49	5/26/2018
 5/26/2018	TY3-2-10145	1	CDC_TAMPA	OPTC-100094	B08B6C16Q2	52	5/27/2018
 5/27/2018	TY3-2-10146	1	CDC_TAMPA	OPTC-100094	B08B6C16Q2	57	5/28/2018
 5/28/2018	TY3-2-10147	1	CDC_TAMPA	OPTC-100094	B08B6C16Q2	80	5/29/2018
 5/29/2018	TY3-2-10148	1	CDC_TAMPA	OPTC-100094	B08B6C16Q2	73	5/30/2018
 5/30/2018	TY3-2-10149	1	CDC_TAMPA	OPTC-100094	B08B6C16Q2	47	5/31/2018
 5/31/2018	TY3-2-10150	1	CDC_TAMPA	OPTC-100094	B08B6C16Q2	50	6/1/2018
 6/1/2018	TY3-2-10151	1	CDC_TAMPA	OPTC-100094	B08B6C16Q2	92	6/2/2018
 6/2/2018	TY3-2-10152	1	CDC_TAMPA	OPTC-100094	B08B6C16Q2	73	6/3/2018
 6/3/2018	TY3-2-10153	1	CDC_TAMPA	OPTC-100094	B08B6C16Q2	56	6/4/2018
 6/4/2018	TY3-2-10154	1	CDC_TAMPA	OPTC-100094	B08B6C16Q2	59	6/5/2018
 6/5/2018	TY3-2-10155	1	CDC_TAMPA	OPTC-100094	B08B6C16Q2	81	6/6/2018
 6/6/2018	TY3-2-10156	1	CDC_TAMPA	OPTC-100094	B08B6C16Q2	56	6/7/2018
 6/7/2018	TY3-2-10157	1	CDC_TAMPA	OPTC-100094	B08B6C16Q2	74	6/8/2018
 6/8/2018	TY3-2-10158	1	CDC_TAMPA	OPTC-100094	B08B6C16Q2	92	6/9/2018
 6/9/2018	TY3-2-10159	1	CDC_TAMPA	OPTC-100094	B08B6C16Q2	86	6/10/2018
 6/10/2018	TY3-2-10160	1	CDC_TAMPA	OPTC-100094	B08B6C16Q2	58	6/11/2018
 6/11/2018	TY3-2-10161	1	CDC_TAMPA	OPTC-100094	B08B6C16Q2	70	6/12/2018
 6/12/2018	TY3-2-10162	1	CDC_TAMPA	OPTC-100094	B08B6C16Q2	76	6/13/2018
 6/13/2018	TY3-2-10163	1	CDC_TAMPA	OPTC-100094	B08B6C16Q2	85	6/14/2018
 6/14/2018	TY3-2-10164	1	CDC_TAMPA	OPTC-100094	B08B6C16Q2	54	6/15/2018
 6/15/2018	TY3-2-10165	1	CDC_TAMPA	OPTC-100094	B08B6C16Q2	48	6/16/2018
 6/16/2018	TY3-2-10166	1	CDC_TAMPA	OPTC-100094	B08B6C16Q2	50	6/17/2018
 6/17/2018	TY3-2-10167	1	CDC_TAMPA	OPTC-100094	B08B6C16Q2	69	6/18/2018
 6/18/2018	TY3-2-10168	1	CDC_TAMPA	OPTC-100094	B08B6C16Q2	75	6/19/2018
 6/19/2018	TY3-2-10169	1	CDC_TAMPA	OPTC-100094	B08B6C16Q2	73	6/20/2018
 6/20/2018	TY3-2-10170	1	CDC_TAMPA	OPTC-100094	B08B6C16Q2	62	6/21/2018
 6/21/2018	TY3-2-10171	1	CDC_TAMPA	OPTC-100094	B08B6C16Q2	93	6/22/2018
 6/22/2018	TY3-2-10172	1	CDC_TAMPA	OPTC-100094	B08B6C16Q2	74	6/23/2018
 6/23/2018	TY3-2-10173	1	CDC_TAMPA	OPTC-100094	B08B6C16Q2	64	6/24/2018
 6/24/2018	TY3-2-10174	1	CDC_TAMPA	OPTC-100094	B08B6C16Q2	72	6/25/2018
 6/25/2018	TY3-2-10175	1	CDC_TAMPA	OPTC-100094	B08B6C16Q2	81	6/26/2018
 6/26/2018	TY3-2-10176	1	CDC_TAMPA	OPTC-100094	B08B6C16Q2	78	6/27/2018
 6/27/2018	TY3-2-10177	1	CDC_TAMPA	OPTC-100094	B08B6C16Q2	59	6/28/2018
 6/28/2018	TY3-2-10178	1	CDC_TAMPA	OPTC-100094	B08B6C16Q2	50	6/29/2018
 6/29/2018	TY3-2-10179	1	CDC_TAMPA	OPTC-100094	B08B6C16Q2	64	6/30/2018
 6/30/2018	TY3-2-10180	1	CDC_TAMPA	OPTC-100094	B08B6C16Q2	76	7/1/2018
 7/1/2018	TY3-2-10181	1	CDC_TAMPA	OPTC-100094	B08B6C16Q2	57	7/2/2018
 7/2/2018	TY3-2-10182	1	CDC_TAMPA	OPTC-100094	B08B6C16Q2	82	7/3/2018
 7/3/2018	TY3-2-10183	1	CDC_TAMPA	OPTC-100094	B08B6C16Q2	50	7/4/2018
 7/4/2018	TY3-2-10184	1	CDC_TAMPA	OPTC-100094	B08B6C16Q2	59	7/5/2018
 7/5/2018	TY3-2-10185	1	CDC_TAMPA	OPTC-100094	B08B6C16Q2	84	7/6/2018
 7/6/2018	TY3-2-10186	1	CDC_TAMPA	OPTC-100094	B08B6C16Q2	56	7/7/2018
 7/7/2018	TY3-2-10187	1	CDC_TAMPA	OPTC-100094	B08B6C16Q2	76	7/8/2018
 7/8/2018	TY3-2-10188	1	CDC_TAMPA	OPTC-100094	B08B6C16Q2	71	7/9/2018
 7/9/2018	TY3-2-10189	1	CDC_TAMPA	OPTC-100094	B08B6C16Q2	90	7/10/2018
 7/10/2018	TY3-2-10190	1	CDC_TAMPA	OPTC-100094	B08B6C16Q2	59	7/11/2018
 7/11/2018	TY3-2-10191	1	CDC_TAMPA	OPTC-100094	B08B6C16Q2	50	7/12/2018
 7/12/2018	TY3-2-10192	1	CDC_TAMPA	OPTC-100094	B08B6C16Q2	81	7/13/2018
 7/13/2018	TY3-2-10193	1	CDC_TAMPA	OPTC-100094	B08B6C16Q2	83	7/14/2018
 7/14/2018	TY3-2-10194	1	CDC_TAMPA	OPTC-100094	B08B6C16Q2	89	7/15/2018
 7/15/2018	TY3-2-10195	1	CDC_TAMPA	OPTC-100094	B08B6C16Q2	90	7/16/2018
 7/16/2018	TY3-2-10196	1	CDC_TAMPA	OPTC-100094	B08B6C16Q2	48	7/17/2018
 7/17/2018	TY3-2-10197	1	CDC_TAMPA	OPTC-100094	B08B6C16Q2	58	7/18/2018
 7/18/2018	TY3-2-10198	1	CDC_TAMPA	OPTC-100094	B08B6C16Q2	75	7/19/2018
 7/19/2018	TY3-2-10199	1	CDC_TAMPA	OPTC-100094	B08B6C16Q2	91	7/20/2018
 7/20/2018	TY3-2-10200	1	CDC_TAMPA	OPTC-100094	B08B6C16Q2	91	7/21/2018
 7/21/2018	TY3-2-10201	1	CDC_TAMPA	OPTC-100094	B08B6C16Q2	73	7/22/2018
 7/22/2018	TY3-2-10202	1	CDC_TAMPA	OPTC-100094	B08B6C16Q2	89	7/23/2018
 7/23/2018	TY3-2-10203	1	CDC_TAMPA	OPTC-100094	B08B6C16Q2	77	7/24/2018
 7/24/2018	TY3-2-10204	1	CDC_TAMPA	OPTC-100094	B08B6C16Q2	65	7/25/2018
 7/25/2018	TY3-2-10205	1	CDC_TAMPA	OPTC-100094	B08B6C16Q2	69	7/26/2018
 7/26/2018	TY3-2-10206	1	CDC_TAMPA	OPTC-100094	B08B6C16Q2	75	7/27/2018
 7/27/2018	TY3-2-10207	1	CDC_TAMPA	OPTC-100094	B08B6C16Q2	72	7/28/2018
 7/28/2018	TY3-2-10208	1	CDC_TAMPA	OPTC-100094	B08B6C16Q2	90	7/29/2018
 7/29/2018	TY3-2-10209	1	CDC_TAMPA	OPTC-100094	B08B6C16Q2	89	7/30/2018
 7/30/2018	TY3-2-10210	1	CDC_TAMPA	OPTC-100094	B08B6C16Q2	65	7/31/2018
 7/31/2018	TY3-2-10211	1	CDC_TAMPA	OPTC-100094	B08B6C16Q2	91	8/1/2018
 8/1/2018	TY3-2-10212	1	CDC_TAMPA	OPTC-100094	B08B6C16Q2	55	8/2/2018
 8/2/2018	TY3-2-10213	1	CDC_TAMPA	OPTC-100094	B08B6C16Q2	53	8/3/2018
 8/3/2018	TY3-2-10214	1	CDC_TAMPA	OPTC-100094	B08B6C16Q2	53	8/4/2018
 8/4/2018	TY3-2-10215	1	CDC_TAMPA	OPTC-100094	B08B6C16Q2	70	8/5/2018
 8/5/2018	TY3-2-10216	1	CDC_TAMPA	OPTC-100094	B08B6C16Q2	48	8/6/2018
 8/6/2018	TY3-2-10217	1	CDC_TAMPA	OPTC-100094	B08B6C16Q2	91	8/7/2018
 8/7/2018	TY3-2-10218	1	CDC_TAMPA	OPTC-100094	B08B6C16Q2	85	8/8/2018
 8/8/2018	TY3-2-10219	1	CDC_TAMPA	OPTC-100094	B08B6C16Q2	48	8/9/2018
 8/9/2018	TY3-2-10220	1	CDC_TAMPA	OPTC-100094	B08B6C16Q2	55	8/10/2018
 8/10/2018	TY3-2-10221	1	CDC_TAMPA	OPTC-100094	B08B6C16Q2	62	8/11/2018
 8/11/2018	TY3-2-10222	1	CDC_TAMPA	OPTC-100094	B08B6C16Q2	53	8/12/2018
 8/12/2018	TY3-2-10223	1	CDC_TAMPA	OPTC-100094	B08B6C16Q2	84	8/13/2018
 8/13/2018	TY3-2-10224	1	CDC_TAMPA	OPTC-100094	B08B6C16Q2	63	8/14/2018
 8/14/2018	TY3-2-10225	1	CDC_TAMPA	OPTC-100094	B08B6C16Q2	90	8/15/2018
 8/15/2018	TY3-2-10226	1	CDC_TAMPA	OPTC-100094	B08B6C16Q2	74	8/16/2018
 8/16/2018	TY3-2-10227	1	CDC_TAMPA	OPTC-100094	B08B6C16Q2	88	8/17/2018
 8/17/2018	TY3-2-10228	1	CDC_TAMPA	OPTC-100094	B08B6C16Q2	86	8/18/2018
 8/18/2018	TY3-2-10229	1	CDC_TAMPA	OPTC-100094	B08B6C16Q2	89	8/19/2018
 8/19/2018	TY3-2-10230	1	CDC_TAMPA	OPTC-100094	B08B6C16Q2	68	8/20/2018
 8/20/2018	TY3-2-10231	1	CDC_TAMPA	OPTC-100094	B08B6C16Q2	72	8/21/2018
 8/21/2018	TY3-2-10232	1	CDC_TAMPA	OPTC-100094	B08B6C16Q2	84	8/22/2018
 8/22/2018	TY3-2-10233	1	CDC_TAMPA	OPTC-100094	B08B6C16Q2	60	8/23/2018
 8/23/2018	TY3-2-10234	1	CDC_TAMPA	OPTC-100094	B08B6C16Q2	70	8/24/2018
 8/24/2018	TY3-2-10235	1	CDC_TAMPA	OPTC-100094	B08B6C16Q2	75	8/25/2018
 8/25/2018	TY3-2-10236	1	CDC_TAMPA	OPTC-100094	B08B6C16Q2	48	8/26/2018
 8/26/2018	TY3-2-10237	1	CDC_TAMPA	OPTC-100094	B08B6C16Q2	74	8/27/2018
 8/27/2018	TY3-2-10238	1	CDC_TAMPA	OPTC-100094	B08B6C16Q2	67	8/28/2018
 8/28/2018	TY3-2-10239	1	CDC_TAMPA	OPTC-100094	B08B6C16Q2	84	8/29/2018
 8/29/2018	TY3-2-10240	1	CDC_TAMPA	OPTC-100094	B08B6C16Q2	61	8/30/2018
 8/30/2018	TY3-2-10241	1	CDC_TAMPA	OPTC-100094	B08B6C16Q2	88	8/31/2018
 8/31/2018	TY3-2-10242	1	CDC_TAMPA	OPTC-100094	B08B6C16Q2	74	9/1/2018
 9/1/2018	TY3-2-10243	1	CDC_TAMPA	OPTC-100094	B08B6C16Q2	55	9/2/2018
 9/2/2018	TY3-2-10244	1	CDC_TAMPA	OPTC-100094	B08B6C16Q2	83	9/3/2018
 9/3/2018	TY3-2-10245	1	CDC_TAMPA	OPTC-100094	B08B6C16Q2	75	9/4/2018
 9/4/2018	TY3-2-10246	1	CDC_TAMPA	OPTC-100094	B08B6C16Q2	49	9/5/2018
 9/5/2018	TY3-2-10247	1	CDC_TAMPA	OPTC-100094	B08B6C16Q2	66	9/6/2018
 9/6/2018	TY3-2-10248	1	CDC_TAMPA	OPTC-100094	B08B6C16Q2	78	9/7/2018
 9/7/2018	TY3-2-10249	1	CDC_TAMPA	OPTC-100094	B08B6C16Q2	89	9/8/2018
 9/8/2018	TY3-2-10250	1	CDC_TAMPA	OPTC-100094	B08B6C16Q2	47	9/9/2018
 9/9/2018	TY3-2-10251	1	CDC_TAMPA	OPTC-100094	B08B6C16Q2	92	9/10/2018
 9/10/2018	TY3-2-10252	1	CDC_TAMPA	OPTC-100094	B08B6C16Q2	64	9/11/2018
 9/11/2018	TY3-2-10253	1	CDC_TAMPA	OPTC-100094	B08B6C16Q2	92	9/12/2018
 9/12/2018	TY3-2-10254	1	CDC_TAMPA	OPTC-100094	B08B6C16Q2	75	9/13/2018
 9/13/2018	TY3-2-10255	1	CDC_TAMPA	OPTC-100094	B08B6C16Q2	85	9/14/2018
 9/14/2018	TY3-2-10256	1	CDC_TAMPA	OPTC-100094	B08B6C16Q2	73	9/15/2018
 9/15/2018	TY3-2-10257	1	CDC_TAMPA	OPTC-100094	B08B6C16Q2	76	9/16/2018
 9/16/2018	TY3-2-10258	1	CDC_TAMPA	OPTC-100094	B08B6C16Q2	60	9/17/2018
 9/17/2018	TY3-2-10259	1	CDC_TAMPA	OPTC-100094	B08B6C16Q2	74	9/18/2018
 9/18/2018	TY3-2-10260	1	CDC_TAMPA	OPTC-100094	B08B6C16Q2	82	9/19/2018
 9/19/2018	TY3-2-10261	1	CDC_TAMPA	OPTC-100094	B08B6C16Q2	87	9/20/2018
 9/20/2018	TY3-2-10262	1	CDC_TAMPA	OPTC-100094	B08B6C16Q2	82	9/21/2018
 9/21/2018	TY3-2-10263	1	CDC_TAMPA	OPTC-100094	B08B6C16Q2	79	9/22/2018
 9/22/2018	TY3-2-10264	1	CDC_TAMPA	OPTC-100094	B08B6C16Q2	87	9/23/2018
 9/23/2018	TY3-2-10265	1	CDC_TAMPA	OPTC-100094	B08B6C16Q2	62	9/24/2018
 9/24/2018	TY3-2-10266	1	CDC_TAMPA	OPTC-100094	B08B6C16Q2	78	9/25/2018
 9/25/2018	TY3-2-10267	1	CDC_TAMPA	OPTC-100094	B08B6C16Q2	68	9/26/2018
 9/26/2018	TY3-2-10268	1	CDC_TAMPA	OPTC-100094	B08B6C16Q2	65	9/27/2018
 9/27/2018	TY3-2-10269	1	CDC_TAMPA	OPTC-100094	B08B6C16Q2	66	9/28/2018
 9/28/2018	TY3-2-10270	1	CDC_TAMPA	OPTC-100094	B08B6C16Q2	65	9/29/2018
 9/29/2018	TY3-2-10271	1	CDC_TAMPA	OPTC-100094	B08B6C16Q2	62	9/30/2018
 9/30/2018	TY3-2-10272	1	CDC_TAMPA	OPTC-100094	B08B6C16Q2	76	10/1/2018
 10/1/2018	TY3-2-10273	1	CDC_TAMPA	OPTC-100094	B08B6C16Q2	80	10/2/2018
 10/2/2018	TY3-2-10274	1	CDC_TAMPA	OPTC-100094	B08B6C16Q2	110	10/3/2018
 10/3/2018	TY3-2-10275	1	CDC_TAMPA	OPTC-100094	B08B6C16Q2	93	10/4/2018
 10/4/2018	TY3-2-10276	1	CDC_TAMPA	OPTC-100094	B08B6C16Q2	67	10/5/2018
 10/5/2018	TY3-2-10277	1	CDC_TAMPA	OPTC-100094	B08B6C16Q2	80	10/6/2018
 10/6/2018	TY3-2-10278	1	CDC_TAMPA	OPTC-100094	B08B6C16Q2	75	10/7/2018
 10/7/2018	TY3-2-10279	1	CDC_TAMPA	OPTC-100094	B08B6C16Q2	100	10/8/2018
 10/8/2018	TY3-2-10280	1	CDC_TAMPA	OPTC-100094	B08B6C16Q2	105	10/9/2018
 10/9/2018	TY3-2-10281	1	CDC_TAMPA	OPTC-100094	B08B6C16Q2	106	10/10/2018
 10/10/2018	TY3-2-10282	1	CDC_TAMPA	OPTC-100094	B08B6C16Q2	93	10/11/2018
 10/11/2018	TY3-2-10283	1	CDC_TAMPA	OPTC-100094	B08B6C16Q2	70	10/12/2018
 10/12/2018	TY3-2-10284	1	CDC_TAMPA	OPTC-100094	B08B6C16Q2	70	10/13/2018
 10/13/2018	TY3-2-10285	1	CDC_TAMPA	OPTC-100094	B08B6C16Q2	103	10/14/2018
 10/14/2018	TY3-2-10286	1	CDC_TAMPA	OPTC-100094	B08B6C16Q2	85	10/15/2018
 10/15/2018	TY3-2-10287	1	CDC_TAMPA	OPTC-100094	B08B6C16Q2	100	10/16/2018
 10/16/2018	TY3-2-10288	1	CDC_TAMPA	OPTC-100094	B08B6C16Q2	87	10/17/2018
 10/17/2018	TY3-2-10289	1	CDC_TAMPA	OPTC-100094	B08B6C16Q2	97	10/18/2018
 10/18/2018	TY3-2-10290	1	CDC_TAMPA	OPTC-100094	B08B6C16Q2	85	10/19/2018
 10/19/2018	TY3-2-10291	1	CDC_TAMPA	OPTC-100094	B08B6C16Q2	99	10/20/2018
 10/20/2018	TY3-2-10292	1	CDC_TAMPA	OPTC-100094	B08B6C16Q2	87	10/21/2018
 10/21/2018	TY3-2-10293	1	CDC_TAMPA	OPTC-100094	B08B6C16Q2	81	10/22/2018
 10/22/2018	TY3-2-10294	1	CDC_TAMPA	OPTC-100094	B08B6C16Q2	75	10/23/2018
 10/23/2018	TY3-2-10295	1	CDC_TAMPA	OPTC-100094	B08B6C16Q2	60	10/24/2018
 10/24/2018	TY3-2-10296	1	CDC_TAMPA	OPTC-100094	B08B6C16Q2	76	10/25/2018
 10/25/2018	TY3-2-10297	1	CDC_TAMPA	OPTC-100094	B08B6C16Q2	61	10/26/2018
 10/26/2018	TY3-2-10298	1	CDC_TAMPA	OPTC-100094	B08B6C16Q2	110	10/27/2018
 10/27/2018	TY3-2-10299	1	CDC_TAMPA	OPTC-100094	B08B6C16Q2	66	10/28/2018
 10/28/2018	TY3-2-10300	1	CDC_TAMPA	OPTC-100094	B08B6C16Q2	100	10/29/2018
 10/29/2018	TY3-2-10301	1	CDC_TAMPA	OPTC-100094	B08B6C16Q2	104	10/30/2018
 10/30/2018	TY3-2-10302	1	CDC_TAMPA	OPTC-100094	B08B6C16Q2	94	10/31/2018
 10/31/2018	TY3-2-10303	1	CDC_TAMPA	OPTC-100094	B08B6C16Q2	87	11/1/2018
 11/1/2018	TY3-2-10304	1	CDC_TAMPA	OPTC-100094	B08B6C16Q2	81	11/2/2018
 11/2/2018	TY3-2-10305	1	CDC_TAMPA	OPTC-100094	B08B6C16Q2	102	11/3/2018
 11/3/2018	TY3-2-10306	1	CDC_TAMPA	OPTC-100094	B08B6C16Q2	94	11/4/2018
 11/4/2018	TY3-2-10307	1	CDC_TAMPA	OPTC-100094	B08B6C16Q2	85	11/5/2018
 11/5/2018	TY3-2-10308	1	CDC_TAMPA	OPTC-100094	B08B6C16Q2	111	11/6/2018
 11/6/2018	TY3-2-10309	1	CDC_TAMPA	OPTC-100094	B08B6C16Q2	91	11/7/2018
 11/7/2018	TY3-2-10310	1	CDC_TAMPA	OPTC-100094	B08B6C16Q2	133	11/8/2018
 11/8/2018	TY3-2-10311	1	CDC_TAMPA	OPTC-100094	B08B6C16Q2	133	11/9/2018
 11/9/2018	TY3-2-10312	1	CDC_TAMPA	OPTC-100094	B08B6C16Q2	88	11/10/2018
 11/10/2018	TY3-2-10313	1	CDC_TAMPA	OPTC-100094	B08B6C16Q2	78	11/11/2018
 11/11/2018	TY3-2-10314	1	CDC_TAMPA	OPTC-100094	B08B6C16Q2	84	11/12/2018
 11/12/2018	TY3-2-10315	1	CDC_TAMPA	OPTC-100094	B08B6C16Q2	105	11/13/2018
 11/13/2018	TY3-2-10316	1	CDC_TAMPA	OPTC-100094	B08B6C16Q2	121	11/14/2018
 11/14/2018	TY3-2-10317	1	CDC_TAMPA	OPTC-100094	B08B6C16Q2	85	11/15/2018
 11/15/2018	TY3-2-10318	1	CDC_TAMPA	OPTC-100094	B08B6C16Q2	87	11/16/2018
 11/16/2018	TY3-2-10319	1	CDC_TAMPA	OPTC-100094	B08B6C16Q2	129	11/17/2018
 11/17/2018	TY3-2-10320	1	CDC_TAMPA	OPTC-100094	B08B6C16Q2	99	11/18/2018
 11/18/2018	TY3-2-10321	1	CDC_TAMPA	OPTC-100094	B08B6C16Q2	112	11/19/2018
 11/19/2018	TY3-2-10322	1	CDC_TAMPA	OPTC-100094	B08B6C16Q2	87	11/20/2018
 11/20/2018	TY3-2-10323	1	CDC_TAMPA	OPTC-100094	B08B6C16Q2	78	11/21/2018
 11/21/2018	TY3-2-10324	1	CDC_TAMPA	OPTC-100094	B08B6C16Q2	106	11/22/2018
 11/22/2018	TY3-2-10325	1	CDC_TAMPA	OPTC-100094	B08B6C16Q2	103	11/23/2018
 11/23/2018	TY3-2-10326	1	CDC_TAMPA	OPTC-100094	B08B6C16Q2	81	11/24/2018
 11/24/2018	TY3-2-10327	1	CDC_TAMPA	OPTC-100094	B08B6C16Q2	114	11/25/2018
 11/25/2018	TY3-2-10328	1	CDC_TAMPA	OPTC-100094	B08B6C16Q2	108	11/26/2018
 11/26/2018	TY3-2-10329	1	CDC_TAMPA	OPTC-100094	B08B6C16Q2	115	11/27/2018
 11/27/2018	TY3-2-10330	1	CDC_TAMPA	OPTC-100094	B08B6C16Q2	81	11/28/2018
 11/28/2018	TY3-2-10331	1	CDC_TAMPA	OPTC-100094	B08B6C16Q2	123	11/29/2018
 11/29/2018	TY3-2-10332	1	CDC_TAMPA	OPTC-100094	B08B6C16Q2	85	11/30/2018
 11/30/2018	TY3-2-10333	1	CDC_TAMPA	OPTC-100094	B08B6C16Q2	106	12/1/2018
 12/1/2018	TY3-2-10334	1	CDC_TAMPA	OPTC-100094	B08B6C16Q2	116	12/2/2018
 12/2/2018	TY3-2-10335	1	CDC_TAMPA	OPTC-100094	B08B6C16Q2	67	12/3/2018
 12/3/2018	TY3-2-10336	1	CDC_TAMPA	OPTC-100094	B08B6C16Q2	86	12/4/2018
 12/4/2018	TY3-2-10337	1	CDC_TAMPA	OPTC-100094	B08B6C16Q2	121	12/5/2018
 12/5/2018	TY3-2-10338	1	CDC_TAMPA	OPTC-100094	B08B6C16Q2	120	12/6/2018
 12/6/2018	TY3-2-10339	1	CDC_TAMPA	OPTC-100094	B08B6C16Q2	100	12/7/2018
 12/7/2018	TY3-2-10340	1	CDC_TAMPA	OPTC-100094	B08B6C16Q2	121	12/8/2018
 12/8/2018	TY3-2-10341	1	CDC_TAMPA	OPTC-100094	B08B6C16Q2	127	12/9/2018
 12/9/2018	TY3-2-10342	1	CDC_TAMPA	OPTC-100094	B08B6C16Q2	118	12/10/2018
 12/10/2018	TY3-2-10343	1	CDC_TAMPA	OPTC-100094	B08B6C16Q2	120	12/11/2018
 12/11/2018	TY3-2-10344	1	CDC_TAMPA	OPTC-100094	B08B6C16Q2	71	12/12/2018
 12/12/2018	TY3-2-10345	1	CDC_TAMPA	OPTC-100094	B08B6C16Q2	107	12/13/2018
 12/13/2018	TY3-2-10346	1	CDC_TAMPA	OPTC-100094	B08B6C16Q2	110	12/14/2018
 12/14/2018	TY3-2-10347	1	CDC_TAMPA	OPTC-100094	B08B6C16Q2	105	12/15/2018
 12/16/2018	TY3-2-10348	1	CDC_TAMPA	OPTC-100094	B08B6C16Q2	117	12/16/2018
 12/16/2018	TY3-2-10349	1	CDC_TAMPA	OPTC-100094	B08B6C16Q2	67	12/17/2018
 12/17/2018	TY3-2-10350	1	CDC_TAMPA	OPTC-100094	B08B6C16Q2	114	12/18/2018
 12/18/2018	TY3-2-10351	1	CDC_TAMPA	OPTC-100094	B08B6C16Q2	113	12/19/2018
 12/19/2018	TY3-2-10352	1	CDC_TAMPA	OPTC-100094	B08B6C16Q2	82	12/20/2018
 12/20/2018	TY3-2-10353	1	CDC_TAMPA	OPTC-100094	B08B6C16Q2	82	12/21/2018
 12/21/2018	TY3-2-10354	1	CDC_TAMPA	OPTC-100094	B08B6C16Q2	106	12/22/2018
 12/22/2018	TY3-2-10355	1	CDC_TAMPA	OPTC-100094	B08B6C16Q2	88	12/23/2018
 12/23/2018	TY3-2-10356	1	CDC_TAMPA	OPTC-100094	B08B6C16Q2	117	12/24/2018
 12/24/2018	TY3-2-10357	1	CDC_TAMPA	OPTC-100094	B08B6C16Q2	95	12/25/2018
 12/25/2018	TY3-2-10358	1	CDC_TAMPA	OPTC-100094	B08B6C16Q2	116	12/26/2018
 12/26/2018	TY3-2-10359	1	CDC_TAMPA	OPTC-100094	B08B6C16Q2	130	12/27/2018
 12/27/2018	TY3-2-10360	1	CDC_TAMPA	OPTC-100094	B08B6C16Q2	85	12/28/2018
 12/28/2018	TY3-2-10361	1	CDC_TAMPA	OPTC-100094	B08B6C16Q2	75	12/29/2018
 12/29/2018	TY3-2-10362	1	CDC_TAMPA	OPTC-100094	B08B6C16Q2	124	12/30/2018
 12/30/2018	TY3-2-10363	1	CDC_TAMPA	OPTC-100094	B08B6C16Q2	100	12/31/2018
 1/1/2019	TY3-2-10364	1	CDC_TAMPA	OPTC-100094	B08B6C16Q2	128	1/1/2019
 