Scenario	Replication	ProductName	Site	OrdersReceived	OrdersShipped	UnitsShipped	OnTimeOrders	LateOrders	OrderFillRate	OrderQtyFillRate	AvgDaysLateForLateOrdersOnly	TransportationCost
Scenario 2 - Single Site, Multiple Products	0	B08B6C16Q2	CDC_Tampa	33	33	13250	20	13	0.606	0.660	2.385	0.00
Scenario 2 - Single Site, Multiple Products	0	B07HNLBZ4Y	CDC_Tampa	33	33	26500	22	11	0.667	0.792	3.182	0.00
