Date	OrderNumber	OrderLineNumber	Site	Customer	Product	Qty Shipped	Due Date
1/1/2018	19374415		CDC_TAMPA	OPTC-100094	B08B6C16Q2	19	1/3/2018
 1/1/2018	19374414		CDC_TAMPA	OPTC-100021	B08B6C16Q2	39	1/3/2018
 1/1/2018	19374416		CDC_TAMPA	OPTC-100095	B08B6C16Q2	27	1/2/2018
 1/2/2018	19374417		CDC_TAMPA	OPTC-100085	B08B6C16Q2	15	1/6/2018
 1/2/2018	19374420		CDC_TAMPA	OPTC-100017	B08B6C16Q2	19	1/5/2018
 1/2/2018	19374421		CDC_TAMPA	OPTC-100048	B08B6C16Q2	30	1/3/2018
 1/2/2018	19374418		CDC_TAMPA	OPTC-100063	B08B6C16Q2	42	1/5/2018
 1/2/2018	19374419		CDC_TAMPA	OPTC-100001	B08B6C16Q2	47	1/3/2018
 1/3/2018	19374422		CDC_TAMPA	OPTC-100023	B08B6C16Q2	10	1/7/2018
 1/4/2018	19374424		CDC_TAMPA	OPTC-100056	B08B6C16Q2	9	1/7/2018
 1/4/2018	19374423		CDC_TAMPA	OPTC-100078	B08B6C16Q2	19	1/8/2018
 1/4/2018	19374426		CDC_TAMPA	OPTC-100013	B08B6C16Q2	30	1/6/2018
 1/4/2018	19374425		CDC_TAMPA	OPTC-100010	B08B6C16Q2	7	1/7/2018
 1/5/2018	19374429		CDC_TAMPA	OPTC-100148	B08B6C16Q2	9	1/9/2018
 1/5/2018	19374427		CDC_TAMPA	OPTC-100020	B08B6C16Q2	32	1/9/2018
 1/5/2018	19374428		CDC_TAMPA	OPTC-100088	B08B6C16Q2	40	1/9/2018
 1/6/2018	SRC-CDC_TAMPA_B08B6C16Q2_1	1	RDC_NASHVILLE	CDC_TAMPA	B08B6C16Q2	306	1/6/2018
 1/6/2018	19374430		CDC_TAMPA	OPTC-100045	B08B6C16Q2	9	1/7/2018
 1/7/2018	19374433		CDC_TAMPA	OPTC-100051	B08B6C16Q2	44	1/8/2018
 1/7/2018	19374432		CDC_TAMPA	OPTC-100086	B08B6C16Q2	48	1/8/2018
 1/7/2018	19374431		CDC_TAMPA	OPTC-100417	B08B6C16Q2	41	1/10/2018
 1/8/2018	19374434		CDC_TAMPA	OPTC-100053	B08B6C16Q2	30	1/13/2018
 1/9/2018	19374436		CDC_TAMPA	OPTC-100087	B08B6C16Q2	19	1/12/2018
 1/9/2018	19374435		CDC_TAMPA	OPTC-100047	B08B6C16Q2	36	1/10/2018
 1/9/2018	19374438		CDC_TAMPA	OPTC-100052	B08B6C16Q2	36	1/11/2018
 1/9/2018	19374437		CDC_TAMPA	OPTC-100075	B08B6C16Q2	41	1/12/2018
 1/11/2018	SRC-CDC_TAMPA_B08B6C16Q2_2	1	RDC_NASHVILLE	CDC_TAMPA	B08B6C16Q2	315	1/11/2018
 1/11/2018	19374439		CDC_TAMPA	OPTC-100036	B08B6C16Q2	8	1/14/2018
 1/11/2018	19374440		CDC_TAMPA	OPTC-100059	B08B6C16Q2	28	1/13/2018
 1/13/2018	19374441		CDC_TAMPA	OPTC-100024	B08B6C16Q2	10	1/17/2018
 1/14/2018	19374445		CDC_TAMPA	OPTC-100014	B08B6C16Q2	18	1/19/2018
 1/14/2018	19374442		CDC_TAMPA	OPTC-100417	B08B6C16Q2	27	1/17/2018
 1/14/2018	19374444		CDC_TAMPA	OPTC-100078	B08B6C16Q2	16	1/17/2018
 1/14/2018	19374443		CDC_TAMPA	OPTC-100023	B08B6C16Q2	31	1/17/2018
 1/15/2018	19374446		CDC_TAMPA	OPTC-100095	B08B6C16Q2	8	1/16/2018
 1/15/2018	19374447		CDC_TAMPA	OPTC-100094	B08B6C16Q2	22	1/18/2018
 1/16/2018	19374449		CDC_TAMPA	OPTC-100047	B08B6C16Q2	21	1/17/2018
 1/16/2018	19374450		CDC_TAMPA	OPTC-100001	B08B6C16Q2	32	1/20/2018
 1/16/2018	19374451		CDC_TAMPA	OPTC-100094	B08B6C16Q2	35	1/19/2018
 1/16/2018	19374448		CDC_TAMPA	OPTC-100094	B08B6C16Q2	25	1/17/2018
 1/17/2018	19374452		CDC_TAMPA	OPTC-100088	B08B6C16Q2	18	1/21/2018
 1/17/2018	19374453		CDC_TAMPA	OPTC-100086	B08B6C16Q2	23	1/18/2018
 1/17/2018	19374455		CDC_TAMPA	OPTC-100021	B08B6C16Q2	24	1/19/2018
 1/17/2018	19374454		CDC_TAMPA	OPTC-100017	B08B6C16Q2	47	1/22/2018
 1/18/2018	SRC-CDC_TAMPA_B08B6C16Q2_3	1	RDC_NASHVILLE	CDC_TAMPA	B08B6C16Q2	333	1/18/2018
 1/18/2018	19374456		CDC_TAMPA	OPTC-100024	B08B6C16Q2	18	1/19/2018
 1/18/2018	19374457		CDC_TAMPA	OPTC-100088	B08B6C16Q2	23	1/19/2018
 1/19/2018	19374458		CDC_TAMPA	OPTC-100048	B08B6C16Q2	8	1/24/2018
 1/20/2018	19374459		CDC_TAMPA	OPTC-100075	B08B6C16Q2	17	1/25/2018
 1/21/2018	19374461		CDC_TAMPA	OPTC-100056	B08B6C16Q2	24	1/25/2018
 1/21/2018	19374462		CDC_TAMPA	OPTC-100001	B08B6C16Q2	27	1/25/2018
 1/21/2018	19374460		CDC_TAMPA	OPTC-100047	B08B6C16Q2	30	1/26/2018
 1/21/2018	19374463		CDC_TAMPA	OPTC-100001	B08B6C16Q2	39	1/22/2018
 1/21/2018	19374464		CDC_TAMPA	OPTC-100051	B08B6C16Q2	42	1/25/2018
 1/22/2018	19374466		CDC_TAMPA	OPTC-100036	B08B6C16Q2	17	1/27/2018
 1/22/2018	19374465		CDC_TAMPA	OPTC-100020	B08B6C16Q2	20	1/25/2018
 1/22/2018	19374467		CDC_TAMPA	OPTC-100052	B08B6C16Q2	37	1/24/2018
 1/23/2018	SRC-CDC_TAMPA_B08B6C16Q2_4	1	RDC_NASHVILLE	CDC_TAMPA	B08B6C16Q2	323	1/23/2018
 1/23/2018	19374470		CDC_TAMPA	OPTC-100094	B08B6C16Q2	1	1/24/2018
 1/23/2018	19374468		CDC_TAMPA	OPTC-100075	B08B6C16Q2	22	1/27/2018
 1/23/2018	19374469		CDC_TAMPA	OPTC-100086	B08B6C16Q2	13	1/27/2018
 1/23/2018	19374471		CDC_TAMPA	OPTC-100036	B08B6C16Q2	15	1/27/2018
 1/25/2018	19374473		CDC_TAMPA	OPTC-100417	B08B6C16Q2	25	1/30/2018
 1/25/2018	19374472		CDC_TAMPA	OPTC-100056	B08B6C16Q2	33	1/30/2018
 1/26/2018	19374474		CDC_TAMPA	OPTC-100021	B08B6C16Q2	35	1/31/2018
 1/27/2018	19374476		CDC_TAMPA	OPTC-100417	B08B6C16Q2	8	2/1/2018
 1/27/2018	19374475		CDC_TAMPA	OPTC-100020	B08B6C16Q2	15	1/28/2018
 1/28/2018	19374478		CDC_TAMPA	OPTC-100086	B08B6C16Q2	20	2/2/2018
 1/28/2018	19374479		CDC_TAMPA	OPTC-100001	B08B6C16Q2	47	1/31/2018
 1/28/2018	19374477		CDC_TAMPA	OPTC-100148	B08B6C16Q2	48	2/1/2018
 1/29/2018	19374481		CDC_TAMPA	OPTC-100417	B08B6C16Q2	5	2/3/2018
 1/29/2018	19374480		CDC_TAMPA	OPTC-100001	B08B6C16Q2	9	2/3/2018
 1/29/2018	19374482		CDC_TAMPA	OPTC-100087	B08B6C16Q2	29	2/1/2018
 1/30/2018	SRC-CDC_TAMPA_B08B6C16Q2_5	1	RDC_NASHVILLE	CDC_TAMPA	B08B6C16Q2	303	1/30/2018
 1/30/2018	19374484		CDC_TAMPA	OPTC-100036	B08B6C16Q2	18	2/1/2018
 1/30/2018	19374483		CDC_TAMPA	OPTC-100048	B08B6C16Q2	21	2/4/2018
 1/31/2018	19374485		CDC_TAMPA	OPTC-100020	B08B6C16Q2	27	2/4/2018
 2/1/2018	19374487		CDC_TAMPA	OPTC-100013	B08B6C16Q2	28	2/4/2018
 2/1/2018	19374486		CDC_TAMPA	OPTC-100048	B08B6C16Q2	40	2/4/2018
 2/3/2018	19374488		CDC_TAMPA	OPTC-100085	B08B6C16Q2	42	2/6/2018
 2/3/2018	19374489		CDC_TAMPA	OPTC-100095	B08B6C16Q2	21	2/7/2018
 2/4/2018	19374493		CDC_TAMPA	OPTC-100021	B08B6C16Q2	5	2/5/2018
 2/4/2018	19374492		CDC_TAMPA	OPTC-100056	B08B6C16Q2	21	2/7/2018
 2/4/2018	19374490		CDC_TAMPA	OPTC-100087	B08B6C16Q2	31	2/6/2018
 2/4/2018	19374491		CDC_TAMPA	OPTC-100078	B08B6C16Q2	48	2/5/2018
 2/5/2018	SRC-CDC_TAMPA_B08B6C16Q2_6	1	RDC_NASHVILLE	CDC_TAMPA	B08B6C16Q2	314	2/5/2018
 2/5/2018	19374494		CDC_TAMPA	OPTC-100052	B08B6C16Q2	43	2/9/2018
 2/7/2018	19374496		CDC_TAMPA	OPTC-100085	B08B6C16Q2	35	2/11/2018
 2/7/2018	19374495		CDC_TAMPA	OPTC-100087	B08B6C16Q2	17	2/12/2018
 2/8/2018	19374501		CDC_TAMPA	OPTC-100417	B08B6C16Q2	24	2/12/2018
 2/8/2018	19374500		CDC_TAMPA	OPTC-100001	B08B6C16Q2	28	2/12/2018
 2/8/2018	19374497		CDC_TAMPA	OPTC-100036	B08B6C16Q2	27	2/12/2018
 2/8/2018	19374499		CDC_TAMPA	OPTC-100045	B08B6C16Q2	29	2/12/2018
 2/8/2018	19374498		CDC_TAMPA	OPTC-100094	B08B6C16Q2	41	2/10/2018
 2/9/2018	19374502		CDC_TAMPA	OPTC-100020	B08B6C16Q2	27	2/14/2018
 2/9/2018	19374503		CDC_TAMPA	OPTC-100017	B08B6C16Q2	27	2/10/2018
 2/10/2018	SRC-CDC_TAMPA_B08B6C16Q2_7	1	RDC_NASHVILLE	CDC_TAMPA	B08B6C16Q2	300	2/10/2018
 2/10/2018	19374505		CDC_TAMPA	OPTC-100078	B08B6C16Q2	3	2/15/2018
 2/10/2018	19374506		CDC_TAMPA	OPTC-100013	B08B6C16Q2	3	2/11/2018
 2/10/2018	19374507		CDC_TAMPA	OPTC-100020	B08B6C16Q2	22	2/14/2018
 2/11/2018	19374510		CDC_TAMPA	OPTC-100013	B08B6C16Q2	15	2/15/2018
 2/11/2018	19374509		CDC_TAMPA	OPTC-100013	B08B6C16Q2	20	2/12/2018
 2/12/2018	19374513		CDC_TAMPA	OPTC-100053	B08B6C16Q2	20	2/15/2018
 2/12/2018	19374512		CDC_TAMPA	OPTC-100048	B08B6C16Q2	24	2/17/2018
 2/13/2018	19374516		CDC_TAMPA	OPTC-100013	B08B6C16Q2	6	2/18/2018
 2/13/2018	19374515		CDC_TAMPA	OPTC-100053	B08B6C16Q2	9	2/16/2018
 2/14/2018	19374517		CDC_TAMPA	OPTC-100075	B08B6C16Q2	9	2/15/2018
 2/14/2018	19374520		CDC_TAMPA	OPTC-100052	B08B6C16Q2	17	2/19/2018
 2/14/2018	19374518		CDC_TAMPA	OPTC-100045	B08B6C16Q2	18	2/16/2018
 2/14/2018	19374519		CDC_TAMPA	OPTC-100051	B08B6C16Q2	27	2/19/2018
 2/15/2018	19374522		CDC_TAMPA	OPTC-100024	B08B6C16Q2	8	2/18/2018
 2/15/2018	19374523		CDC_TAMPA	OPTC-100053	B08B6C16Q2	9	2/17/2018
 2/15/2018	19374524		CDC_TAMPA	OPTC-100417	B08B6C16Q2	44	2/17/2018
 2/15/2018	19374521		CDC_TAMPA	OPTC-100059	B08B6C16Q2	41	2/17/2018
 2/16/2018	SRC-CDC_TAMPA_B08B6C16Q2_8	1	RDC_NASHVILLE	CDC_TAMPA	B08B6C16Q2	317	2/16/2018
 2/16/2018	19374527		CDC_TAMPA	OPTC-100047	B08B6C16Q2	13	2/20/2018
 2/16/2018	19374526		CDC_TAMPA	OPTC-100088	B08B6C16Q2	12	2/21/2018
 2/17/2018	19374529		CDC_TAMPA	OPTC-100017	B08B6C16Q2	14	2/19/2018
 2/17/2018	19374528		CDC_TAMPA	OPTC-100059	B08B6C16Q2	21	2/21/2018
 2/17/2018	19374530		CDC_TAMPA	OPTC-100094	B08B6C16Q2	40	2/18/2018
 2/18/2018	19374532		CDC_TAMPA	OPTC-100094	B08B6C16Q2	19	2/20/2018
 2/18/2018	19374531		CDC_TAMPA	OPTC-100024	B08B6C16Q2	22	2/22/2018
 2/18/2018	19374533		CDC_TAMPA	OPTC-100013	B08B6C16Q2	22	2/23/2018
 2/19/2018	19374537		CDC_TAMPA	OPTC-100052	B08B6C16Q2	5	2/24/2018
 2/19/2018	19374534		CDC_TAMPA	OPTC-100087	B08B6C16Q2	7	2/20/2018
 2/20/2018	19374539		CDC_TAMPA	OPTC-100063	B08B6C16Q2	4	2/24/2018
 2/20/2018	19374538		CDC_TAMPA	OPTC-100013	B08B6C16Q2	6	2/23/2018
 2/20/2018	19374541		CDC_TAMPA	OPTC-100036	B08B6C16Q2	43	2/24/2018
 2/21/2018	19374543		CDC_TAMPA	OPTC-100010	B08B6C16Q2	44	2/24/2018
 2/21/2018	19374544		CDC_TAMPA	OPTC-100047	B08B6C16Q2	44	2/24/2018
 2/21/2018	19374542		CDC_TAMPA	OPTC-100148	B08B6C16Q2	41	2/26/2018
 2/22/2018	SRC-CDC_TAMPA_B08B6C16Q2_9	1	RDC_NASHVILLE	CDC_TAMPA	B08B6C16Q2	330	2/22/2018
 2/22/2018	19374546		CDC_TAMPA	OPTC-100051	B08B6C16Q2	8	2/26/2018
 2/22/2018	19374548		CDC_TAMPA	OPTC-100010	B08B6C16Q2	9	2/27/2018
 2/22/2018	19374549		CDC_TAMPA	OPTC-100010	B08B6C16Q2	13	2/26/2018
 2/22/2018	19374547		CDC_TAMPA	OPTC-100088	B08B6C16Q2	32	2/27/2018
 2/22/2018	19374545		CDC_TAMPA	OPTC-100059	B08B6C16Q2	46	2/27/2018
 2/24/2018	19374551		CDC_TAMPA	OPTC-100417	B08B6C16Q2	14	3/1/2018
 2/24/2018	19374550		CDC_TAMPA	OPTC-100059	B08B6C16Q2	43	2/27/2018
 2/24/2018	19374553		CDC_TAMPA	OPTC-100052	B08B6C16Q2	45	2/26/2018
 2/25/2018	19374554		CDC_TAMPA	OPTC-100036	B08B6C16Q2	7	2/26/2018
 2/25/2018	19374555		CDC_TAMPA	OPTC-100095	B08B6C16Q2	7	2/26/2018
 2/26/2018	SRC-CDC_TAMPA_B08B6C16Q2_10	1	RDC_NASHVILLE	CDC_TAMPA	B08B6C16Q2	339	2/26/2018
 2/26/2018	19374556		CDC_TAMPA	OPTC-100095	B08B6C16Q2	13	3/3/2018
 2/26/2018	19374557		CDC_TAMPA	OPTC-100078	B08B6C16Q2	12	3/2/2018
 2/26/2018	19374558		CDC_TAMPA	OPTC-100085	B08B6C16Q2	21	3/3/2018
 2/26/2018	19374559		CDC_TAMPA	OPTC-100051	B08B6C16Q2	26	3/1/2018
 2/27/2018	19374564		CDC_TAMPA	OPTC-100053	B08B6C16Q2	7	2/28/2018
 2/27/2018	19374561		CDC_TAMPA	OPTC-100020	B08B6C16Q2	18	3/4/2018
 2/27/2018	19374562		CDC_TAMPA	OPTC-100023	B08B6C16Q2	40	2/28/2018
 2/28/2018	19374565		CDC_TAMPA	OPTC-100075	B08B6C16Q2	11	3/4/2018
 2/28/2018	19374566		CDC_TAMPA	OPTC-100052	B08B6C16Q2	18	3/5/2018
 2/28/2018	19374567		CDC_TAMPA	OPTC-100063	B08B6C16Q2	36	3/5/2018
 2/28/2018	19374568		CDC_TAMPA	OPTC-100085	B08B6C16Q2	14	3/4/2018
 3/1/2018	19374571		CDC_TAMPA	OPTC-100088	B08B6C16Q2	19	3/2/2018
 3/1/2018	19374570		CDC_TAMPA	OPTC-100095	B08B6C16Q2	31	3/6/2018
 3/1/2018	19374574		CDC_TAMPA	OPTC-100047	B08B6C16Q2	1	3/3/2018
 3/2/2018	19374576		CDC_TAMPA	OPTC-100021	B08B6C16Q2	16	3/3/2018
 3/3/2018	19374579		CDC_TAMPA	OPTC-100086	B08B6C16Q2	6	3/5/2018
 3/3/2018	19374580		CDC_TAMPA	OPTC-100086	B08B6C16Q2	15	3/4/2018
 3/3/2018	19374583		CDC_TAMPA	OPTC-100047	B08B6C16Q2	27	3/8/2018
 3/3/2018	19374582		CDC_TAMPA	OPTC-100036	B08B6C16Q2	46	3/5/2018
 3/4/2018	19374588		CDC_TAMPA	OPTC-100052	B08B6C16Q2	1	3/6/2018
 3/4/2018	19374587		CDC_TAMPA	OPTC-100078	B08B6C16Q2	28	3/8/2018
 3/5/2018	SRC-CDC_TAMPA_B08B6C16Q2_11	1	RDC_NASHVILLE	CDC_TAMPA	B08B6C16Q2	303	3/5/2018
 3/5/2018	19374590		CDC_TAMPA	OPTC-100086	B08B6C16Q2	23	3/10/2018
 3/5/2018	19374589		CDC_TAMPA	OPTC-100086	B08B6C16Q2	48	3/9/2018
 3/6/2018	19374591		CDC_TAMPA	OPTC-100075	B08B6C16Q2	3	3/7/2018
 3/7/2018	19374594		CDC_TAMPA	OPTC-100063	B08B6C16Q2	20	3/10/2018
 3/7/2018	19374601		CDC_TAMPA	OPTC-100088	B08B6C16Q2	14	3/8/2018
 3/7/2018	19374598		CDC_TAMPA	OPTC-100063	B08B6C16Q2	42	3/8/2018
 3/7/2018	19374597		CDC_TAMPA	OPTC-100086	B08B6C16Q2	36	3/12/2018
 3/7/2018	19374600		CDC_TAMPA	OPTC-100036	B08B6C16Q2	44	3/9/2018
 3/8/2018	19374605		CDC_TAMPA	OPTC-100087	B08B6C16Q2	34	3/10/2018
 3/8/2018	19374609		CDC_TAMPA	OPTC-100053	B08B6C16Q2	36	3/13/2018
 3/8/2018	19374607		CDC_TAMPA	OPTC-100051	B08B6C16Q2	8	3/10/2018
 3/8/2018	19374610		CDC_TAMPA	OPTC-100036	B08B6C16Q2	32	3/10/2018
 3/9/2018	19374614		CDC_TAMPA	OPTC-100095	B08B6C16Q2	5	3/12/2018
 3/9/2018	19374613		CDC_TAMPA	OPTC-100014	B08B6C16Q2	13	3/12/2018
 3/9/2018	19374612		CDC_TAMPA	OPTC-100052	B08B6C16Q2	24	3/10/2018
 3/10/2018	SRC-CDC_TAMPA_B08B6C16Q2_12	1	RDC_NASHVILLE	CDC_TAMPA	B08B6C16Q2	303	3/9/2018
 3/10/2018	19374626		CDC_TAMPA	OPTC-100024	B08B6C16Q2	2	3/15/2018
 3/10/2018	19374622		CDC_TAMPA	OPTC-100052	B08B6C16Q2	26	3/11/2018
 3/10/2018	19374618		CDC_TAMPA	OPTC-100087	B08B6C16Q2	16	3/12/2018
 3/10/2018	19374619		CDC_TAMPA	OPTC-100053	B08B6C16Q2	23	3/12/2018
 3/10/2018	19374625		CDC_TAMPA	OPTC-100013	B08B6C16Q2	28	3/12/2018
 3/11/2018	19374629		CDC_TAMPA	OPTC-100017	B08B6C16Q2	39	3/12/2018
 3/12/2018	19374631		CDC_TAMPA	OPTC-100086	B08B6C16Q2	40	3/15/2018
 3/12/2018	19374632		CDC_TAMPA	OPTC-100148	B08B6C16Q2	50	3/15/2018
 3/12/2018	19374636		CDC_TAMPA	OPTC-100059	B08B6C16Q2	50	3/13/2018
 3/13/2018	SRC-CDC_TAMPA_B08B6C16Q2_13	1	RDC_NASHVILLE	CDC_TAMPA	B08B6C16Q2	330	3/13/2018
 3/13/2018	19374637		CDC_TAMPA	OPTC-100051	B08B6C16Q2	14	3/14/2018
 3/13/2018	19374642		CDC_TAMPA	OPTC-100148	B08B6C16Q2	28	3/18/2018
 3/14/2018	19374652		CDC_TAMPA	OPTC-100052	B08B6C16Q2	9	3/18/2018
 3/14/2018	19374649		CDC_TAMPA	OPTC-100051	B08B6C16Q2	41	3/17/2018
 3/14/2018	19374651		CDC_TAMPA	OPTC-100047	B08B6C16Q2	12	3/18/2018
 3/14/2018	19374647		CDC_TAMPA	OPTC-100417	B08B6C16Q2	46	3/15/2018
 3/15/2018	19374653		CDC_TAMPA	OPTC-100048	B08B6C16Q2	30	3/20/2018
 3/16/2018	19374664		CDC_TAMPA	OPTC-100417	B08B6C16Q2	6	3/17/2018
 3/16/2018	19374665		CDC_TAMPA	OPTC-100053	B08B6C16Q2	44	3/17/2018
 3/16/2018	19374657		CDC_TAMPA	OPTC-100024	B08B6C16Q2	34	3/20/2018
 3/17/2018	SRC-CDC_TAMPA_B08B6C16Q2_14	1	RDC_NASHVILLE	CDC_TAMPA	B08B6C16Q2	320	3/17/2018
 3/17/2018	19374674		CDC_TAMPA	OPTC-100014	B08B6C16Q2	12	3/21/2018
 3/17/2018	19374673		CDC_TAMPA	OPTC-100053	B08B6C16Q2	18	3/18/2018
 3/17/2018	19374668		CDC_TAMPA	OPTC-100048	B08B6C16Q2	30	3/18/2018
 3/17/2018	19374670		CDC_TAMPA	OPTC-100095	B08B6C16Q2	43	3/18/2018
 3/18/2018	19374682		CDC_TAMPA	OPTC-100047	B08B6C16Q2	27	3/19/2018
 3/18/2018	19374676		CDC_TAMPA	OPTC-100095	B08B6C16Q2	36	3/20/2018
 3/18/2018	19374683		CDC_TAMPA	OPTC-100059	B08B6C16Q2	36	3/21/2018
 3/18/2018	19374680		CDC_TAMPA	OPTC-100020	B08B6C16Q2	34	3/22/2018
 3/19/2018	19374691		CDC_TAMPA	OPTC-100052	B08B6C16Q2	14	3/24/2018
 3/19/2018	19374690		CDC_TAMPA	OPTC-100059	B08B6C16Q2	44	3/24/2018
 3/19/2018	19374688		CDC_TAMPA	OPTC-100087	B08B6C16Q2	45	3/24/2018
 3/19/2018	19374687		CDC_TAMPA	OPTC-100020	B08B6C16Q2	18	3/23/2018
 3/21/2018	19374696		CDC_TAMPA	OPTC-100020	B08B6C16Q2	4	3/22/2018
 3/21/2018	19374697		CDC_TAMPA	OPTC-100087	B08B6C16Q2	11	3/26/2018
 3/21/2018	19374702		CDC_TAMPA	OPTC-100417	B08B6C16Q2	25	3/26/2018
 3/21/2018	19374698		CDC_TAMPA	OPTC-100014	B08B6C16Q2	33	3/25/2018
 3/21/2018	19374699		CDC_TAMPA	OPTC-100148	B08B6C16Q2	50	3/26/2018
 3/22/2018	19374711		CDC_TAMPA	OPTC-100010	B08B6C16Q2	11	3/26/2018
 3/22/2018	19374704		CDC_TAMPA	OPTC-100078	B08B6C16Q2	18	3/25/2018
 3/22/2018	19374705		CDC_TAMPA	OPTC-100063	B08B6C16Q2	26	3/26/2018
 3/22/2018	19374707		CDC_TAMPA	OPTC-100024	B08B6C16Q2	28	3/25/2018
 3/23/2018	19374721		CDC_TAMPA	OPTC-100075	B08B6C16Q2	20	3/25/2018
 3/23/2018	19374712		CDC_TAMPA	OPTC-100017	B08B6C16Q2	22	3/25/2018
 3/23/2018	19374717		CDC_TAMPA	OPTC-100095	B08B6C16Q2	30	3/28/2018
 3/23/2018	19374722		CDC_TAMPA	OPTC-100056	B08B6C16Q2	31	3/27/2018
 3/23/2018	19374719		CDC_TAMPA	OPTC-100417	B08B6C16Q2	7	3/24/2018
 3/24/2018	SRC-CDC_TAMPA_B08B6C16Q2_15	1	RDC_NASHVILLE	CDC_TAMPA	B08B6C16Q2	320	3/20/2018
 3/24/2018	SRC-CDC_TAMPA_B08B6C16Q2_16	1	RDC_NASHVILLE	CDC_TAMPA	B08B6C16Q2	327	3/24/2018
 3/24/2018	19374727		CDC_TAMPA	OPTC-100087	B08B6C16Q2	22	3/29/2018
 3/24/2018	19374730		CDC_TAMPA	OPTC-100010	B08B6C16Q2	23	3/27/2018
 3/24/2018	19374731		CDC_TAMPA	OPTC-100088	B08B6C16Q2	46	3/25/2018
 3/24/2018	19374723		CDC_TAMPA	OPTC-100095	B08B6C16Q2	25	3/27/2018
 3/25/2018	19374732		CDC_TAMPA	OPTC-100148	B08B6C16Q2	14	3/27/2018
 3/25/2018	19374734		CDC_TAMPA	OPTC-100020	B08B6C16Q2	19	3/30/2018
 3/26/2018	19374735		CDC_TAMPA	OPTC-100045	B08B6C16Q2	35	3/27/2018
 3/27/2018	19374737		CDC_TAMPA	OPTC-100056	B08B6C16Q2	48	3/30/2018
 3/27/2018	19374740		CDC_TAMPA	OPTC-100085	B08B6C16Q2	21	3/29/2018
 3/27/2018	19374741		CDC_TAMPA	OPTC-100059	B08B6C16Q2	25	3/31/2018
 3/28/2018	19374744		CDC_TAMPA	OPTC-100417	B08B6C16Q2	18	4/1/2018
 3/28/2018	19374743		CDC_TAMPA	OPTC-100086	B08B6C16Q2	21	3/30/2018
 3/29/2018	19374750		CDC_TAMPA	OPTC-100020	B08B6C16Q2	13	4/1/2018
 3/29/2018	19374747		CDC_TAMPA	OPTC-100014	B08B6C16Q2	31	3/31/2018
 3/30/2018	19374752		CDC_TAMPA	OPTC-100095	B08B6C16Q2	13	4/4/2018
 3/30/2018	19374753		CDC_TAMPA	OPTC-100094	B08B6C16Q2	2	4/1/2018
 3/31/2018	SRC-CDC_TAMPA_B08B6C16Q2_17	1	RDC_NASHVILLE	CDC_TAMPA	B08B6C16Q2	342	3/29/2018
 3/31/2018	19374760		CDC_TAMPA	OPTC-100013	B08B6C16Q2	15	4/1/2018
 3/31/2018	19374761		CDC_TAMPA	OPTC-100417	B08B6C16Q2	28	4/3/2018
 3/31/2018	19374755		CDC_TAMPA	OPTC-100001	B08B6C16Q2	8	4/3/2018
 