Date	Site	Product	Qty On Order
1/1/2018	CDC_TAMPA	B08B6C16Q2	0
1/2/2018	CDC_TAMPA	B08B6C16Q2	0
1/3/2018	CDC_TAMPA	B08B6C16Q2	0
1/4/2018	CDC_TAMPA	B08B6C16Q2	306
1/4/2018	RDC_NASHVILLE	B08B6C16Q2	0
1/5/2018	CDC_TAMPA	B08B6C16Q2	306
1/5/2018	RDC_NASHVILLE	B08B6C16Q2	0
1/6/2018	CDC_TAMPA	B08B6C16Q2	306
1/6/2018	RDC_NASHVILLE	B08B6C16Q2	0
1/7/2018	CDC_TAMPA	B08B6C16Q2	306
1/7/2018	RDC_NASHVILLE	B08B6C16Q2	0
1/8/2018	CDC_TAMPA	B08B6C16Q2	306
1/8/2018	RDC_NASHVILLE	B08B6C16Q2	0
1/9/2018	CDC_TAMPA	B08B6C16Q2	621
1/9/2018	RDC_NASHVILLE	B08B6C16Q2	0
1/10/2018	CDC_TAMPA	B08B6C16Q2	621
1/10/2018	RDC_NASHVILLE	B08B6C16Q2	306
1/11/2018	CDC_TAMPA	B08B6C16Q2	621
1/11/2018	RDC_NASHVILLE	B08B6C16Q2	306
1/12/2018	CDC_TAMPA	B08B6C16Q2	621
1/12/2018	RDC_NASHVILLE	B08B6C16Q2	306
1/13/2018	CDC_TAMPA	B08B6C16Q2	621
1/13/2018	RDC_NASHVILLE	B08B6C16Q2	306
1/14/2018	CDC_TAMPA	B08B6C16Q2	621
1/14/2018	RDC_NASHVILLE	B08B6C16Q2	306
1/15/2018	CDC_TAMPA	B08B6C16Q2	621
1/15/2018	RDC_NASHVILLE	B08B6C16Q2	306
1/16/2018	CDC_TAMPA	B08B6C16Q2	648
1/16/2018	RDC_NASHVILLE	B08B6C16Q2	306
1/17/2018	CDC_TAMPA	B08B6C16Q2	648
1/17/2018	RDC_NASHVILLE	B08B6C16Q2	621
1/18/2018	CDC_TAMPA	B08B6C16Q2	648
1/18/2018	RDC_NASHVILLE	B08B6C16Q2	621
1/19/2018	CDC_TAMPA	B08B6C16Q2	648
1/19/2018	RDC_NASHVILLE	B08B6C16Q2	621
1/20/2018	CDC_TAMPA	B08B6C16Q2	648
1/20/2018	RDC_NASHVILLE	B08B6C16Q2	315
1/21/2018	CDC_TAMPA	B08B6C16Q2	656
1/21/2018	RDC_NASHVILLE	B08B6C16Q2	315
1/22/2018	CDC_TAMPA	B08B6C16Q2	656
1/22/2018	RDC_NASHVILLE	B08B6C16Q2	315
1/23/2018	CDC_TAMPA	B08B6C16Q2	656
1/23/2018	RDC_NASHVILLE	B08B6C16Q2	315
1/24/2018	CDC_TAMPA	B08B6C16Q2	656
1/24/2018	RDC_NASHVILLE	B08B6C16Q2	971
1/25/2018	CDC_TAMPA	B08B6C16Q2	656
1/25/2018	RDC_NASHVILLE	B08B6C16Q2	971
1/26/2018	CDC_TAMPA	B08B6C16Q2	656
1/26/2018	RDC_NASHVILLE	B08B6C16Q2	971
1/27/2018	CDC_TAMPA	B08B6C16Q2	656
1/27/2018	RDC_NASHVILLE	B08B6C16Q2	656
1/28/2018	CDC_TAMPA	B08B6C16Q2	626
1/28/2018	RDC_NASHVILLE	B08B6C16Q2	656
1/29/2018	CDC_TAMPA	B08B6C16Q2	626
1/29/2018	RDC_NASHVILLE	B08B6C16Q2	656
1/30/2018	CDC_TAMPA	B08B6C16Q2	626
1/30/2018	RDC_NASHVILLE	B08B6C16Q2	656
1/31/2018	CDC_TAMPA	B08B6C16Q2	626
1/31/2018	RDC_NASHVILLE	B08B6C16Q2	959
2/1/2018	CDC_TAMPA	B08B6C16Q2	626
2/1/2018	RDC_NASHVILLE	B08B6C16Q2	959
2/2/2018	CDC_TAMPA	B08B6C16Q2	303
2/2/2018	RDC_NASHVILLE	B08B6C16Q2	959
2/3/2018	CDC_TAMPA	B08B6C16Q2	617
2/3/2018	RDC_NASHVILLE	B08B6C16Q2	303
2/4/2018	CDC_TAMPA	B08B6C16Q2	617
2/4/2018	RDC_NASHVILLE	B08B6C16Q2	303
2/5/2018	CDC_TAMPA	B08B6C16Q2	617
2/5/2018	RDC_NASHVILLE	B08B6C16Q2	303
2/6/2018	CDC_TAMPA	B08B6C16Q2	617
2/6/2018	RDC_NASHVILLE	B08B6C16Q2	303
2/7/2018	CDC_TAMPA	B08B6C16Q2	617
2/7/2018	RDC_NASHVILLE	B08B6C16Q2	617
2/8/2018	CDC_TAMPA	B08B6C16Q2	917
2/8/2018	RDC_NASHVILLE	B08B6C16Q2	617
2/9/2018	CDC_TAMPA	B08B6C16Q2	614
2/9/2018	RDC_NASHVILLE	B08B6C16Q2	617
2/10/2018	CDC_TAMPA	B08B6C16Q2	614
2/10/2018	RDC_NASHVILLE	B08B6C16Q2	314
2/11/2018	CDC_TAMPA	B08B6C16Q2	614
2/11/2018	RDC_NASHVILLE	B08B6C16Q2	314
2/12/2018	CDC_TAMPA	B08B6C16Q2	614
2/12/2018	RDC_NASHVILLE	B08B6C16Q2	314
2/13/2018	CDC_TAMPA	B08B6C16Q2	614
2/13/2018	RDC_NASHVILLE	B08B6C16Q2	314
2/14/2018	CDC_TAMPA	B08B6C16Q2	931
2/14/2018	RDC_NASHVILLE	B08B6C16Q2	614
2/15/2018	CDC_TAMPA	B08B6C16Q2	617
2/15/2018	RDC_NASHVILLE	B08B6C16Q2	614
2/16/2018	CDC_TAMPA	B08B6C16Q2	617
2/16/2018	RDC_NASHVILLE	B08B6C16Q2	614
2/17/2018	CDC_TAMPA	B08B6C16Q2	617
2/17/2018	RDC_NASHVILLE	B08B6C16Q2	300
2/18/2018	CDC_TAMPA	B08B6C16Q2	617
2/18/2018	RDC_NASHVILLE	B08B6C16Q2	300
2/19/2018	CDC_TAMPA	B08B6C16Q2	617
2/19/2018	RDC_NASHVILLE	B08B6C16Q2	300
2/20/2018	CDC_TAMPA	B08B6C16Q2	647
2/20/2018	RDC_NASHVILLE	B08B6C16Q2	300
2/21/2018	CDC_TAMPA	B08B6C16Q2	647
2/21/2018	RDC_NASHVILLE	B08B6C16Q2	617
2/22/2018	CDC_TAMPA	B08B6C16Q2	647
2/22/2018	RDC_NASHVILLE	B08B6C16Q2	617
2/23/2018	CDC_TAMPA	B08B6C16Q2	647
2/23/2018	RDC_NASHVILLE	B08B6C16Q2	617
2/24/2018	CDC_TAMPA	B08B6C16Q2	986
2/24/2018	RDC_NASHVILLE	B08B6C16Q2	317
2/25/2018	CDC_TAMPA	B08B6C16Q2	986
2/25/2018	RDC_NASHVILLE	B08B6C16Q2	317
2/26/2018	CDC_TAMPA	B08B6C16Q2	669
2/26/2018	RDC_NASHVILLE	B08B6C16Q2	317
2/27/2018	CDC_TAMPA	B08B6C16Q2	669
2/27/2018	RDC_NASHVILLE	B08B6C16Q2	317
2/28/2018	CDC_TAMPA	B08B6C16Q2	669
2/28/2018	RDC_NASHVILLE	B08B6C16Q2	986
3/1/2018	CDC_TAMPA	B08B6C16Q2	669
3/1/2018	RDC_NASHVILLE	B08B6C16Q2	986
3/2/2018	CDC_TAMPA	B08B6C16Q2	669
3/2/2018	RDC_NASHVILLE	B08B6C16Q2	986
3/3/2018	CDC_TAMPA	B08B6C16Q2	972
3/3/2018	RDC_NASHVILLE	B08B6C16Q2	669
3/4/2018	CDC_TAMPA	B08B6C16Q2	642
3/4/2018	RDC_NASHVILLE	B08B6C16Q2	669
3/5/2018	CDC_TAMPA	B08B6C16Q2	642
3/5/2018	RDC_NASHVILLE	B08B6C16Q2	669
3/6/2018	CDC_TAMPA	B08B6C16Q2	642
3/6/2018	RDC_NASHVILLE	B08B6C16Q2	669
3/7/2018	CDC_TAMPA	B08B6C16Q2	945
3/7/2018	RDC_NASHVILLE	B08B6C16Q2	972
3/8/2018	CDC_TAMPA	B08B6C16Q2	606
3/8/2018	RDC_NASHVILLE	B08B6C16Q2	972
3/9/2018	CDC_TAMPA	B08B6C16Q2	606
3/9/2018	RDC_NASHVILLE	B08B6C16Q2	972
3/10/2018	CDC_TAMPA	B08B6C16Q2	606
3/10/2018	RDC_NASHVILLE	B08B6C16Q2	303
3/11/2018	CDC_TAMPA	B08B6C16Q2	936
3/11/2018	RDC_NASHVILLE	B08B6C16Q2	303
3/12/2018	CDC_TAMPA	B08B6C16Q2	936
3/12/2018	RDC_NASHVILLE	B08B6C16Q2	303
3/13/2018	CDC_TAMPA	B08B6C16Q2	936
3/13/2018	RDC_NASHVILLE	B08B6C16Q2	303
3/14/2018	CDC_TAMPA	B08B6C16Q2	936
3/14/2018	RDC_NASHVILLE	B08B6C16Q2	936
3/15/2018	CDC_TAMPA	B08B6C16Q2	953
3/15/2018	RDC_NASHVILLE	B08B6C16Q2	936
3/16/2018	CDC_TAMPA	B08B6C16Q2	953
3/16/2018	RDC_NASHVILLE	B08B6C16Q2	936
3/17/2018	CDC_TAMPA	B08B6C16Q2	953
3/17/2018	RDC_NASHVILLE	B08B6C16Q2	633
3/18/2018	CDC_TAMPA	B08B6C16Q2	1273
3/18/2018	RDC_NASHVILLE	B08B6C16Q2	633
3/19/2018	CDC_TAMPA	B08B6C16Q2	1273
3/19/2018	RDC_NASHVILLE	B08B6C16Q2	633
3/20/2018	CDC_TAMPA	B08B6C16Q2	970
3/20/2018	RDC_NASHVILLE	B08B6C16Q2	633
3/21/2018	CDC_TAMPA	B08B6C16Q2	970
3/21/2018	RDC_NASHVILLE	B08B6C16Q2	1273
3/22/2018	CDC_TAMPA	B08B6C16Q2	1297
3/22/2018	RDC_NASHVILLE	B08B6C16Q2	1273
3/23/2018	CDC_TAMPA	B08B6C16Q2	967
3/23/2018	RDC_NASHVILLE	B08B6C16Q2	1273
3/24/2018	CDC_TAMPA	B08B6C16Q2	967
3/24/2018	RDC_NASHVILLE	B08B6C16Q2	640
3/25/2018	CDC_TAMPA	B08B6C16Q2	967
3/25/2018	RDC_NASHVILLE	B08B6C16Q2	640
3/26/2018	CDC_TAMPA	B08B6C16Q2	967
3/26/2018	RDC_NASHVILLE	B08B6C16Q2	640
3/27/2018	CDC_TAMPA	B08B6C16Q2	989
3/27/2018	RDC_NASHVILLE	B08B6C16Q2	640
3/28/2018	CDC_TAMPA	B08B6C16Q2	989
3/28/2018	RDC_NASHVILLE	B08B6C16Q2	967
3/29/2018	CDC_TAMPA	B08B6C16Q2	989
3/29/2018	RDC_NASHVILLE	B08B6C16Q2	967
3/30/2018	CDC_TAMPA	B08B6C16Q2	989
3/30/2018	RDC_NASHVILLE	B08B6C16Q2	967
3/31/2018	CDC_TAMPA	B08B6C16Q2	989
3/31/2018	RDC_NASHVILLE	B08B6C16Q2	327
4/1/2018	CDC_TAMPA	B08B6C16Q2	989
4/1/2018	RDC_NASHVILLE	B08B6C16Q2	327
