Date	Site	Product	Qty On Hand
1/4/2018	CDC_Tampa	B07HNLBZ4Y	9500
1/5/2018	CDC_Tampa	B07HNLBZ4Y	9500
1/6/2018	CDC_Tampa	B07HNLBZ4Y	9000
1/7/2018	CDC_Tampa	B07HNLBZ4Y	6000
1/8/2018	CDC_Tampa	B07HNLBZ4Y	5500
1/9/2018	CDC_Tampa	B07HNLBZ4Y	5500
1/10/2018	CDC_Tampa	B07HNLBZ4Y	5000
1/11/2018	CDC_Tampa	B07HNLBZ4Y	5000
1/12/2018	CDC_Tampa	B07HNLBZ4Y	4500
1/13/2018	CDC_Tampa	B07HNLBZ4Y	4500
1/14/2018	CDC_Tampa	B07HNLBZ4Y	4000
1/15/2018	CDC_Tampa	B07HNLBZ4Y	1000
1/16/2018	CDC_Tampa	B07HNLBZ4Y	500
1/17/2018	CDC_Tampa	B07HNLBZ4Y	500
1/18/2018	CDC_Tampa	B07HNLBZ4Y	0
1/19/2018	CDC_Tampa	B07HNLBZ4Y	0
1/20/2018	CDC_Tampa	B07HNLBZ4Y	0
1/21/2018	CDC_Tampa	B07HNLBZ4Y	0
1/22/2018	CDC_Tampa	B07HNLBZ4Y	0
1/23/2018	CDC_Tampa	B07HNLBZ4Y	3500
1/24/2018	CDC_Tampa	B07HNLBZ4Y	3000
1/25/2018	CDC_Tampa	B07HNLBZ4Y	3000
1/26/2018	CDC_Tampa	B07HNLBZ4Y	2500
1/27/2018	CDC_Tampa	B07HNLBZ4Y	2500
1/28/2018	CDC_Tampa	B07HNLBZ4Y	2000
1/29/2018	CDC_Tampa	B07HNLBZ4Y	2000
1/30/2018	CDC_Tampa	B07HNLBZ4Y	1500
1/31/2018	CDC_Tampa	B07HNLBZ4Y	1500
2/1/2018	CDC_Tampa	B07HNLBZ4Y	1000
2/2/2018	CDC_Tampa	B07HNLBZ4Y	6500
2/3/2018	CDC_Tampa	B07HNLBZ4Y	6000
2/4/2018	CDC_Tampa	B07HNLBZ4Y	6000
2/5/2018	CDC_Tampa	B07HNLBZ4Y	5500
2/6/2018	CDC_Tampa	B07HNLBZ4Y	5500
2/7/2018	CDC_Tampa	B07HNLBZ4Y	2000
2/8/2018	CDC_Tampa	B07HNLBZ4Y	2000
2/9/2018	CDC_Tampa	B07HNLBZ4Y	1500
2/10/2018	CDC_Tampa	B07HNLBZ4Y	1500
2/11/2018	CDC_Tampa	B07HNLBZ4Y	1000
2/12/2018	CDC_Tampa	B07HNLBZ4Y	3500
2/13/2018	CDC_Tampa	B07HNLBZ4Y	3000
2/14/2018	CDC_Tampa	B07HNLBZ4Y	3000
2/15/2018	CDC_Tampa	B07HNLBZ4Y	2500
2/16/2018	CDC_Tampa	B07HNLBZ4Y	2500
2/17/2018	CDC_Tampa	B07HNLBZ4Y	2500
2/18/2018	CDC_Tampa	B07HNLBZ4Y	2500
2/19/2018	CDC_Tampa	B07HNLBZ4Y	2500
2/20/2018	CDC_Tampa	B07HNLBZ4Y	2500
2/21/2018	CDC_Tampa	B07HNLBZ4Y	2500
2/22/2018	CDC_Tampa	B07HNLBZ4Y	3500
2/23/2018	CDC_Tampa	B07HNLBZ4Y	3000
2/24/2018	CDC_Tampa	B07HNLBZ4Y	3000
2/25/2018	CDC_Tampa	B07HNLBZ4Y	2500
2/26/2018	CDC_Tampa	B07HNLBZ4Y	2500
2/27/2018	CDC_Tampa	B07HNLBZ4Y	2000
2/28/2018	CDC_Tampa	B07HNLBZ4Y	2000
3/1/2018	CDC_Tampa	B07HNLBZ4Y	1500
3/2/2018	CDC_Tampa	B07HNLBZ4Y	1500
3/3/2018	CDC_Tampa	B07HNLBZ4Y	1500
3/4/2018	CDC_Tampa	B07HNLBZ4Y	7000
3/5/2018	CDC_Tampa	B07HNLBZ4Y	6500
3/6/2018	CDC_Tampa	B07HNLBZ4Y	6000
3/7/2018	CDC_Tampa	B07HNLBZ4Y	6000
3/8/2018	CDC_Tampa	B07HNLBZ4Y	5500
3/9/2018	CDC_Tampa	B07HNLBZ4Y	5500
3/10/2018	CDC_Tampa	B07HNLBZ4Y	5500
3/11/2018	CDC_Tampa	B07HNLBZ4Y	5500
3/12/2018	CDC_Tampa	B07HNLBZ4Y	5500
3/13/2018	CDC_Tampa	B07HNLBZ4Y	5000
3/14/2018	CDC_Tampa	B07HNLBZ4Y	7000
3/15/2018	CDC_Tampa	B07HNLBZ4Y	7000
3/16/2018	CDC_Tampa	B07HNLBZ4Y	7000
3/17/2018	CDC_Tampa	B07HNLBZ4Y	6500
3/18/2018	CDC_Tampa	B07HNLBZ4Y	6500
3/19/2018	CDC_Tampa	B07HNLBZ4Y	6500
3/20/2018	CDC_Tampa	B07HNLBZ4Y	3500
3/21/2018	CDC_Tampa	B07HNLBZ4Y	3000
3/22/2018	CDC_Tampa	B07HNLBZ4Y	2500
3/23/2018	CDC_Tampa	B07HNLBZ4Y	2500
3/24/2018	CDC_Tampa	B07HNLBZ4Y	4500
3/25/2018	CDC_Tampa	B07HNLBZ4Y	4000
3/26/2018	CDC_Tampa	B07HNLBZ4Y	4000
3/27/2018	CDC_Tampa	B07HNLBZ4Y	3500
3/28/2018	CDC_Tampa	B07HNLBZ4Y	3500
3/29/2018	CDC_Tampa	B07HNLBZ4Y	3500
3/30/2018	CDC_Tampa	B07HNLBZ4Y	500
3/31/2018	CDC_Tampa	B07HNLBZ4Y	500
4/1/2018	CDC_Tampa	B07HNLBZ4Y	0
4/2/2018	CDC_Tampa	B07HNLBZ4Y	0
4/3/2018	CDC_Tampa	B07HNLBZ4Y	4000
4/4/2018	CDC_Tampa	B07HNLBZ4Y	4000
4/5/2018	CDC_Tampa	B07HNLBZ4Y	4000
4/6/2018	CDC_Tampa	B07HNLBZ4Y	4000
4/7/2018	CDC_Tampa	B07HNLBZ4Y	3500
4/8/2018	CDC_Tampa	B07HNLBZ4Y	3500
4/9/2018	CDC_Tampa	B07HNLBZ4Y	2500
4/10/2018	CDC_Tampa	B07HNLBZ4Y	2500
4/11/2018	CDC_Tampa	B07HNLBZ4Y	2500
4/12/2018	CDC_Tampa	B07HNLBZ4Y	2500
4/13/2018	CDC_Tampa	B07HNLBZ4Y	7500
4/14/2018	CDC_Tampa	B07HNLBZ4Y	7500
4/15/2018	CDC_Tampa	B07HNLBZ4Y	7000
4/16/2018	CDC_Tampa	B07HNLBZ4Y	6500
4/17/2018	CDC_Tampa	B07HNLBZ4Y	6500
4/18/2018	CDC_Tampa	B07HNLBZ4Y	6000
4/19/2018	CDC_Tampa	B07HNLBZ4Y	6000
4/20/2018	CDC_Tampa	B07HNLBZ4Y	6000
4/21/2018	CDC_Tampa	B07HNLBZ4Y	6000
4/22/2018	CDC_Tampa	B07HNLBZ4Y	6000
4/23/2018	CDC_Tampa	B07HNLBZ4Y	7000
4/24/2018	CDC_Tampa	B07HNLBZ4Y	7000
4/25/2018	CDC_Tampa	B07HNLBZ4Y	6500
4/26/2018	CDC_Tampa	B07HNLBZ4Y	6500
4/27/2018	CDC_Tampa	B07HNLBZ4Y	6500
4/28/2018	CDC_Tampa	B07HNLBZ4Y	6500
4/29/2018	CDC_Tampa	B07HNLBZ4Y	5500
4/30/2018	CDC_Tampa	B07HNLBZ4Y	2500
5/1/2018	CDC_Tampa	B07HNLBZ4Y	2500
5/2/2018	CDC_Tampa	B07HNLBZ4Y	2500
5/3/2018	CDC_Tampa	B07HNLBZ4Y	4500
5/4/2018	CDC_Tampa	B07HNLBZ4Y	4500
5/5/2018	CDC_Tampa	B07HNLBZ4Y	4500
5/6/2018	CDC_Tampa	B07HNLBZ4Y	4500
5/7/2018	CDC_Tampa	B07HNLBZ4Y	3500
5/8/2018	CDC_Tampa	B07HNLBZ4Y	3500
5/9/2018	CDC_Tampa	B07HNLBZ4Y	3000
5/10/2018	CDC_Tampa	B07HNLBZ4Y	2500
5/11/2018	CDC_Tampa	B07HNLBZ4Y	2500
5/12/2018	CDC_Tampa	B07HNLBZ4Y	2500
5/13/2018	CDC_Tampa	B07HNLBZ4Y	4000
5/14/2018	CDC_Tampa	B07HNLBZ4Y	4000
5/15/2018	CDC_Tampa	B07HNLBZ4Y	4000
5/16/2018	CDC_Tampa	B07HNLBZ4Y	4000
5/17/2018	CDC_Tampa	B07HNLBZ4Y	4000
5/18/2018	CDC_Tampa	B07HNLBZ4Y	3500
5/19/2018	CDC_Tampa	B07HNLBZ4Y	3000
5/20/2018	CDC_Tampa	B07HNLBZ4Y	3000
5/21/2018	CDC_Tampa	B07HNLBZ4Y	3000
5/22/2018	CDC_Tampa	B07HNLBZ4Y	3000
5/23/2018	CDC_Tampa	B07HNLBZ4Y	7500
5/24/2018	CDC_Tampa	B07HNLBZ4Y	7500
5/25/2018	CDC_Tampa	B07HNLBZ4Y	7500
5/26/2018	CDC_Tampa	B07HNLBZ4Y	7000
5/27/2018	CDC_Tampa	B07HNLBZ4Y	7000
5/28/2018	CDC_Tampa	B07HNLBZ4Y	6500
5/29/2018	CDC_Tampa	B07HNLBZ4Y	5500
5/30/2018	CDC_Tampa	B07HNLBZ4Y	5000
5/31/2018	CDC_Tampa	B07HNLBZ4Y	5000
6/1/2018	CDC_Tampa	B07HNLBZ4Y	5000
6/2/2018	CDC_Tampa	B07HNLBZ4Y	6000
6/3/2018	CDC_Tampa	B07HNLBZ4Y	6000
6/4/2018	CDC_Tampa	B07HNLBZ4Y	6000
6/5/2018	CDC_Tampa	B07HNLBZ4Y	5500
6/6/2018	CDC_Tampa	B07HNLBZ4Y	5000
6/7/2018	CDC_Tampa	B07HNLBZ4Y	5000
6/8/2018	CDC_Tampa	B07HNLBZ4Y	5000
6/9/2018	CDC_Tampa	B07HNLBZ4Y	4500
6/10/2018	CDC_Tampa	B07HNLBZ4Y	4500
6/11/2018	CDC_Tampa	B07HNLBZ4Y	4500
6/12/2018	CDC_Tampa	B07HNLBZ4Y	4500
6/13/2018	CDC_Tampa	B07HNLBZ4Y	4500
6/14/2018	CDC_Tampa	B07HNLBZ4Y	4500
6/15/2018	CDC_Tampa	B07HNLBZ4Y	4000
6/16/2018	CDC_Tampa	B07HNLBZ4Y	3500
6/17/2018	CDC_Tampa	B07HNLBZ4Y	3500
6/18/2018	CDC_Tampa	B07HNLBZ4Y	3500
6/19/2018	CDC_Tampa	B07HNLBZ4Y	3000
6/20/2018	CDC_Tampa	B07HNLBZ4Y	3000
6/21/2018	CDC_Tampa	B07HNLBZ4Y	3000
6/22/2018	CDC_Tampa	B07HNLBZ4Y	3500
6/23/2018	CDC_Tampa	B07HNLBZ4Y	3500
6/24/2018	CDC_Tampa	B07HNLBZ4Y	3500
6/25/2018	CDC_Tampa	B07HNLBZ4Y	3500
6/26/2018	CDC_Tampa	B07HNLBZ4Y	3500
6/27/2018	CDC_Tampa	B07HNLBZ4Y	2500
6/28/2018	CDC_Tampa	B07HNLBZ4Y	2500
6/29/2018	CDC_Tampa	B07HNLBZ4Y	2000
6/30/2018	CDC_Tampa	B07HNLBZ4Y	2000
7/1/2018	CDC_Tampa	B07HNLBZ4Y	2000
7/2/2018	CDC_Tampa	B07HNLBZ4Y	7000
7/3/2018	CDC_Tampa	B07HNLBZ4Y	6500
7/4/2018	CDC_Tampa	B07HNLBZ4Y	6500
7/5/2018	CDC_Tampa	B07HNLBZ4Y	6500
7/6/2018	CDC_Tampa	B07HNLBZ4Y	6500
7/7/2018	CDC_Tampa	B07HNLBZ4Y	6000
7/8/2018	CDC_Tampa	B07HNLBZ4Y	6000
7/9/2018	CDC_Tampa	B07HNLBZ4Y	5000
7/10/2018	CDC_Tampa	B07HNLBZ4Y	5000
7/11/2018	CDC_Tampa	B07HNLBZ4Y	5000
7/12/2018	CDC_Tampa	B07HNLBZ4Y	7000
7/13/2018	CDC_Tampa	B07HNLBZ4Y	7000
7/14/2018	CDC_Tampa	B07HNLBZ4Y	7000
7/15/2018	CDC_Tampa	B07HNLBZ4Y	6500
7/16/2018	CDC_Tampa	B07HNLBZ4Y	6000
7/17/2018	CDC_Tampa	B07HNLBZ4Y	6000
7/18/2018	CDC_Tampa	B07HNLBZ4Y	6000
7/19/2018	CDC_Tampa	B07HNLBZ4Y	6000
7/20/2018	CDC_Tampa	B07HNLBZ4Y	5500
7/21/2018	CDC_Tampa	B07HNLBZ4Y	5500
7/22/2018	CDC_Tampa	B07HNLBZ4Y	7500
7/23/2018	CDC_Tampa	B07HNLBZ4Y	4500
7/24/2018	CDC_Tampa	B07HNLBZ4Y	4500
7/25/2018	CDC_Tampa	B07HNLBZ4Y	4500
7/26/2018	CDC_Tampa	B07HNLBZ4Y	4000
7/27/2018	CDC_Tampa	B07HNLBZ4Y	4000
7/28/2018	CDC_Tampa	B07HNLBZ4Y	4000
7/29/2018	CDC_Tampa	B07HNLBZ4Y	4000
7/30/2018	CDC_Tampa	B07HNLBZ4Y	3500
7/31/2018	CDC_Tampa	B07HNLBZ4Y	3500
8/1/2018	CDC_Tampa	B07HNLBZ4Y	5000
8/2/2018	CDC_Tampa	B07HNLBZ4Y	4500
8/3/2018	CDC_Tampa	B07HNLBZ4Y	4500
8/4/2018	CDC_Tampa	B07HNLBZ4Y	4500
8/5/2018	CDC_Tampa	B07HNLBZ4Y	4500
8/6/2018	CDC_Tampa	B07HNLBZ4Y	4500
8/7/2018	CDC_Tampa	B07HNLBZ4Y	4000
8/8/2018	CDC_Tampa	B07HNLBZ4Y	4000
8/9/2018	CDC_Tampa	B07HNLBZ4Y	1000
8/10/2018	CDC_Tampa	B07HNLBZ4Y	1000
8/11/2018	CDC_Tampa	B07HNLBZ4Y	5000
8/12/2018	CDC_Tampa	B07HNLBZ4Y	4500
8/13/2018	CDC_Tampa	B07HNLBZ4Y	4500
8/14/2018	CDC_Tampa	B07HNLBZ4Y	4500
8/15/2018	CDC_Tampa	B07HNLBZ4Y	4500
8/16/2018	CDC_Tampa	B07HNLBZ4Y	4000
8/17/2018	CDC_Tampa	B07HNLBZ4Y	4000
8/18/2018	CDC_Tampa	B07HNLBZ4Y	3500
8/19/2018	CDC_Tampa	B07HNLBZ4Y	3500
8/20/2018	CDC_Tampa	B07HNLBZ4Y	3500
8/21/2018	CDC_Tampa	B07HNLBZ4Y	7500
8/22/2018	CDC_Tampa	B07HNLBZ4Y	6500
8/23/2018	CDC_Tampa	B07HNLBZ4Y	6500
8/24/2018	CDC_Tampa	B07HNLBZ4Y	6500
8/25/2018	CDC_Tampa	B07HNLBZ4Y	6500
8/26/2018	CDC_Tampa	B07HNLBZ4Y	6500
8/27/2018	CDC_Tampa	B07HNLBZ4Y	6000
8/28/2018	CDC_Tampa	B07HNLBZ4Y	6000
8/29/2018	CDC_Tampa	B07HNLBZ4Y	6000
8/30/2018	CDC_Tampa	B07HNLBZ4Y	5500
8/31/2018	CDC_Tampa	B07HNLBZ4Y	6500
9/1/2018	CDC_Tampa	B07HNLBZ4Y	6500
9/2/2018	CDC_Tampa	B07HNLBZ4Y	6000
9/3/2018	CDC_Tampa	B07HNLBZ4Y	6000
9/4/2018	CDC_Tampa	B07HNLBZ4Y	5500
9/5/2018	CDC_Tampa	B07HNLBZ4Y	5500
9/6/2018	CDC_Tampa	B07HNLBZ4Y	5500
9/7/2018	CDC_Tampa	B07HNLBZ4Y	5000
9/8/2018	CDC_Tampa	B07HNLBZ4Y	5000
9/9/2018	CDC_Tampa	B07HNLBZ4Y	5000
9/10/2018	CDC_Tampa	B07HNLBZ4Y	7500
9/11/2018	CDC_Tampa	B07HNLBZ4Y	7000
9/12/2018	CDC_Tampa	B07HNLBZ4Y	7000
9/13/2018	CDC_Tampa	B07HNLBZ4Y	6500
9/14/2018	CDC_Tampa	B07HNLBZ4Y	6500
9/15/2018	CDC_Tampa	B07HNLBZ4Y	6500
9/16/2018	CDC_Tampa	B07HNLBZ4Y	6500
9/17/2018	CDC_Tampa	B07HNLBZ4Y	6500
9/18/2018	CDC_Tampa	B07HNLBZ4Y	6000
9/19/2018	CDC_Tampa	B07HNLBZ4Y	5500
9/20/2018	CDC_Tampa	B07HNLBZ4Y	7000
9/21/2018	CDC_Tampa	B07HNLBZ4Y	6500
9/22/2018	CDC_Tampa	B07HNLBZ4Y	6500
9/23/2018	CDC_Tampa	B07HNLBZ4Y	6000
9/24/2018	CDC_Tampa	B07HNLBZ4Y	5500
9/25/2018	CDC_Tampa	B07HNLBZ4Y	5500
9/26/2018	CDC_Tampa	B07HNLBZ4Y	5500
9/27/2018	CDC_Tampa	B07HNLBZ4Y	5500
9/28/2018	CDC_Tampa	B07HNLBZ4Y	5500
9/29/2018	CDC_Tampa	B07HNLBZ4Y	5000
9/30/2018	CDC_Tampa	B07HNLBZ4Y	4000
10/1/2018	CDC_Tampa	B07HNLBZ4Y	4000
10/2/2018	CDC_Tampa	B07HNLBZ4Y	4000
10/3/2018	CDC_Tampa	B07HNLBZ4Y	4000
10/4/2018	CDC_Tampa	B07HNLBZ4Y	4000
10/5/2018	CDC_Tampa	B07HNLBZ4Y	4000
10/6/2018	CDC_Tampa	B07HNLBZ4Y	3500
10/7/2018	CDC_Tampa	B07HNLBZ4Y	2500
10/8/2018	CDC_Tampa	B07HNLBZ4Y	2500
10/9/2018	CDC_Tampa	B07HNLBZ4Y	2500
10/10/2018	CDC_Tampa	B07HNLBZ4Y	4000
10/11/2018	CDC_Tampa	B07HNLBZ4Y	4000
10/12/2018	CDC_Tampa	B07HNLBZ4Y	4000
10/13/2018	CDC_Tampa	B07HNLBZ4Y	4000
10/14/2018	CDC_Tampa	B07HNLBZ4Y	4000
10/15/2018	CDC_Tampa	B07HNLBZ4Y	4000
10/16/2018	CDC_Tampa	B07HNLBZ4Y	3500
10/17/2018	CDC_Tampa	B07HNLBZ4Y	3500
10/18/2018	CDC_Tampa	B07HNLBZ4Y	3500
10/19/2018	CDC_Tampa	B07HNLBZ4Y	3000
10/20/2018	CDC_Tampa	B07HNLBZ4Y	8000
10/21/2018	CDC_Tampa	B07HNLBZ4Y	8000
10/22/2018	CDC_Tampa	B07HNLBZ4Y	8000
10/23/2018	CDC_Tampa	B07HNLBZ4Y	7000
10/24/2018	CDC_Tampa	B07HNLBZ4Y	7000
10/25/2018	CDC_Tampa	B07HNLBZ4Y	7000
10/26/2018	CDC_Tampa	B07HNLBZ4Y	6500
10/27/2018	CDC_Tampa	B07HNLBZ4Y	6500
10/28/2018	CDC_Tampa	B07HNLBZ4Y	6500
10/29/2018	CDC_Tampa	B07HNLBZ4Y	6500
10/30/2018	CDC_Tampa	B07HNLBZ4Y	7500
10/31/2018	CDC_Tampa	B07HNLBZ4Y	6500
11/1/2018	CDC_Tampa	B07HNLBZ4Y	6500
11/2/2018	CDC_Tampa	B07HNLBZ4Y	6500
11/3/2018	CDC_Tampa	B07HNLBZ4Y	6000
11/4/2018	CDC_Tampa	B07HNLBZ4Y	6000
11/5/2018	CDC_Tampa	B07HNLBZ4Y	6000
11/6/2018	CDC_Tampa	B07HNLBZ4Y	5500
11/7/2018	CDC_Tampa	B07HNLBZ4Y	5500
11/8/2018	CDC_Tampa	B07HNLBZ4Y	5000
11/9/2018	CDC_Tampa	B07HNLBZ4Y	6500
11/10/2018	CDC_Tampa	B07HNLBZ4Y	6000
11/11/2018	CDC_Tampa	B07HNLBZ4Y	5500
11/12/2018	CDC_Tampa	B07HNLBZ4Y	5000
11/13/2018	CDC_Tampa	B07HNLBZ4Y	5000
11/14/2018	CDC_Tampa	B07HNLBZ4Y	5000
11/15/2018	CDC_Tampa	B07HNLBZ4Y	5000
11/16/2018	CDC_Tampa	B07HNLBZ4Y	5000
11/17/2018	CDC_Tampa	B07HNLBZ4Y	4500
11/18/2018	CDC_Tampa	B07HNLBZ4Y	4000
11/19/2018	CDC_Tampa	B07HNLBZ4Y	6500
11/20/2018	CDC_Tampa	B07HNLBZ4Y	6500
11/21/2018	CDC_Tampa	B07HNLBZ4Y	6500
11/22/2018	CDC_Tampa	B07HNLBZ4Y	6500
11/23/2018	CDC_Tampa	B07HNLBZ4Y	6000
11/24/2018	CDC_Tampa	B07HNLBZ4Y	6000
11/25/2018	CDC_Tampa	B07HNLBZ4Y	5500
11/26/2018	CDC_Tampa	B07HNLBZ4Y	5500
11/27/2018	CDC_Tampa	B07HNLBZ4Y	5500
11/28/2018	CDC_Tampa	B07HNLBZ4Y	5000
11/29/2018	CDC_Tampa	B07HNLBZ4Y	7500
11/30/2018	CDC_Tampa	B07HNLBZ4Y	7500
12/1/2018	CDC_Tampa	B07HNLBZ4Y	7000
12/2/2018	CDC_Tampa	B07HNLBZ4Y	7000
12/3/2018	CDC_Tampa	B07HNLBZ4Y	7000
12/4/2018	CDC_Tampa	B07HNLBZ4Y	7000
12/5/2018	CDC_Tampa	B07HNLBZ4Y	4000
12/6/2018	CDC_Tampa	B07HNLBZ4Y	4000
12/7/2018	CDC_Tampa	B07HNLBZ4Y	3500
12/8/2018	CDC_Tampa	B07HNLBZ4Y	3000
12/9/2018	CDC_Tampa	B07HNLBZ4Y	4500
12/10/2018	CDC_Tampa	B07HNLBZ4Y	4500
12/11/2018	CDC_Tampa	B07HNLBZ4Y	4000
12/12/2018	CDC_Tampa	B07HNLBZ4Y	4000
12/13/2018	CDC_Tampa	B07HNLBZ4Y	4000
12/14/2018	CDC_Tampa	B07HNLBZ4Y	3500
12/15/2018	CDC_Tampa	B07HNLBZ4Y	3500
12/16/2018	CDC_Tampa	B07HNLBZ4Y	3500
12/17/2018	CDC_Tampa	B07HNLBZ4Y	3500
12/18/2018	CDC_Tampa	B07HNLBZ4Y	3500
12/19/2018	CDC_Tampa	B07HNLBZ4Y	5000
12/20/2018	CDC_Tampa	B07HNLBZ4Y	5000
12/21/2018	CDC_Tampa	B07HNLBZ4Y	4500
12/22/2018	CDC_Tampa	B07HNLBZ4Y	4500
12/23/2018	CDC_Tampa	B07HNLBZ4Y	4500
12/24/2018	CDC_Tampa	B07HNLBZ4Y	4000
12/25/2018	CDC_Tampa	B07HNLBZ4Y	4000
12/26/2018	CDC_Tampa	B07HNLBZ4Y	4000
12/27/2018	CDC_Tampa	B07HNLBZ4Y	4000
12/28/2018	CDC_Tampa	B07HNLBZ4Y	4000
12/29/2018	CDC_Tampa	B07HNLBZ4Y	8000
12/30/2018	CDC_Tampa	B07HNLBZ4Y	8000
12/31/2018	CDC_Tampa	B07HNLBZ4Y	8000
