Date	OrderNumber	OrderLineNumber	Site	Customer	Product	Qty Shipped	Due Date
1/4/2018	29374414	1	CDC_Tampa	OPTC-100094	B07HNLBZ4Y	500	1/7/2018
 1/6/2018	29374217	1	CDC_Tampa	OPTC-100021	B07HNLBZ4Y	500	1/9/2018
 1/7/2018	29374640	1	CDC_Tampa	OPTC-100021	B07HNLBZ4Y	3000	1/12/2018
 1/8/2018	29373506	1	CDC_Tampa	OPTC-100095	B07HNLBZ4Y	500	1/11/2018
 1/10/2018	29374218	1	CDC_Tampa	OPTC-100085	B07HNLBZ4Y	500	1/13/2018
 1/12/2018	29374415	1	CDC_Tampa	OPTC-100017	B07HNLBZ4Y	500	1/15/2018
 1/14/2018	29374219	1	CDC_Tampa	OPTC-100048	B07HNLBZ4Y	500	1/17/2018
 1/15/2018	29374641	1	CDC_Tampa	OPTC-100021	B07HNLBZ4Y	3000	1/22/2018
 1/16/2018	29374642	1	CDC_Tampa	OPTC-100063	B07HNLBZ4Y	500	1/19/2018
 1/18/2018	29374643	1	CDC_Tampa	OPTC-100001	B07HNLBZ4Y	500	1/21/2018
 1/23/2018	29374644	1	CDC_Tampa	OPTC-100023	B07HNLBZ4Y	500	1/23/2018
 1/23/2018	29374645	1	CDC_Tampa	OPTC-100056	B07HNLBZ4Y	500	1/25/2018
 1/24/2018	29374646	1	CDC_Tampa	OPTC-100078	B07HNLBZ4Y	500	1/27/2018
 1/26/2018	29374647	1	CDC_Tampa	OPTC-100013	B07HNLBZ4Y	500	1/29/2018
 1/28/2018	29374648	1	CDC_Tampa	OPTC-100010	B07HNLBZ4Y	500	1/31/2018
 1/30/2018	29374649	1	CDC_Tampa	OPTC-100148	B07HNLBZ4Y	500	2/2/2018
 2/1/2018	29374650	1	CDC_Tampa	OPTC-100020	B07HNLBZ4Y	500	2/4/2018
 2/3/2018	29374651	1	CDC_Tampa	OPTC-100088	B07HNLBZ4Y	500	2/6/2018
 2/5/2018	29374652	1	CDC_Tampa	OPTC-100045	B07HNLBZ4Y	500	2/8/2018
 2/7/2018	29374653	1	CDC_Tampa	OPTC-100051	B07HNLBZ4Y	500	2/10/2018
 2/7/2018	29374654	1	CDC_Tampa	OPTC-100021	B07HNLBZ4Y	3000	2/12/2018
 2/9/2018	29374655	1	CDC_Tampa	OPTC-100086	B07HNLBZ4Y	500	2/12/2018
 2/11/2018	29374656	1	CDC_Tampa	OPTC-100417	B07HNLBZ4Y	500	2/14/2018
 2/13/2018	29374657	1	CDC_Tampa	OPTC-100053	B07HNLBZ4Y	500	2/16/2018
 2/15/2018	29374658	1	CDC_Tampa	OPTC-100087	B07HNLBZ4Y	500	2/18/2018
 2/22/2018	29374659	1	CDC_Tampa	OPTC-100021	B07HNLBZ4Y	3000	2/22/2018
 2/22/2018	29374660	1	CDC_Tampa	OPTC-100047	B07HNLBZ4Y	500	2/20/2018
 2/22/2018	29374661	1	CDC_Tampa	OPTC-100052	B07HNLBZ4Y	500	2/22/2018
 2/22/2018	29374662	1	CDC_Tampa	OPTC-100075	B07HNLBZ4Y	500	2/24/2018
 2/23/2018	29374663	1	CDC_Tampa	OPTC-100036	B07HNLBZ4Y	500	2/26/2018
 2/25/2018	29374664	1	CDC_Tampa	OPTC-100059	B07HNLBZ4Y	500	2/28/2018
 2/27/2018	29374665	1	CDC_Tampa	OPTC-100024	B07HNLBZ4Y	500	3/2/2018
 3/1/2018	29374666	1	CDC_Tampa	OPTC-100014	B07HNLBZ4Y	500	3/5/2018
 3/5/2018	29374667	1	CDC_Tampa	OPTC-100148	B07HNLBZ4Y	500	3/6/2018
 3/6/2018	29374668	1	CDC_Tampa	OPTC-100020	B07HNLBZ4Y	500	3/9/2018
 3/8/2018	29374669	1	CDC_Tampa	OPTC-100088	B07HNLBZ4Y	500	3/12/2018
 3/13/2018	29374670	1	CDC_Tampa	OPTC-100045	B07HNLBZ4Y	500	3/15/2018
 3/17/2018	29374671	1	CDC_Tampa	OPTC-100051	B07HNLBZ4Y	500	3/18/2018
 3/20/2018	29374672	1	CDC_Tampa	OPTC-100021	B07HNLBZ4Y	3000	3/21/2018
 3/21/2018	29374673	1	CDC_Tampa	OPTC-100086	B07HNLBZ4Y	500	3/25/2018
 3/22/2018	29374674	1	CDC_Tampa	OPTC-100417	B07HNLBZ4Y	500	3/26/2018
 3/25/2018	29374675	1	CDC_Tampa	OPTC-100053	B07HNLBZ4Y	500	3/28/2018
 3/27/2018	29374676	1	CDC_Tampa	OPTC-100087	B07HNLBZ4Y	500	3/29/2018
 3/30/2018	29374677	1	CDC_Tampa	OPTC-100021	B07HNLBZ4Y	3000	4/1/2018
 4/1/2018	29374678	1	CDC_Tampa	OPTC-100047	B07HNLBZ4Y	500	4/3/2018
 4/3/2018	29374679	1	CDC_Tampa	OPTC-100052	B07HNLBZ4Y	500	4/5/2018
 4/7/2018	29374680	1	CDC_Tampa	OPTC-100075	B07HNLBZ4Y	500	4/9/2018
 4/9/2018	29374681	1	CDC_Tampa	OPTC-100036	B07HNLBZ4Y	500	4/11/2018
 4/9/2018	29374682	1	CDC_Tampa	OPTC-100059	B07HNLBZ4Y	500	4/13/2018
 4/15/2018	29374684	1	CDC_Tampa	OPTC-100014	B07HNLBZ4Y	500	4/18/2018
 4/16/2018	29374683	1	CDC_Tampa	OPTC-100024	B07HNLBZ4Y	500	4/17/2018
 4/18/2018	29374685	1	CDC_Tampa	OPTC-100148	B07HNLBZ4Y	500	4/22/2018
 4/23/2018	29374686	1	CDC_Tampa	OPTC-100020	B07HNLBZ4Y	500	4/25/2018
 4/25/2018	29374687	1	CDC_Tampa	OPTC-100088	B07HNLBZ4Y	500	4/29/2018
 4/29/2018	29374688	1	CDC_Tampa	OPTC-100045	B07HNLBZ4Y	500	4/30/2018
 4/29/2018	29374689	1	CDC_Tampa	OPTC-100051	B07HNLBZ4Y	500	5/1/2018
 4/30/2018	29374690	1	CDC_Tampa	OPTC-100021	B07HNLBZ4Y	3000	5/4/2018
 5/7/2018	29374691	1	CDC_Tampa	OPTC-100086	B07HNLBZ4Y	500	5/8/2018
 5/7/2018	29374692	1	CDC_Tampa	OPTC-100417	B07HNLBZ4Y	500	5/10/2018
 5/9/2018	29374694	1	CDC_Tampa	OPTC-100087	B07HNLBZ4Y	500	5/12/2018
 5/10/2018	29374693	1	CDC_Tampa	OPTC-100053	B07HNLBZ4Y	500	5/11/2018
 5/13/2018	29374695	1	CDC_Tampa	OPTC-100021	B07HNLBZ4Y	3000	5/16/2018
 5/18/2018	29374697	1	CDC_Tampa	OPTC-100052	B07HNLBZ4Y	500	5/22/2018
 5/19/2018	29374696	1	CDC_Tampa	OPTC-100047	B07HNLBZ4Y	500	5/20/2018
 5/23/2018	29374698	1	CDC_Tampa	OPTC-100075	B07HNLBZ4Y	500	5/26/2018
 5/26/2018	29374699	1	CDC_Tampa	OPTC-100036	B07HNLBZ4Y	500	5/29/2018
 5/28/2018	29374700	1	CDC_Tampa	OPTC-100059	B07HNLBZ4Y	500	5/30/2018
 5/29/2018	29374701	1	CDC_Tampa	OPTC-100024	B07HNLBZ4Y	500	5/31/2018
 5/29/2018	29374702	1	CDC_Tampa	OPTC-100014	B07HNLBZ4Y	500	6/1/2018
 5/30/2018	29374703	1	CDC_Tampa	OPTC-100148	B07HNLBZ4Y	500	6/3/2018
 6/2/2018	29374704	1	CDC_Tampa	OPTC-100020	B07HNLBZ4Y	500	6/5/2018
 6/5/2018	29374705	1	CDC_Tampa	OPTC-100088	B07HNLBZ4Y	500	6/6/2018
 6/6/2018	29374706	1	CDC_Tampa	OPTC-100045	B07HNLBZ4Y	500	6/9/2018
 6/9/2018	29374707	1	CDC_Tampa	OPTC-100051	B07HNLBZ4Y	500	6/13/2018
 6/12/2018	29374708	1	CDC_Tampa	OPTC-100021	B07HNLBZ4Y	3000	6/15/2018
 6/15/2018	29374709	1	CDC_Tampa	OPTC-100086	B07HNLBZ4Y	500	6/18/2018
 6/16/2018	29374710	1	CDC_Tampa	OPTC-100417	B07HNLBZ4Y	500	6/20/2018
 6/19/2018	29374711	1	CDC_Tampa	OPTC-100053	B07HNLBZ4Y	500	6/22/2018
 6/22/2018	29374712	1	CDC_Tampa	OPTC-100087	B07HNLBZ4Y	500	6/23/2018
 6/22/2018	29374713	1	CDC_Tampa	OPTC-100021	B07HNLBZ4Y	3000	6/25/2018
 6/22/2018	29374714	1	CDC_Tampa	OPTC-100047	B07HNLBZ4Y	500	6/26/2018
 6/27/2018	29374715	1	CDC_Tampa	OPTC-100052	B07HNLBZ4Y	500	6/28/2018
 6/27/2018	29374716	1	CDC_Tampa	OPTC-100075	B07HNLBZ4Y	500	6/29/2018
 6/29/2018	29374717	1	CDC_Tampa	OPTC-100036	B07HNLBZ4Y	500	7/2/2018
 7/2/2018	29374718	1	CDC_Tampa	OPTC-100059	B07HNLBZ4Y	500	7/3/2018
 7/3/2018	29374719	1	CDC_Tampa	OPTC-100024	B07HNLBZ4Y	500	7/5/2018
 7/7/2018	29374720	1	CDC_Tampa	OPTC-100014	B07HNLBZ4Y	500	7/9/2018
 7/9/2018	29374721	1	CDC_Tampa	OPTC-100148	B07HNLBZ4Y	500	7/10/2018
 7/9/2018	29374722	1	CDC_Tampa	OPTC-100020	B07HNLBZ4Y	500	7/13/2018
 7/15/2018	29374723	1	CDC_Tampa	OPTC-100088	B07HNLBZ4Y	500	7/16/2018
 7/16/2018	29374724	1	CDC_Tampa	OPTC-100045	B07HNLBZ4Y	500	7/19/2018
 7/20/2018	29374725	1	CDC_Tampa	OPTC-100051	B07HNLBZ4Y	500	7/23/2018
 7/23/2018	29374726	1	CDC_Tampa	OPTC-100021	B07HNLBZ4Y	3000	7/27/2018
 7/26/2018	29374727	1	CDC_Tampa	OPTC-100086	B07HNLBZ4Y	500	7/29/2018
 7/30/2018	29374728	1	CDC_Tampa	OPTC-100417	B07HNLBZ4Y	500	8/1/2018
 8/2/2018	29374729	1	CDC_Tampa	OPTC-100053	B07HNLBZ4Y	500	8/5/2018
 8/7/2018	29374730	1	CDC_Tampa	OPTC-100087	B07HNLBZ4Y	500	8/8/2018
 8/9/2018	29374731	1	CDC_Tampa	OPTC-100021	B07HNLBZ4Y	3000	8/11/2018
 8/12/2018	29374732	1	CDC_Tampa	OPTC-100047	B07HNLBZ4Y	500	8/15/2018
 8/16/2018	29374733	1	CDC_Tampa	OPTC-100052	B07HNLBZ4Y	500	8/18/2018
 8/18/2018	29374734	1	CDC_Tampa	OPTC-100075	B07HNLBZ4Y	500	8/21/2018
 8/22/2018	29374735	1	CDC_Tampa	OPTC-100036	B07HNLBZ4Y	500	8/24/2018
 8/22/2018	29374736	1	CDC_Tampa	OPTC-100059	B07HNLBZ4Y	500	8/26/2018
 8/27/2018	29374737	1	CDC_Tampa	OPTC-100024	B07HNLBZ4Y	500	8/30/2018
 8/30/2018	29374739	1	CDC_Tampa	OPTC-100047	B07HNLBZ4Y	500	9/3/2018
 8/31/2018	29374738	1	CDC_Tampa	OPTC-100014	B07HNLBZ4Y	500	9/1/2018
 9/2/2018	29374740	1	CDC_Tampa	OPTC-100052	B07HNLBZ4Y	500	9/6/2018
 9/4/2018	29374741	1	CDC_Tampa	OPTC-100075	B07HNLBZ4Y	500	9/7/2018
 9/7/2018	29374742	1	CDC_Tampa	OPTC-100036	B07HNLBZ4Y	500	9/10/2018
 9/11/2018	29374743	1	CDC_Tampa	OPTC-100059	B07HNLBZ4Y	500	9/14/2018
 9/13/2018	29374744	1	CDC_Tampa	OPTC-100024	B07HNLBZ4Y	500	9/17/2018
 9/18/2018	29374745	1	CDC_Tampa	OPTC-100014	B07HNLBZ4Y	500	9/20/2018
 9/19/2018	29374746	1	CDC_Tampa	OPTC-100148	B07HNLBZ4Y	500	9/22/2018
 9/21/2018	29374747	1	CDC_Tampa	OPTC-100020	B07HNLBZ4Y	500	9/25/2018
 9/23/2018	29374748	1	CDC_Tampa	OPTC-100088	B07HNLBZ4Y	500	9/27/2018
 9/24/2018	29374749	1	CDC_Tampa	OPTC-100045	B07HNLBZ4Y	500	9/28/2018
 9/29/2018	29374750	1	CDC_Tampa	OPTC-100051	B07HNLBZ4Y	500	10/2/2018
 9/30/2018	29374751	1	CDC_Tampa	OPTC-100021	B07HNLBZ4Y	3000	10/4/2018
 10/6/2018	29374753	1	CDC_Tampa	OPTC-100417	B07HNLBZ4Y	500	10/9/2018
 10/7/2018	29374752	1	CDC_Tampa	OPTC-100086	B07HNLBZ4Y	500	10/8/2018
 10/7/2018	29374754	1	CDC_Tampa	OPTC-100053	B07HNLBZ4Y	500	10/10/2018
 10/10/2018	29374755	1	CDC_Tampa	OPTC-100087	B07HNLBZ4Y	500	10/12/2018
 10/10/2018	29374756	1	CDC_Tampa	OPTC-100021	B07HNLBZ4Y	3000	10/14/2018
 10/16/2018	29374757	1	CDC_Tampa	OPTC-100047	B07HNLBZ4Y	500	10/18/2018
 10/19/2018	29374758	1	CDC_Tampa	OPTC-100052	B07HNLBZ4Y	500	10/21/2018
 10/23/2018	29374759	1	CDC_Tampa	OPTC-100075	B07HNLBZ4Y	500	10/24/2018
 10/23/2018	29374760	1	CDC_Tampa	OPTC-100036	B07HNLBZ4Y	500	10/26/2018
 10/26/2018	29374761	1	CDC_Tampa	OPTC-100059	B07HNLBZ4Y	500	10/30/2018
 10/31/2018	29374762	1	CDC_Tampa	OPTC-100024	B07HNLBZ4Y	500	11/2/2018
 10/31/2018	29374763	1	CDC_Tampa	OPTC-100014	B07HNLBZ4Y	500	11/3/2018
 11/3/2018	29374764	1	CDC_Tampa	OPTC-100047	B07HNLBZ4Y	500	11/5/2018
 11/6/2018	29374765	1	CDC_Tampa	OPTC-100052	B07HNLBZ4Y	500	11/7/2018
 11/8/2018	29374766	1	CDC_Tampa	OPTC-100075	B07HNLBZ4Y	500	11/10/2018
 11/10/2018	29374767	1	CDC_Tampa	OPTC-100036	B07HNLBZ4Y	500	11/12/2018
 11/11/2018	29374769	1	CDC_Tampa	OPTC-100024	B07HNLBZ4Y	500	11/15/2018
 11/12/2018	29374768	1	CDC_Tampa	OPTC-100059	B07HNLBZ4Y	500	11/13/2018
 11/17/2018	29374771	1	CDC_Tampa	OPTC-100148	B07HNLBZ4Y	500	11/21/2018
 11/18/2018	29374770	1	CDC_Tampa	OPTC-100014	B07HNLBZ4Y	500	11/19/2018
 11/23/2018	29374772	1	CDC_Tampa	OPTC-100020	B07HNLBZ4Y	500	11/25/2018
 11/25/2018	29374773	1	CDC_Tampa	OPTC-100088	B07HNLBZ4Y	500	11/27/2018
 11/28/2018	29374774	1	CDC_Tampa	OPTC-100045	B07HNLBZ4Y	500	12/1/2018
 12/1/2018	29374775	1	CDC_Tampa	OPTC-100051	B07HNLBZ4Y	500	12/5/2018
 12/5/2018	29374776	1	CDC_Tampa	OPTC-100021	B07HNLBZ4Y	3000	12/8/2018
 12/7/2018	29374778	1	CDC_Tampa	OPTC-100417	B07HNLBZ4Y	500	12/11/2018
 12/8/2018	29374777	1	CDC_Tampa	OPTC-100086	B07HNLBZ4Y	500	12/10/2018
 12/11/2018	29374779	1	CDC_Tampa	OPTC-100053	B07HNLBZ4Y	500	12/13/2018
 12/14/2018	29374780	1	CDC_Tampa	OPTC-100087	B07HNLBZ4Y	500	12/16/2018
 12/19/2018	29374781	1	CDC_Tampa	OPTC-100021	B07HNLBZ4Y	3000	12/20/2018
 12/21/2018	29374782	1	CDC_Tampa	OPTC-100047	B07HNLBZ4Y	500	12/22/2018
 12/24/2018	29374783	1	CDC_Tampa	OPTC-100052	B07HNLBZ4Y	500	12/26/2018
 