,,,,Qty Ordered,Qty Ordered,Qty Ordered,Qty Ordered
,,,,count,mean,min,max
Period,Product,Customer,Site,,,,
1.0,B07HNLBZ4Y,OPTC-100001,CDC_Tampa,1,500.0,500,500
1.0,B07HNLBZ4Y,OPTC-100010,CDC_Tampa,1,500.0,500,500
1.0,B07HNLBZ4Y,OPTC-100013,CDC_Tampa,1,500.0,500,500
1.0,B07HNLBZ4Y,OPTC-100017,CDC_Tampa,1,500.0,500,500
1.0,B07HNLBZ4Y,OPTC-100021,CDC_Tampa,3,2166.6666666666665,500,3000
1.0,B07HNLBZ4Y,OPTC-100023,CDC_Tampa,1,500.0,500,500
1.0,B07HNLBZ4Y,OPTC-100048,CDC_Tampa,1,500.0,500,500
1.0,B07HNLBZ4Y,OPTC-100056,CDC_Tampa,1,500.0,500,500
1.0,B07HNLBZ4Y,OPTC-100063,CDC_Tampa,1,500.0,500,500
1.0,B07HNLBZ4Y,OPTC-100078,CDC_Tampa,1,500.0,500,500
1.0,B07HNLBZ4Y,OPTC-100085,CDC_Tampa,1,500.0,500,500
1.0,B07HNLBZ4Y,OPTC-100094,CDC_Tampa,1,500.0,500,500
1.0,B07HNLBZ4Y,OPTC-100095,CDC_Tampa,1,500.0,500,500
1.0,B07HNLBZ4Y,OPTC-100148,CDC_Tampa,1,500.0,500,500
1.0,B08B6C16Q2,OPTC-100001,CDC_Tampa,1,250.0,250,250
1.0,B08B6C16Q2,OPTC-100010,CDC_Tampa,1,250.0,250,250
1.0,B08B6C16Q2,OPTC-100013,CDC_Tampa,1,250.0,250,250
1.0,B08B6C16Q2,OPTC-100017,CDC_Tampa,1,250.0,250,250
1.0,B08B6C16Q2,OPTC-100020,CDC_Tampa,1,250.0,250,250
1.0,B08B6C16Q2,OPTC-100021,CDC_Tampa,3,1083.3333333333333,250,1500
1.0,B08B6C16Q2,OPTC-100023,CDC_Tampa,1,250.0,250,250
1.0,B08B6C16Q2,OPTC-100048,CDC_Tampa,1,250.0,250,250
1.0,B08B6C16Q2,OPTC-100056,CDC_Tampa,1,250.0,250,250
1.0,B08B6C16Q2,OPTC-100063,CDC_Tampa,1,250.0,250,250
1.0,B08B6C16Q2,OPTC-100078,CDC_Tampa,1,250.0,250,250
1.0,B08B6C16Q2,OPTC-100085,CDC_Tampa,1,250.0,250,250
1.0,B08B6C16Q2,OPTC-100094,CDC_Tampa,1,250.0,250,250
1.0,B08B6C16Q2,OPTC-100095,CDC_Tampa,1,250.0,250,250
1.0,B08B6C16Q2,OPTC-100148,CDC_Tampa,1,250.0,250,250
2.0,B07HNLBZ4Y,OPTC-100020,CDC_Tampa,1,500.0,500,500
2.0,B07HNLBZ4Y,OPTC-100021,CDC_Tampa,2,3000.0,3000,3000
2.0,B07HNLBZ4Y,OPTC-100024,CDC_Tampa,1,500.0,500,500
2.0,B07HNLBZ4Y,OPTC-100036,CDC_Tampa,1,500.0,500,500
2.0,B07HNLBZ4Y,OPTC-100045,CDC_Tampa,1,500.0,500,500
2.0,B07HNLBZ4Y,OPTC-100047,CDC_Tampa,1,500.0,500,500
2.0,B07HNLBZ4Y,OPTC-100051,CDC_Tampa,1,500.0,500,500
2.0,B07HNLBZ4Y,OPTC-100052,CDC_Tampa,1,500.0,500,500
2.0,B07HNLBZ4Y,OPTC-100053,CDC_Tampa,1,500.0,500,500
2.0,B07HNLBZ4Y,OPTC-100059,CDC_Tampa,1,500.0,500,500
2.0,B07HNLBZ4Y,OPTC-100075,CDC_Tampa,1,500.0,500,500
2.0,B07HNLBZ4Y,OPTC-100086,CDC_Tampa,1,500.0,500,500
2.0,B07HNLBZ4Y,OPTC-100087,CDC_Tampa,1,500.0,500,500
2.0,B07HNLBZ4Y,OPTC-100088,CDC_Tampa,1,500.0,500,500
2.0,B07HNLBZ4Y,OPTC-100417,CDC_Tampa,1,500.0,500,500
2.0,B08B6C16Q2,OPTC-100014,CDC_Tampa,1,250.0,250,250
2.0,B08B6C16Q2,OPTC-100021,CDC_Tampa,2,1500.0,1500,1500
2.0,B08B6C16Q2,OPTC-100024,CDC_Tampa,1,250.0,250,250
2.0,B08B6C16Q2,OPTC-100036,CDC_Tampa,1,250.0,250,250
2.0,B08B6C16Q2,OPTC-100045,CDC_Tampa,1,250.0,250,250
2.0,B08B6C16Q2,OPTC-100047,CDC_Tampa,1,250.0,250,250
2.0,B08B6C16Q2,OPTC-100051,CDC_Tampa,1,250.0,250,250
2.0,B08B6C16Q2,OPTC-100052,CDC_Tampa,1,250.0,250,250
2.0,B08B6C16Q2,OPTC-100053,CDC_Tampa,1,250.0,250,250
2.0,B08B6C16Q2,OPTC-100059,CDC_Tampa,1,250.0,250,250
2.0,B08B6C16Q2,OPTC-100075,CDC_Tampa,1,250.0,250,250
2.0,B08B6C16Q2,OPTC-100086,CDC_Tampa,1,250.0,250,250
2.0,B08B6C16Q2,OPTC-100087,CDC_Tampa,1,250.0,250,250
2.0,B08B6C16Q2,OPTC-100088,CDC_Tampa,1,250.0,250,250
2.0,B08B6C16Q2,OPTC-100417,CDC_Tampa,1,250.0,250,250
3.0,B07HNLBZ4Y,OPTC-100014,CDC_Tampa,1,500.0,500,500
