Scenario	Replication	ProductName	Site	OrdersReceived	OrdersShipped	UnitsShipped	OnTimeOrders	LateOrders	OrderFillRate	OrderQtyFillRate	AvgDaysLateForLateOrdersOnly	TransportationCost
Scenario 3 - Multi Ech Single Prod	0	B08B6C16Q2	CDC_TAMPA	233	233	5620	233	0	1.000	1.000	0.000	24512.00
Scenario 3 - Multi Ech Single Prod	0	B08B6C16Q2	RDC_NASHVILLE	17	17	5425	17	0	1.000	1.000	0.000	0.00
