Date	Site	Product	Qty On Order
1/1/2018	CDC_TAMPA	B08B6C16Q2	0
1/2/2018	CDC_TAMPA	B08B6C16Q2	0
1/3/2018	CDC_TAMPA	B08B6C16Q2	0
1/4/2018	CDC_TAMPA	B08B6C16Q2	254
1/5/2018	CDC_TAMPA	B08B6C16Q2	254
1/6/2018	CDC_TAMPA	B08B6C16Q2	254
1/7/2018	CDC_TAMPA	B08B6C16Q2	254
1/8/2018	CDC_TAMPA	B08B6C16Q2	478
1/9/2018	CDC_TAMPA	B08B6C16Q2	478
1/10/2018	CDC_TAMPA	B08B6C16Q2	478
1/11/2018	CDC_TAMPA	B08B6C16Q2	681
1/12/2018	CDC_TAMPA	B08B6C16Q2	681
1/13/2018	CDC_TAMPA	B08B6C16Q2	681
1/14/2018	CDC_TAMPA	B08B6C16Q2	649
1/15/2018	CDC_TAMPA	B08B6C16Q2	649
1/16/2018	CDC_TAMPA	B08B6C16Q2	649
1/17/2018	CDC_TAMPA	B08B6C16Q2	649
1/18/2018	CDC_TAMPA	B08B6C16Q2	690
1/19/2018	CDC_TAMPA	B08B6C16Q2	690
1/20/2018	CDC_TAMPA	B08B6C16Q2	690
1/21/2018	CDC_TAMPA	B08B6C16Q2	487
1/22/2018	CDC_TAMPA	B08B6C16Q2	772
1/23/2018	CDC_TAMPA	B08B6C16Q2	772
1/24/2018	CDC_TAMPA	B08B6C16Q2	550
1/25/2018	CDC_TAMPA	B08B6C16Q2	777
1/26/2018	CDC_TAMPA	B08B6C16Q2	777
1/27/2018	CDC_TAMPA	B08B6C16Q2	777
1/28/2018	CDC_TAMPA	B08B6C16Q2	512
1/29/2018	CDC_TAMPA	B08B6C16Q2	755
1/30/2018	CDC_TAMPA	B08B6C16Q2	755
1/31/2018	CDC_TAMPA	B08B6C16Q2	755
2/1/2018	CDC_TAMPA	B08B6C16Q2	674
2/2/2018	CDC_TAMPA	B08B6C16Q2	674
2/3/2018	CDC_TAMPA	B08B6C16Q2	674
2/4/2018	CDC_TAMPA	B08B6C16Q2	689
2/5/2018	CDC_TAMPA	B08B6C16Q2	689
2/6/2018	CDC_TAMPA	B08B6C16Q2	689
2/7/2018	CDC_TAMPA	B08B6C16Q2	914
2/8/2018	CDC_TAMPA	B08B6C16Q2	671
2/9/2018	CDC_TAMPA	B08B6C16Q2	671
2/10/2018	CDC_TAMPA	B08B6C16Q2	894
2/11/2018	CDC_TAMPA	B08B6C16Q2	690
2/12/2018	CDC_TAMPA	B08B6C16Q2	690
2/13/2018	CDC_TAMPA	B08B6C16Q2	914
2/14/2018	CDC_TAMPA	B08B6C16Q2	672
2/15/2018	CDC_TAMPA	B08B6C16Q2	672
2/16/2018	CDC_TAMPA	B08B6C16Q2	881
2/17/2018	CDC_TAMPA	B08B6C16Q2	656
2/18/2018	CDC_TAMPA	B08B6C16Q2	656
2/19/2018	CDC_TAMPA	B08B6C16Q2	656
2/20/2018	CDC_TAMPA	B08B6C16Q2	654
2/21/2018	CDC_TAMPA	B08B6C16Q2	654
2/22/2018	CDC_TAMPA	B08B6C16Q2	654
2/23/2018	CDC_TAMPA	B08B6C16Q2	430
2/24/2018	CDC_TAMPA	B08B6C16Q2	694
2/25/2018	CDC_TAMPA	B08B6C16Q2	694
2/26/2018	CDC_TAMPA	B08B6C16Q2	485
2/27/2018	CDC_TAMPA	B08B6C16Q2	485
2/28/2018	CDC_TAMPA	B08B6C16Q2	735
3/1/2018	CDC_TAMPA	B08B6C16Q2	735
3/2/2018	CDC_TAMPA	B08B6C16Q2	514
3/3/2018	CDC_TAMPA	B08B6C16Q2	514
3/4/2018	CDC_TAMPA	B08B6C16Q2	790
3/5/2018	CDC_TAMPA	B08B6C16Q2	790
3/6/2018	CDC_TAMPA	B08B6C16Q2	526
3/7/2018	CDC_TAMPA	B08B6C16Q2	526
3/8/2018	CDC_TAMPA	B08B6C16Q2	791
3/9/2018	CDC_TAMPA	B08B6C16Q2	791
3/10/2018	CDC_TAMPA	B08B6C16Q2	541
3/11/2018	CDC_TAMPA	B08B6C16Q2	777
3/12/2018	CDC_TAMPA	B08B6C16Q2	777
3/13/2018	CDC_TAMPA	B08B6C16Q2	777
3/14/2018	CDC_TAMPA	B08B6C16Q2	501
3/15/2018	CDC_TAMPA	B08B6C16Q2	780
3/16/2018	CDC_TAMPA	B08B6C16Q2	780
3/17/2018	CDC_TAMPA	B08B6C16Q2	780
3/18/2018	CDC_TAMPA	B08B6C16Q2	725
3/19/2018	CDC_TAMPA	B08B6C16Q2	725
3/20/2018	CDC_TAMPA	B08B6C16Q2	725
3/21/2018	CDC_TAMPA	B08B6C16Q2	714
3/22/2018	CDC_TAMPA	B08B6C16Q2	714
3/23/2018	CDC_TAMPA	B08B6C16Q2	714
3/24/2018	CDC_TAMPA	B08B6C16Q2	960
3/25/2018	CDC_TAMPA	B08B6C16Q2	681
3/26/2018	CDC_TAMPA	B08B6C16Q2	681
3/27/2018	CDC_TAMPA	B08B6C16Q2	891
3/28/2018	CDC_TAMPA	B08B6C16Q2	681
3/29/2018	CDC_TAMPA	B08B6C16Q2	681
3/30/2018	CDC_TAMPA	B08B6C16Q2	917
3/31/2018	CDC_TAMPA	B08B6C16Q2	692
4/1/2018	CDC_TAMPA	B08B6C16Q2	692
4/2/2018	CDC_TAMPA	B08B6C16Q2	911
4/3/2018	CDC_TAMPA	B08B6C16Q2	665
4/4/2018	CDC_TAMPA	B08B6C16Q2	665
4/5/2018	CDC_TAMPA	B08B6C16Q2	873
4/6/2018	CDC_TAMPA	B08B6C16Q2	663
4/7/2018	CDC_TAMPA	B08B6C16Q2	663
4/8/2018	CDC_TAMPA	B08B6C16Q2	883
4/9/2018	CDC_TAMPA	B08B6C16Q2	647
4/10/2018	CDC_TAMPA	B08B6C16Q2	647
4/11/2018	CDC_TAMPA	B08B6C16Q2	647
4/12/2018	CDC_TAMPA	B08B6C16Q2	683
4/13/2018	CDC_TAMPA	B08B6C16Q2	683
4/14/2018	CDC_TAMPA	B08B6C16Q2	683
4/15/2018	CDC_TAMPA	B08B6C16Q2	715
4/16/2018	CDC_TAMPA	B08B6C16Q2	715
4/17/2018	CDC_TAMPA	B08B6C16Q2	715
4/18/2018	CDC_TAMPA	B08B6C16Q2	709
4/19/2018	CDC_TAMPA	B08B6C16Q2	709
4/20/2018	CDC_TAMPA	B08B6C16Q2	709
4/21/2018	CDC_TAMPA	B08B6C16Q2	936
4/22/2018	CDC_TAMPA	B08B6C16Q2	681
4/23/2018	CDC_TAMPA	B08B6C16Q2	681
4/24/2018	CDC_TAMPA	B08B6C16Q2	903
4/25/2018	CDC_TAMPA	B08B6C16Q2	663
4/26/2018	CDC_TAMPA	B08B6C16Q2	663
4/27/2018	CDC_TAMPA	B08B6C16Q2	877
4/28/2018	CDC_TAMPA	B08B6C16Q2	663
4/29/2018	CDC_TAMPA	B08B6C16Q2	663
4/30/2018	CDC_TAMPA	B08B6C16Q2	886
5/1/2018	CDC_TAMPA	B08B6C16Q2	659
5/2/2018	CDC_TAMPA	B08B6C16Q2	659
5/3/2018	CDC_TAMPA	B08B6C16Q2	659
5/4/2018	CDC_TAMPA	B08B6C16Q2	639
5/5/2018	CDC_TAMPA	B08B6C16Q2	639
5/6/2018	CDC_TAMPA	B08B6C16Q2	639
5/7/2018	CDC_TAMPA	B08B6C16Q2	656
5/8/2018	CDC_TAMPA	B08B6C16Q2	656
5/9/2018	CDC_TAMPA	B08B6C16Q2	656
5/10/2018	CDC_TAMPA	B08B6C16Q2	433
5/11/2018	CDC_TAMPA	B08B6C16Q2	706
5/12/2018	CDC_TAMPA	B08B6C16Q2	706
5/13/2018	CDC_TAMPA	B08B6C16Q2	706
5/14/2018	CDC_TAMPA	B08B6C16Q2	717
5/15/2018	CDC_TAMPA	B08B6C16Q2	717
5/16/2018	CDC_TAMPA	B08B6C16Q2	717
5/17/2018	CDC_TAMPA	B08B6C16Q2	712
5/18/2018	CDC_TAMPA	B08B6C16Q2	712
5/19/2018	CDC_TAMPA	B08B6C16Q2	712
5/20/2018	CDC_TAMPA	B08B6C16Q2	945
5/21/2018	CDC_TAMPA	B08B6C16Q2	672
5/22/2018	CDC_TAMPA	B08B6C16Q2	672
5/23/2018	CDC_TAMPA	B08B6C16Q2	672
5/24/2018	CDC_TAMPA	B08B6C16Q2	688
5/25/2018	CDC_TAMPA	B08B6C16Q2	688
5/26/2018	CDC_TAMPA	B08B6C16Q2	688
5/27/2018	CDC_TAMPA	B08B6C16Q2	462
5/28/2018	CDC_TAMPA	B08B6C16Q2	700
5/29/2018	CDC_TAMPA	B08B6C16Q2	700
5/30/2018	CDC_TAMPA	B08B6C16Q2	467
5/31/2018	CDC_TAMPA	B08B6C16Q2	467
6/1/2018	CDC_TAMPA	B08B6C16Q2	729
6/2/2018	CDC_TAMPA	B08B6C16Q2	729
6/3/2018	CDC_TAMPA	B08B6C16Q2	500
6/4/2018	CDC_TAMPA	B08B6C16Q2	500
6/5/2018	CDC_TAMPA	B08B6C16Q2	769
6/6/2018	CDC_TAMPA	B08B6C16Q2	769
6/7/2018	CDC_TAMPA	B08B6C16Q2	531
6/8/2018	CDC_TAMPA	B08B6C16Q2	753
6/9/2018	CDC_TAMPA	B08B6C16Q2	753
6/10/2018	CDC_TAMPA	B08B6C16Q2	753
6/11/2018	CDC_TAMPA	B08B6C16Q2	705
6/12/2018	CDC_TAMPA	B08B6C16Q2	705
6/13/2018	CDC_TAMPA	B08B6C16Q2	705
6/14/2018	CDC_TAMPA	B08B6C16Q2	920
6/15/2018	CDC_TAMPA	B08B6C16Q2	651
6/16/2018	CDC_TAMPA	B08B6C16Q2	651
6/17/2018	CDC_TAMPA	B08B6C16Q2	651
6/18/2018	CDC_TAMPA	B08B6C16Q2	671
6/19/2018	CDC_TAMPA	B08B6C16Q2	671
6/20/2018	CDC_TAMPA	B08B6C16Q2	671
6/21/2018	CDC_TAMPA	B08B6C16Q2	685
6/22/2018	CDC_TAMPA	B08B6C16Q2	685
6/23/2018	CDC_TAMPA	B08B6C16Q2	685
6/24/2018	CDC_TAMPA	B08B6C16Q2	680
6/25/2018	CDC_TAMPA	B08B6C16Q2	680
6/26/2018	CDC_TAMPA	B08B6C16Q2	680
6/27/2018	CDC_TAMPA	B08B6C16Q2	898
6/28/2018	CDC_TAMPA	B08B6C16Q2	656
6/29/2018	CDC_TAMPA	B08B6C16Q2	656
6/30/2018	CDC_TAMPA	B08B6C16Q2	656
7/1/2018	CDC_TAMPA	B08B6C16Q2	675
7/2/2018	CDC_TAMPA	B08B6C16Q2	675
7/3/2018	CDC_TAMPA	B08B6C16Q2	675
7/4/2018	CDC_TAMPA	B08B6C16Q2	465
7/5/2018	CDC_TAMPA	B08B6C16Q2	740
7/6/2018	CDC_TAMPA	B08B6C16Q2	740
7/7/2018	CDC_TAMPA	B08B6C16Q2	522
7/8/2018	CDC_TAMPA	B08B6C16Q2	725
7/9/2018	CDC_TAMPA	B08B6C16Q2	725
7/10/2018	CDC_TAMPA	B08B6C16Q2	725
7/11/2018	CDC_TAMPA	B08B6C16Q2	478
7/12/2018	CDC_TAMPA	B08B6C16Q2	758
7/13/2018	CDC_TAMPA	B08B6C16Q2	758
7/14/2018	CDC_TAMPA	B08B6C16Q2	758
7/15/2018	CDC_TAMPA	B08B6C16Q2	745
7/16/2018	CDC_TAMPA	B08B6C16Q2	745
7/17/2018	CDC_TAMPA	B08B6C16Q2	745
7/18/2018	CDC_TAMPA	B08B6C16Q2	542
7/19/2018	CDC_TAMPA	B08B6C16Q2	814
7/20/2018	CDC_TAMPA	B08B6C16Q2	814
7/21/2018	CDC_TAMPA	B08B6C16Q2	814
7/22/2018	CDC_TAMPA	B08B6C16Q2	787
7/23/2018	CDC_TAMPA	B08B6C16Q2	787
7/24/2018	CDC_TAMPA	B08B6C16Q2	787
7/25/2018	CDC_TAMPA	B08B6C16Q2	736
7/26/2018	CDC_TAMPA	B08B6C16Q2	736
7/27/2018	CDC_TAMPA	B08B6C16Q2	736
7/28/2018	CDC_TAMPA	B08B6C16Q2	973
7/29/2018	CDC_TAMPA	B08B6C16Q2	701
7/30/2018	CDC_TAMPA	B08B6C16Q2	701
7/31/2018	CDC_TAMPA	B08B6C16Q2	946
8/1/2018	CDC_TAMPA	B08B6C16Q2	693
8/2/2018	CDC_TAMPA	B08B6C16Q2	693
8/3/2018	CDC_TAMPA	B08B6C16Q2	693
8/4/2018	CDC_TAMPA	B08B6C16Q2	713
8/5/2018	CDC_TAMPA	B08B6C16Q2	713
8/6/2018	CDC_TAMPA	B08B6C16Q2	713
8/7/2018	CDC_TAMPA	B08B6C16Q2	700
8/8/2018	CDC_TAMPA	B08B6C16Q2	700
8/9/2018	CDC_TAMPA	B08B6C16Q2	700
8/10/2018	CDC_TAMPA	B08B6C16Q2	455
8/11/2018	CDC_TAMPA	B08B6C16Q2	673
8/12/2018	CDC_TAMPA	B08B6C16Q2	673
8/13/2018	CDC_TAMPA	B08B6C16Q2	673
8/14/2018	CDC_TAMPA	B08B6C16Q2	679
8/15/2018	CDC_TAMPA	B08B6C16Q2	679
8/16/2018	CDC_TAMPA	B08B6C16Q2	679
8/17/2018	CDC_TAMPA	B08B6C16Q2	703
8/18/2018	CDC_TAMPA	B08B6C16Q2	703
8/19/2018	CDC_TAMPA	B08B6C16Q2	703
8/20/2018	CDC_TAMPA	B08B6C16Q2	932
8/21/2018	CDC_TAMPA	B08B6C16Q2	714
8/22/2018	CDC_TAMPA	B08B6C16Q2	714
8/23/2018	CDC_TAMPA	B08B6C16Q2	928
8/24/2018	CDC_TAMPA	B08B6C16Q2	691
8/25/2018	CDC_TAMPA	B08B6C16Q2	691
8/26/2018	CDC_TAMPA	B08B6C16Q2	691
8/27/2018	CDC_TAMPA	B08B6C16Q2	707
8/28/2018	CDC_TAMPA	B08B6C16Q2	707
8/29/2018	CDC_TAMPA	B08B6C16Q2	707
8/30/2018	CDC_TAMPA	B08B6C16Q2	711
8/31/2018	CDC_TAMPA	B08B6C16Q2	711
9/1/2018	CDC_TAMPA	B08B6C16Q2	711
9/2/2018	CDC_TAMPA	B08B6C16Q2	709
9/3/2018	CDC_TAMPA	B08B6C16Q2	709
9/4/2018	CDC_TAMPA	B08B6C16Q2	709
9/5/2018	CDC_TAMPA	B08B6C16Q2	709
9/6/2018	CDC_TAMPA	B08B6C16Q2	713
9/7/2018	CDC_TAMPA	B08B6C16Q2	713
9/8/2018	CDC_TAMPA	B08B6C16Q2	713
9/9/2018	CDC_TAMPA	B08B6C16Q2	708
9/10/2018	CDC_TAMPA	B08B6C16Q2	708
9/11/2018	CDC_TAMPA	B08B6C16Q2	708
9/12/2018	CDC_TAMPA	B08B6C16Q2	727
9/13/2018	CDC_TAMPA	B08B6C16Q2	727
9/14/2018	CDC_TAMPA	B08B6C16Q2	727
9/15/2018	CDC_TAMPA	B08B6C16Q2	961
9/16/2018	CDC_TAMPA	B08B6C16Q2	693
9/17/2018	CDC_TAMPA	B08B6C16Q2	693
9/18/2018	CDC_TAMPA	B08B6C16Q2	909
9/19/2018	CDC_TAMPA	B08B6C16Q2	681
9/20/2018	CDC_TAMPA	B08B6C16Q2	681
9/21/2018	CDC_TAMPA	B08B6C16Q2	929
9/22/2018	CDC_TAMPA	B08B6C16Q2	698
9/23/2018	CDC_TAMPA	B08B6C16Q2	698
9/24/2018	CDC_TAMPA	B08B6C16Q2	925
9/25/2018	CDC_TAMPA	B08B6C16Q2	691
9/26/2018	CDC_TAMPA	B08B6C16Q2	691
9/27/2018	CDC_TAMPA	B08B6C16Q2	691
9/28/2018	CDC_TAMPA	B08B6C16Q2	739
9/29/2018	CDC_TAMPA	B08B6C16Q2	739
9/30/2018	CDC_TAMPA	B08B6C16Q2	739
10/1/2018	CDC_TAMPA	B08B6C16Q2	709
10/2/2018	CDC_TAMPA	B08B6C16Q2	709
10/3/2018	CDC_TAMPA	B08B6C16Q2	912
10/4/2018	CDC_TAMPA	B08B6C16Q2	685
10/5/2018	CDC_TAMPA	B08B6C16Q2	685
10/6/2018	CDC_TAMPA	B08B6C16Q2	907
10/7/2018	CDC_TAMPA	B08B6C16Q2	907
10/8/2018	CDC_TAMPA	B08B6C16Q2	848
10/9/2018	CDC_TAMPA	B08B6C16Q2	848
10/10/2018	CDC_TAMPA	B08B6C16Q2	848
10/11/2018	CDC_TAMPA	B08B6C16Q2	899
10/12/2018	CDC_TAMPA	B08B6C16Q2	899
10/13/2018	CDC_TAMPA	B08B6C16Q2	696
10/14/2018	CDC_TAMPA	B08B6C16Q2	954
10/15/2018	CDC_TAMPA	B08B6C16Q2	954
10/16/2018	CDC_TAMPA	B08B6C16Q2	732
10/17/2018	CDC_TAMPA	B08B6C16Q2	1016
10/18/2018	CDC_TAMPA	B08B6C16Q2	811
10/19/2018	CDC_TAMPA	B08B6C16Q2	811
10/20/2018	CDC_TAMPA	B08B6C16Q2	1082
10/21/2018	CDC_TAMPA	B08B6C16Q2	813
10/22/2018	CDC_TAMPA	B08B6C16Q2	813
10/23/2018	CDC_TAMPA	B08B6C16Q2	1029
10/24/2018	CDC_TAMPA	B08B6C16Q2	771
10/25/2018	CDC_TAMPA	B08B6C16Q2	771
10/26/2018	CDC_TAMPA	B08B6C16Q2	1018
10/27/2018	CDC_TAMPA	B08B6C16Q2	734
10/28/2018	CDC_TAMPA	B08B6C16Q2	734
10/29/2018	CDC_TAMPA	B08B6C16Q2	1004
10/30/2018	CDC_TAMPA	B08B6C16Q2	733
10/31/2018	CDC_TAMPA	B08B6C16Q2	733
11/1/2018	CDC_TAMPA	B08B6C16Q2	995
11/2/2018	CDC_TAMPA	B08B6C16Q2	779
11/3/2018	CDC_TAMPA	B08B6C16Q2	779
11/4/2018	CDC_TAMPA	B08B6C16Q2	1060
11/5/2018	CDC_TAMPA	B08B6C16Q2	813
11/6/2018	CDC_TAMPA	B08B6C16Q2	1015
11/7/2018	CDC_TAMPA	B08B6C16Q2	1015
11/8/2018	CDC_TAMPA	B08B6C16Q2	1011
11/9/2018	CDC_TAMPA	B08B6C16Q2	1011
11/10/2018	CDC_TAMPA	B08B6C16Q2	1011
11/11/2018	CDC_TAMPA	B08B6C16Q2	999
11/12/2018	CDC_TAMPA	B08B6C16Q2	999
11/13/2018	CDC_TAMPA	B08B6C16Q2	1225
11/14/2018	CDC_TAMPA	B08B6C16Q2	944
11/15/2018	CDC_TAMPA	B08B6C16Q2	944
11/16/2018	CDC_TAMPA	B08B6C16Q2	1043
11/17/2018	CDC_TAMPA	B08B6C16Q2	1043
11/18/2018	CDC_TAMPA	B08B6C16Q2	988
11/19/2018	CDC_TAMPA	B08B6C16Q2	988
11/20/2018	CDC_TAMPA	B08B6C16Q2	988
11/21/2018	CDC_TAMPA	B08B6C16Q2	1009
11/22/2018	CDC_TAMPA	B08B6C16Q2	1009
11/23/2018	CDC_TAMPA	B08B6C16Q2	783
11/24/2018	CDC_TAMPA	B08B6C16Q2	1081
11/25/2018	CDC_TAMPA	B08B6C16Q2	1081
11/26/2018	CDC_TAMPA	B08B6C16Q2	1003
11/27/2018	CDC_TAMPA	B08B6C16Q2	1003
11/28/2018	CDC_TAMPA	B08B6C16Q2	996
11/29/2018	CDC_TAMPA	B08B6C16Q2	996
11/30/2018	CDC_TAMPA	B08B6C16Q2	996
12/1/2018	CDC_TAMPA	B08B6C16Q2	1032
12/2/2018	CDC_TAMPA	B08B6C16Q2	1032
12/3/2018	CDC_TAMPA	B08B6C16Q2	1032
12/4/2018	CDC_TAMPA	B08B6C16Q2	1008
12/5/2018	CDC_TAMPA	B08B6C16Q2	1008
12/6/2018	CDC_TAMPA	B08B6C16Q2	1005
12/7/2018	CDC_TAMPA	B08B6C16Q2	1005
12/8/2018	CDC_TAMPA	B08B6C16Q2	1049
12/9/2018	CDC_TAMPA	B08B6C16Q2	1049
12/10/2018	CDC_TAMPA	B08B6C16Q2	1287
12/11/2018	CDC_TAMPA	B08B6C16Q2	980
12/12/2018	CDC_TAMPA	B08B6C16Q2	980
12/13/2018	CDC_TAMPA	B08B6C16Q2	1268
12/14/2018	CDC_TAMPA	B08B6C16Q2	994
12/15/2018	CDC_TAMPA	B08B6C16Q2	1216
12/16/2018	CDC_TAMPA	B08B6C16Q2	996
12/17/2018	CDC_TAMPA	B08B6C16Q2	996
12/18/2018	CDC_TAMPA	B08B6C16Q2	1042
12/19/2018	CDC_TAMPA	B08B6C16Q2	1042
12/20/2018	CDC_TAMPA	B08B6C16Q2	804
12/21/2018	CDC_TAMPA	B08B6C16Q2	1074
12/22/2018	CDC_TAMPA	B08B6C16Q2	1074
12/23/2018	CDC_TAMPA	B08B6C16Q2	991
12/24/2018	CDC_TAMPA	B08B6C16Q2	991
12/25/2018	CDC_TAMPA	B08B6C16Q2	980
12/26/2018	CDC_TAMPA	B08B6C16Q2	980
12/27/2018	CDC_TAMPA	B08B6C16Q2	1195
12/28/2018	CDC_TAMPA	B08B6C16Q2	901
12/29/2018	CDC_TAMPA	B08B6C16Q2	901
12/30/2018	CDC_TAMPA	B08B6C16Q2	1200
12/31/2018	CDC_TAMPA	B08B6C16Q2	930
1/1/2019	CDC_TAMPA	B08B6C16Q2	930
