Date	Site	Product	Qty Backorder
1/4/2018	CDC_Tampa	B07HNLBZ4Y	0
1/5/2018	CDC_Tampa	B07HNLBZ4Y	0
1/6/2018	CDC_Tampa	B07HNLBZ4Y	0
1/7/2018	CDC_Tampa	B07HNLBZ4Y	0
1/8/2018	CDC_Tampa	B07HNLBZ4Y	0
1/9/2018	CDC_Tampa	B07HNLBZ4Y	0
1/10/2018	CDC_Tampa	B07HNLBZ4Y	0
1/11/2018	CDC_Tampa	B07HNLBZ4Y	0
1/12/2018	CDC_Tampa	B07HNLBZ4Y	500
1/13/2018	CDC_Tampa	B07HNLBZ4Y	500
1/14/2018	CDC_Tampa	B07HNLBZ4Y	1000
1/15/2018	CDC_Tampa	B07HNLBZ4Y	4000
1/16/2018	CDC_Tampa	B07HNLBZ4Y	4500
1/17/2018	CDC_Tampa	B07HNLBZ4Y	4500
1/18/2018	CDC_Tampa	B07HNLBZ4Y	5000
1/19/2018	CDC_Tampa	B07HNLBZ4Y	5000
1/20/2018	CDC_Tampa	B07HNLBZ4Y	5500
1/21/2018	CDC_Tampa	B07HNLBZ4Y	5500
1/22/2018	CDC_Tampa	B07HNLBZ4Y	6000
1/23/2018	CDC_Tampa	B07HNLBZ4Y	500
1/24/2018	CDC_Tampa	B07HNLBZ4Y	1000
1/25/2018	CDC_Tampa	B07HNLBZ4Y	1000
1/26/2018	CDC_Tampa	B07HNLBZ4Y	1500
1/27/2018	CDC_Tampa	B07HNLBZ4Y	1500
1/28/2018	CDC_Tampa	B07HNLBZ4Y	2000
1/29/2018	CDC_Tampa	B07HNLBZ4Y	2000
1/30/2018	CDC_Tampa	B07HNLBZ4Y	2500
1/31/2018	CDC_Tampa	B07HNLBZ4Y	2500
2/1/2018	CDC_Tampa	B07HNLBZ4Y	3000
2/2/2018	CDC_Tampa	B07HNLBZ4Y	0
2/3/2018	CDC_Tampa	B07HNLBZ4Y	0
2/4/2018	CDC_Tampa	B07HNLBZ4Y	0
2/5/2018	CDC_Tampa	B07HNLBZ4Y	0
2/6/2018	CDC_Tampa	B07HNLBZ4Y	0
2/7/2018	CDC_Tampa	B07HNLBZ4Y	2000
2/8/2018	CDC_Tampa	B07HNLBZ4Y	2000
2/9/2018	CDC_Tampa	B07HNLBZ4Y	2500
2/10/2018	CDC_Tampa	B07HNLBZ4Y	2500
2/11/2018	CDC_Tampa	B07HNLBZ4Y	3000
2/12/2018	CDC_Tampa	B07HNLBZ4Y	500
2/13/2018	CDC_Tampa	B07HNLBZ4Y	1000
2/14/2018	CDC_Tampa	B07HNLBZ4Y	1000
2/15/2018	CDC_Tampa	B07HNLBZ4Y	4500
2/16/2018	CDC_Tampa	B07HNLBZ4Y	4500
2/17/2018	CDC_Tampa	B07HNLBZ4Y	5000
2/18/2018	CDC_Tampa	B07HNLBZ4Y	5000
2/19/2018	CDC_Tampa	B07HNLBZ4Y	5500
2/20/2018	CDC_Tampa	B07HNLBZ4Y	5500
2/21/2018	CDC_Tampa	B07HNLBZ4Y	6000
2/22/2018	CDC_Tampa	B07HNLBZ4Y	500
2/23/2018	CDC_Tampa	B07HNLBZ4Y	1000
2/24/2018	CDC_Tampa	B07HNLBZ4Y	1000
2/25/2018	CDC_Tampa	B07HNLBZ4Y	1500
2/26/2018	CDC_Tampa	B07HNLBZ4Y	1500
2/27/2018	CDC_Tampa	B07HNLBZ4Y	2000
2/28/2018	CDC_Tampa	B07HNLBZ4Y	2000
3/1/2018	CDC_Tampa	B07HNLBZ4Y	2500
3/2/2018	CDC_Tampa	B07HNLBZ4Y	2500
3/3/2018	CDC_Tampa	B07HNLBZ4Y	2500
3/4/2018	CDC_Tampa	B07HNLBZ4Y	0
3/5/2018	CDC_Tampa	B07HNLBZ4Y	0
3/6/2018	CDC_Tampa	B07HNLBZ4Y	0
3/7/2018	CDC_Tampa	B07HNLBZ4Y	0
3/8/2018	CDC_Tampa	B07HNLBZ4Y	0
3/9/2018	CDC_Tampa	B07HNLBZ4Y	0
3/10/2018	CDC_Tampa	B07HNLBZ4Y	0
3/11/2018	CDC_Tampa	B07HNLBZ4Y	0
3/12/2018	CDC_Tampa	B07HNLBZ4Y	0
3/13/2018	CDC_Tampa	B07HNLBZ4Y	0
3/14/2018	CDC_Tampa	B07HNLBZ4Y	0
3/15/2018	CDC_Tampa	B07HNLBZ4Y	0
3/16/2018	CDC_Tampa	B07HNLBZ4Y	0
3/17/2018	CDC_Tampa	B07HNLBZ4Y	0
3/18/2018	CDC_Tampa	B07HNLBZ4Y	0
3/19/2018	CDC_Tampa	B07HNLBZ4Y	0
3/20/2018	CDC_Tampa	B07HNLBZ4Y	500
3/21/2018	CDC_Tampa	B07HNLBZ4Y	1000
3/22/2018	CDC_Tampa	B07HNLBZ4Y	1500
3/23/2018	CDC_Tampa	B07HNLBZ4Y	1500
3/24/2018	CDC_Tampa	B07HNLBZ4Y	0
3/25/2018	CDC_Tampa	B07HNLBZ4Y	0
3/26/2018	CDC_Tampa	B07HNLBZ4Y	0
3/27/2018	CDC_Tampa	B07HNLBZ4Y	500
3/28/2018	CDC_Tampa	B07HNLBZ4Y	500
3/29/2018	CDC_Tampa	B07HNLBZ4Y	500
3/30/2018	CDC_Tampa	B07HNLBZ4Y	3500
3/31/2018	CDC_Tampa	B07HNLBZ4Y	3500
4/1/2018	CDC_Tampa	B07HNLBZ4Y	4500
4/2/2018	CDC_Tampa	B07HNLBZ4Y	4500
4/3/2018	CDC_Tampa	B07HNLBZ4Y	0
4/4/2018	CDC_Tampa	B07HNLBZ4Y	0
4/5/2018	CDC_Tampa	B07HNLBZ4Y	0
4/6/2018	CDC_Tampa	B07HNLBZ4Y	0
4/7/2018	CDC_Tampa	B07HNLBZ4Y	500
4/8/2018	CDC_Tampa	B07HNLBZ4Y	500
4/9/2018	CDC_Tampa	B07HNLBZ4Y	1500
4/10/2018	CDC_Tampa	B07HNLBZ4Y	1500
4/11/2018	CDC_Tampa	B07HNLBZ4Y	1500
4/12/2018	CDC_Tampa	B07HNLBZ4Y	1500
4/13/2018	CDC_Tampa	B07HNLBZ4Y	0
4/14/2018	CDC_Tampa	B07HNLBZ4Y	0
4/15/2018	CDC_Tampa	B07HNLBZ4Y	0
4/16/2018	CDC_Tampa	B07HNLBZ4Y	0
4/17/2018	CDC_Tampa	B07HNLBZ4Y	0
4/18/2018	CDC_Tampa	B07HNLBZ4Y	0
4/19/2018	CDC_Tampa	B07HNLBZ4Y	0
4/20/2018	CDC_Tampa	B07HNLBZ4Y	0
4/21/2018	CDC_Tampa	B07HNLBZ4Y	0
4/22/2018	CDC_Tampa	B07HNLBZ4Y	0
4/23/2018	CDC_Tampa	B07HNLBZ4Y	0
4/24/2018	CDC_Tampa	B07HNLBZ4Y	0
4/25/2018	CDC_Tampa	B07HNLBZ4Y	0
4/26/2018	CDC_Tampa	B07HNLBZ4Y	0
4/27/2018	CDC_Tampa	B07HNLBZ4Y	0
4/28/2018	CDC_Tampa	B07HNLBZ4Y	0
4/29/2018	CDC_Tampa	B07HNLBZ4Y	0
4/30/2018	CDC_Tampa	B07HNLBZ4Y	1500
5/1/2018	CDC_Tampa	B07HNLBZ4Y	1500
5/2/2018	CDC_Tampa	B07HNLBZ4Y	1500
5/3/2018	CDC_Tampa	B07HNLBZ4Y	0
5/4/2018	CDC_Tampa	B07HNLBZ4Y	0
5/5/2018	CDC_Tampa	B07HNLBZ4Y	0
5/6/2018	CDC_Tampa	B07HNLBZ4Y	0
5/7/2018	CDC_Tampa	B07HNLBZ4Y	500
5/8/2018	CDC_Tampa	B07HNLBZ4Y	500
5/9/2018	CDC_Tampa	B07HNLBZ4Y	1000
5/10/2018	CDC_Tampa	B07HNLBZ4Y	1500
5/11/2018	CDC_Tampa	B07HNLBZ4Y	1500
5/12/2018	CDC_Tampa	B07HNLBZ4Y	4500
5/13/2018	CDC_Tampa	B07HNLBZ4Y	0
5/14/2018	CDC_Tampa	B07HNLBZ4Y	0
5/15/2018	CDC_Tampa	B07HNLBZ4Y	0
5/16/2018	CDC_Tampa	B07HNLBZ4Y	0
5/17/2018	CDC_Tampa	B07HNLBZ4Y	0
5/18/2018	CDC_Tampa	B07HNLBZ4Y	500
5/19/2018	CDC_Tampa	B07HNLBZ4Y	1000
5/20/2018	CDC_Tampa	B07HNLBZ4Y	1000
5/21/2018	CDC_Tampa	B07HNLBZ4Y	1000
5/22/2018	CDC_Tampa	B07HNLBZ4Y	1000
5/23/2018	CDC_Tampa	B07HNLBZ4Y	0
5/24/2018	CDC_Tampa	B07HNLBZ4Y	0
5/25/2018	CDC_Tampa	B07HNLBZ4Y	0
5/26/2018	CDC_Tampa	B07HNLBZ4Y	0
5/27/2018	CDC_Tampa	B07HNLBZ4Y	0
5/28/2018	CDC_Tampa	B07HNLBZ4Y	0
5/29/2018	CDC_Tampa	B07HNLBZ4Y	0
5/30/2018	CDC_Tampa	B07HNLBZ4Y	0
5/31/2018	CDC_Tampa	B07HNLBZ4Y	0
6/1/2018	CDC_Tampa	B07HNLBZ4Y	0
6/2/2018	CDC_Tampa	B07HNLBZ4Y	0
6/3/2018	CDC_Tampa	B07HNLBZ4Y	0
6/4/2018	CDC_Tampa	B07HNLBZ4Y	0
6/5/2018	CDC_Tampa	B07HNLBZ4Y	0
6/6/2018	CDC_Tampa	B07HNLBZ4Y	0
6/7/2018	CDC_Tampa	B07HNLBZ4Y	0
6/8/2018	CDC_Tampa	B07HNLBZ4Y	0
6/9/2018	CDC_Tampa	B07HNLBZ4Y	0
6/10/2018	CDC_Tampa	B07HNLBZ4Y	0
6/11/2018	CDC_Tampa	B07HNLBZ4Y	0
6/12/2018	CDC_Tampa	B07HNLBZ4Y	0
6/13/2018	CDC_Tampa	B07HNLBZ4Y	0
6/14/2018	CDC_Tampa	B07HNLBZ4Y	0
6/15/2018	CDC_Tampa	B07HNLBZ4Y	0
6/16/2018	CDC_Tampa	B07HNLBZ4Y	500
6/17/2018	CDC_Tampa	B07HNLBZ4Y	500
6/18/2018	CDC_Tampa	B07HNLBZ4Y	500
6/19/2018	CDC_Tampa	B07HNLBZ4Y	1000
6/20/2018	CDC_Tampa	B07HNLBZ4Y	1000
6/21/2018	CDC_Tampa	B07HNLBZ4Y	1000
6/22/2018	CDC_Tampa	B07HNLBZ4Y	500
6/23/2018	CDC_Tampa	B07HNLBZ4Y	500
6/24/2018	CDC_Tampa	B07HNLBZ4Y	500
6/25/2018	CDC_Tampa	B07HNLBZ4Y	500
6/26/2018	CDC_Tampa	B07HNLBZ4Y	500
6/27/2018	CDC_Tampa	B07HNLBZ4Y	1500
6/28/2018	CDC_Tampa	B07HNLBZ4Y	1500
6/29/2018	CDC_Tampa	B07HNLBZ4Y	2000
6/30/2018	CDC_Tampa	B07HNLBZ4Y	2000
7/1/2018	CDC_Tampa	B07HNLBZ4Y	2000
7/2/2018	CDC_Tampa	B07HNLBZ4Y	0
7/3/2018	CDC_Tampa	B07HNLBZ4Y	0
7/4/2018	CDC_Tampa	B07HNLBZ4Y	0
7/5/2018	CDC_Tampa	B07HNLBZ4Y	0
7/6/2018	CDC_Tampa	B07HNLBZ4Y	0
7/7/2018	CDC_Tampa	B07HNLBZ4Y	0
7/8/2018	CDC_Tampa	B07HNLBZ4Y	0
7/9/2018	CDC_Tampa	B07HNLBZ4Y	0
7/10/2018	CDC_Tampa	B07HNLBZ4Y	0
7/11/2018	CDC_Tampa	B07HNLBZ4Y	0
7/12/2018	CDC_Tampa	B07HNLBZ4Y	0
7/13/2018	CDC_Tampa	B07HNLBZ4Y	0
7/14/2018	CDC_Tampa	B07HNLBZ4Y	0
7/15/2018	CDC_Tampa	B07HNLBZ4Y	0
7/16/2018	CDC_Tampa	B07HNLBZ4Y	0
7/17/2018	CDC_Tampa	B07HNLBZ4Y	0
7/18/2018	CDC_Tampa	B07HNLBZ4Y	0
7/19/2018	CDC_Tampa	B07HNLBZ4Y	0
7/20/2018	CDC_Tampa	B07HNLBZ4Y	0
7/21/2018	CDC_Tampa	B07HNLBZ4Y	0
7/22/2018	CDC_Tampa	B07HNLBZ4Y	0
7/23/2018	CDC_Tampa	B07HNLBZ4Y	0
7/24/2018	CDC_Tampa	B07HNLBZ4Y	0
7/25/2018	CDC_Tampa	B07HNLBZ4Y	0
7/26/2018	CDC_Tampa	B07HNLBZ4Y	0
7/27/2018	CDC_Tampa	B07HNLBZ4Y	0
7/28/2018	CDC_Tampa	B07HNLBZ4Y	0
7/29/2018	CDC_Tampa	B07HNLBZ4Y	0
7/30/2018	CDC_Tampa	B07HNLBZ4Y	500
7/31/2018	CDC_Tampa	B07HNLBZ4Y	500
8/1/2018	CDC_Tampa	B07HNLBZ4Y	0
8/2/2018	CDC_Tampa	B07HNLBZ4Y	0
8/3/2018	CDC_Tampa	B07HNLBZ4Y	0
8/4/2018	CDC_Tampa	B07HNLBZ4Y	0
8/5/2018	CDC_Tampa	B07HNLBZ4Y	0
8/6/2018	CDC_Tampa	B07HNLBZ4Y	0
8/7/2018	CDC_Tampa	B07HNLBZ4Y	0
8/8/2018	CDC_Tampa	B07HNLBZ4Y	0
8/9/2018	CDC_Tampa	B07HNLBZ4Y	3000
8/10/2018	CDC_Tampa	B07HNLBZ4Y	3000
8/11/2018	CDC_Tampa	B07HNLBZ4Y	0
8/12/2018	CDC_Tampa	B07HNLBZ4Y	0
8/13/2018	CDC_Tampa	B07HNLBZ4Y	0
8/14/2018	CDC_Tampa	B07HNLBZ4Y	0
8/15/2018	CDC_Tampa	B07HNLBZ4Y	0
8/16/2018	CDC_Tampa	B07HNLBZ4Y	0
8/17/2018	CDC_Tampa	B07HNLBZ4Y	0
8/18/2018	CDC_Tampa	B07HNLBZ4Y	500
8/19/2018	CDC_Tampa	B07HNLBZ4Y	500
8/20/2018	CDC_Tampa	B07HNLBZ4Y	500
8/21/2018	CDC_Tampa	B07HNLBZ4Y	0
8/22/2018	CDC_Tampa	B07HNLBZ4Y	0
8/23/2018	CDC_Tampa	B07HNLBZ4Y	0
8/24/2018	CDC_Tampa	B07HNLBZ4Y	0
8/25/2018	CDC_Tampa	B07HNLBZ4Y	0
8/26/2018	CDC_Tampa	B07HNLBZ4Y	0
8/27/2018	CDC_Tampa	B07HNLBZ4Y	0
8/28/2018	CDC_Tampa	B07HNLBZ4Y	0
8/29/2018	CDC_Tampa	B07HNLBZ4Y	0
8/30/2018	CDC_Tampa	B07HNLBZ4Y	0
8/31/2018	CDC_Tampa	B07HNLBZ4Y	0
9/1/2018	CDC_Tampa	B07HNLBZ4Y	0
9/2/2018	CDC_Tampa	B07HNLBZ4Y	0
9/3/2018	CDC_Tampa	B07HNLBZ4Y	0
9/4/2018	CDC_Tampa	B07HNLBZ4Y	0
9/5/2018	CDC_Tampa	B07HNLBZ4Y	0
9/6/2018	CDC_Tampa	B07HNLBZ4Y	0
9/7/2018	CDC_Tampa	B07HNLBZ4Y	0
9/8/2018	CDC_Tampa	B07HNLBZ4Y	0
9/9/2018	CDC_Tampa	B07HNLBZ4Y	0
9/10/2018	CDC_Tampa	B07HNLBZ4Y	0
9/11/2018	CDC_Tampa	B07HNLBZ4Y	0
9/12/2018	CDC_Tampa	B07HNLBZ4Y	0
9/13/2018	CDC_Tampa	B07HNLBZ4Y	0
9/14/2018	CDC_Tampa	B07HNLBZ4Y	0
9/15/2018	CDC_Tampa	B07HNLBZ4Y	0
9/16/2018	CDC_Tampa	B07HNLBZ4Y	0
9/17/2018	CDC_Tampa	B07HNLBZ4Y	0
9/18/2018	CDC_Tampa	B07HNLBZ4Y	0
9/19/2018	CDC_Tampa	B07HNLBZ4Y	0
9/20/2018	CDC_Tampa	B07HNLBZ4Y	0
9/21/2018	CDC_Tampa	B07HNLBZ4Y	0
9/22/2018	CDC_Tampa	B07HNLBZ4Y	0
9/23/2018	CDC_Tampa	B07HNLBZ4Y	0
9/24/2018	CDC_Tampa	B07HNLBZ4Y	0
9/25/2018	CDC_Tampa	B07HNLBZ4Y	0
9/26/2018	CDC_Tampa	B07HNLBZ4Y	0
9/27/2018	CDC_Tampa	B07HNLBZ4Y	0
9/28/2018	CDC_Tampa	B07HNLBZ4Y	0
9/29/2018	CDC_Tampa	B07HNLBZ4Y	0
9/30/2018	CDC_Tampa	B07HNLBZ4Y	0
10/1/2018	CDC_Tampa	B07HNLBZ4Y	0
10/2/2018	CDC_Tampa	B07HNLBZ4Y	0
10/3/2018	CDC_Tampa	B07HNLBZ4Y	0
10/4/2018	CDC_Tampa	B07HNLBZ4Y	0
10/5/2018	CDC_Tampa	B07HNLBZ4Y	0
10/6/2018	CDC_Tampa	B07HNLBZ4Y	500
10/7/2018	CDC_Tampa	B07HNLBZ4Y	1500
10/8/2018	CDC_Tampa	B07HNLBZ4Y	1500
10/9/2018	CDC_Tampa	B07HNLBZ4Y	1500
10/10/2018	CDC_Tampa	B07HNLBZ4Y	0
10/11/2018	CDC_Tampa	B07HNLBZ4Y	0
10/12/2018	CDC_Tampa	B07HNLBZ4Y	0
10/13/2018	CDC_Tampa	B07HNLBZ4Y	0
10/14/2018	CDC_Tampa	B07HNLBZ4Y	0
10/15/2018	CDC_Tampa	B07HNLBZ4Y	0
10/16/2018	CDC_Tampa	B07HNLBZ4Y	500
10/17/2018	CDC_Tampa	B07HNLBZ4Y	500
10/18/2018	CDC_Tampa	B07HNLBZ4Y	500
10/19/2018	CDC_Tampa	B07HNLBZ4Y	1000
10/20/2018	CDC_Tampa	B07HNLBZ4Y	0
10/21/2018	CDC_Tampa	B07HNLBZ4Y	0
10/22/2018	CDC_Tampa	B07HNLBZ4Y	0
10/23/2018	CDC_Tampa	B07HNLBZ4Y	0
10/24/2018	CDC_Tampa	B07HNLBZ4Y	0
10/25/2018	CDC_Tampa	B07HNLBZ4Y	0
10/26/2018	CDC_Tampa	B07HNLBZ4Y	0
10/27/2018	CDC_Tampa	B07HNLBZ4Y	0
10/28/2018	CDC_Tampa	B07HNLBZ4Y	0
10/29/2018	CDC_Tampa	B07HNLBZ4Y	0
10/30/2018	CDC_Tampa	B07HNLBZ4Y	0
10/31/2018	CDC_Tampa	B07HNLBZ4Y	0
11/1/2018	CDC_Tampa	B07HNLBZ4Y	0
11/2/2018	CDC_Tampa	B07HNLBZ4Y	0
11/3/2018	CDC_Tampa	B07HNLBZ4Y	0
11/4/2018	CDC_Tampa	B07HNLBZ4Y	0
11/5/2018	CDC_Tampa	B07HNLBZ4Y	0
11/6/2018	CDC_Tampa	B07HNLBZ4Y	0
11/7/2018	CDC_Tampa	B07HNLBZ4Y	0
11/8/2018	CDC_Tampa	B07HNLBZ4Y	0
11/9/2018	CDC_Tampa	B07HNLBZ4Y	0
11/10/2018	CDC_Tampa	B07HNLBZ4Y	0
11/11/2018	CDC_Tampa	B07HNLBZ4Y	0
11/12/2018	CDC_Tampa	B07HNLBZ4Y	0
11/13/2018	CDC_Tampa	B07HNLBZ4Y	0
11/14/2018	CDC_Tampa	B07HNLBZ4Y	0
11/15/2018	CDC_Tampa	B07HNLBZ4Y	0
11/16/2018	CDC_Tampa	B07HNLBZ4Y	0
11/17/2018	CDC_Tampa	B07HNLBZ4Y	0
11/18/2018	CDC_Tampa	B07HNLBZ4Y	0
11/19/2018	CDC_Tampa	B07HNLBZ4Y	0
11/20/2018	CDC_Tampa	B07HNLBZ4Y	0
11/21/2018	CDC_Tampa	B07HNLBZ4Y	0
11/22/2018	CDC_Tampa	B07HNLBZ4Y	0
11/23/2018	CDC_Tampa	B07HNLBZ4Y	0
11/24/2018	CDC_Tampa	B07HNLBZ4Y	0
11/25/2018	CDC_Tampa	B07HNLBZ4Y	0
11/26/2018	CDC_Tampa	B07HNLBZ4Y	0
11/27/2018	CDC_Tampa	B07HNLBZ4Y	0
11/28/2018	CDC_Tampa	B07HNLBZ4Y	0
11/29/2018	CDC_Tampa	B07HNLBZ4Y	0
11/30/2018	CDC_Tampa	B07HNLBZ4Y	0
12/1/2018	CDC_Tampa	B07HNLBZ4Y	0
12/2/2018	CDC_Tampa	B07HNLBZ4Y	0
12/3/2018	CDC_Tampa	B07HNLBZ4Y	0
12/4/2018	CDC_Tampa	B07HNLBZ4Y	0
12/5/2018	CDC_Tampa	B07HNLBZ4Y	0
12/6/2018	CDC_Tampa	B07HNLBZ4Y	0
12/7/2018	CDC_Tampa	B07HNLBZ4Y	500
12/8/2018	CDC_Tampa	B07HNLBZ4Y	1000
12/9/2018	CDC_Tampa	B07HNLBZ4Y	0
12/10/2018	CDC_Tampa	B07HNLBZ4Y	0
12/11/2018	CDC_Tampa	B07HNLBZ4Y	0
12/12/2018	CDC_Tampa	B07HNLBZ4Y	0
12/13/2018	CDC_Tampa	B07HNLBZ4Y	0
12/14/2018	CDC_Tampa	B07HNLBZ4Y	500
12/15/2018	CDC_Tampa	B07HNLBZ4Y	500
12/16/2018	CDC_Tampa	B07HNLBZ4Y	500
12/17/2018	CDC_Tampa	B07HNLBZ4Y	500
12/18/2018	CDC_Tampa	B07HNLBZ4Y	500
12/19/2018	CDC_Tampa	B07HNLBZ4Y	0
12/20/2018	CDC_Tampa	B07HNLBZ4Y	0
12/21/2018	CDC_Tampa	B07HNLBZ4Y	0
12/22/2018	CDC_Tampa	B07HNLBZ4Y	0
12/23/2018	CDC_Tampa	B07HNLBZ4Y	0
12/24/2018	CDC_Tampa	B07HNLBZ4Y	0
12/25/2018	CDC_Tampa	B07HNLBZ4Y	0
12/26/2018	CDC_Tampa	B07HNLBZ4Y	0
12/27/2018	CDC_Tampa	B07HNLBZ4Y	0
12/28/2018	CDC_Tampa	B07HNLBZ4Y	0
12/29/2018	CDC_Tampa	B07HNLBZ4Y	0
12/30/2018	CDC_Tampa	B07HNLBZ4Y	0
12/31/2018	CDC_Tampa	B07HNLBZ4Y	0
