Date	Site	Product	Qty On Hand
1/1/2018	CDC_TAMPA	B08B6C16Q2	1436
1/2/2018	CDC_TAMPA	B08B6C16Q2	1370
1/3/2018	CDC_TAMPA	B08B6C16Q2	1318
1/4/2018	CDC_TAMPA	B08B6C16Q2	1215
1/5/2018	CDC_TAMPA	B08B6C16Q2	1196
1/6/2018	CDC_TAMPA	B08B6C16Q2	1070
1/7/2018	CDC_TAMPA	B08B6C16Q2	1010
1/8/2018	CDC_TAMPA	B08B6C16Q2	922
1/9/2018	CDC_TAMPA	B08B6C16Q2	849
1/10/2018	CDC_TAMPA	B08B6C16Q2	730
1/11/2018	CDC_TAMPA	B08B6C16Q2	704
1/12/2018	CDC_TAMPA	B08B6C16Q2	633
1/13/2018	CDC_TAMPA	B08B6C16Q2	563
1/14/2018	CDC_TAMPA	B08B6C16Q2	453
1/15/2018	CDC_TAMPA	B08B6C16Q2	706
1/16/2018	CDC_TAMPA	B08B6C16Q2	631
1/17/2018	CDC_TAMPA	B08B6C16Q2	574
1/18/2018	CDC_TAMPA	B08B6C16Q2	493
1/19/2018	CDC_TAMPA	B08B6C16Q2	745
1/20/2018	CDC_TAMPA	B08B6C16Q2	694
1/21/2018	CDC_TAMPA	B08B6C16Q2	584
1/22/2018	CDC_TAMPA	B08B6C16Q2	480
1/23/2018	CDC_TAMPA	B08B6C16Q2	387
1/24/2018	CDC_TAMPA	B08B6C16Q2	679
1/25/2018	CDC_TAMPA	B08B6C16Q2	617
1/26/2018	CDC_TAMPA	B08B6C16Q2	540
1/27/2018	CDC_TAMPA	B08B6C16Q2	485
1/28/2018	CDC_TAMPA	B08B6C16Q2	412
1/29/2018	CDC_TAMPA	B08B6C16Q2	677
1/30/2018	CDC_TAMPA	B08B6C16Q2	615
1/31/2018	CDC_TAMPA	B08B6C16Q2	545
2/1/2018	CDC_TAMPA	B08B6C16Q2	487
2/2/2018	CDC_TAMPA	B08B6C16Q2	783
2/3/2018	CDC_TAMPA	B08B6C16Q2	703
2/4/2018	CDC_TAMPA	B08B6C16Q2	652
2/5/2018	CDC_TAMPA	B08B6C16Q2	566
2/6/2018	CDC_TAMPA	B08B6C16Q2	442
2/7/2018	CDC_TAMPA	B08B6C16Q2	713
2/8/2018	CDC_TAMPA	B08B6C16Q2	638
2/9/2018	CDC_TAMPA	B08B6C16Q2	581
2/10/2018	CDC_TAMPA	B08B6C16Q2	521
2/11/2018	CDC_TAMPA	B08B6C16Q2	396
2/12/2018	CDC_TAMPA	B08B6C16Q2	661
2/13/2018	CDC_TAMPA	B08B6C16Q2	598
2/14/2018	CDC_TAMPA	B08B6C16Q2	513
2/15/2018	CDC_TAMPA	B08B6C16Q2	378
2/16/2018	CDC_TAMPA	B08B6C16Q2	636
2/17/2018	CDC_TAMPA	B08B6C16Q2	540
2/18/2018	CDC_TAMPA	B08B6C16Q2	452
2/19/2018	CDC_TAMPA	B08B6C16Q2	381
2/20/2018	CDC_TAMPA	B08B6C16Q2	331
2/21/2018	CDC_TAMPA	B08B6C16Q2	677
2/22/2018	CDC_TAMPA	B08B6C16Q2	603
2/23/2018	CDC_TAMPA	B08B6C16Q2	508
2/24/2018	CDC_TAMPA	B08B6C16Q2	406
2/25/2018	CDC_TAMPA	B08B6C16Q2	665
2/26/2018	CDC_TAMPA	B08B6C16Q2	577
2/27/2018	CDC_TAMPA	B08B6C16Q2	474
2/28/2018	CDC_TAMPA	B08B6C16Q2	414
3/1/2018	CDC_TAMPA	B08B6C16Q2	658
3/2/2018	CDC_TAMPA	B08B6C16Q2	586
3/3/2018	CDC_TAMPA	B08B6C16Q2	493
3/4/2018	CDC_TAMPA	B08B6C16Q2	415
3/5/2018	CDC_TAMPA	B08B6C16Q2	305
3/6/2018	CDC_TAMPA	B08B6C16Q2	577
3/7/2018	CDC_TAMPA	B08B6C16Q2	439
3/8/2018	CDC_TAMPA	B08B6C16Q2	396
3/9/2018	CDC_TAMPA	B08B6C16Q2	354
3/10/2018	CDC_TAMPA	B08B6C16Q2	643
3/11/2018	CDC_TAMPA	B08B6C16Q2	559
3/12/2018	CDC_TAMPA	B08B6C16Q2	456
3/13/2018	CDC_TAMPA	B08B6C16Q2	368
3/14/2018	CDC_TAMPA	B08B6C16Q2	678
3/15/2018	CDC_TAMPA	B08B6C16Q2	606
3/16/2018	CDC_TAMPA	B08B6C16Q2	504
3/17/2018	CDC_TAMPA	B08B6C16Q2	786
3/18/2018	CDC_TAMPA	B08B6C16Q2	686
3/19/2018	CDC_TAMPA	B08B6C16Q2	612
3/20/2018	CDC_TAMPA	B08B6C16Q2	537
3/21/2018	CDC_TAMPA	B08B6C16Q2	452
3/22/2018	CDC_TAMPA	B08B6C16Q2	700
3/23/2018	CDC_TAMPA	B08B6C16Q2	615
3/24/2018	CDC_TAMPA	B08B6C16Q2	532
3/25/2018	CDC_TAMPA	B08B6C16Q2	470
3/26/2018	CDC_TAMPA	B08B6C16Q2	380
3/27/2018	CDC_TAMPA	B08B6C16Q2	672
3/28/2018	CDC_TAMPA	B08B6C16Q2	562
3/29/2018	CDC_TAMPA	B08B6C16Q2	450
3/30/2018	CDC_TAMPA	B08B6C16Q2	365
3/31/2018	CDC_TAMPA	B08B6C16Q2	629
4/1/2018	CDC_TAMPA	B08B6C16Q2	538
4/2/2018	CDC_TAMPA	B08B6C16Q2	456
4/3/2018	CDC_TAMPA	B08B6C16Q2	385
4/4/2018	CDC_TAMPA	B08B6C16Q2	625
4/5/2018	CDC_TAMPA	B08B6C16Q2	561
4/6/2018	CDC_TAMPA	B08B6C16Q2	463
4/7/2018	CDC_TAMPA	B08B6C16Q2	395
4/8/2018	CDC_TAMPA	B08B6C16Q2	678
4/9/2018	CDC_TAMPA	B08B6C16Q2	587
4/10/2018	CDC_TAMPA	B08B6C16Q2	491
4/11/2018	CDC_TAMPA	B08B6C16Q2	440
4/12/2018	CDC_TAMPA	B08B6C16Q2	684
4/13/2018	CDC_TAMPA	B08B6C16Q2	584
4/14/2018	CDC_TAMPA	B08B6C16Q2	529
4/15/2018	CDC_TAMPA	B08B6C16Q2	456
4/16/2018	CDC_TAMPA	B08B6C16Q2	689
4/17/2018	CDC_TAMPA	B08B6C16Q2	645
4/18/2018	CDC_TAMPA	B08B6C16Q2	557
4/19/2018	CDC_TAMPA	B08B6C16Q2	455
4/20/2018	CDC_TAMPA	B08B6C16Q2	765
4/21/2018	CDC_TAMPA	B08B6C16Q2	676
4/22/2018	CDC_TAMPA	B08B6C16Q2	631
4/23/2018	CDC_TAMPA	B08B6C16Q2	552
4/24/2018	CDC_TAMPA	B08B6C16Q2	515
4/25/2018	CDC_TAMPA	B08B6C16Q2	768
4/26/2018	CDC_TAMPA	B08B6C16Q2	677
4/27/2018	CDC_TAMPA	B08B6C16Q2	598
4/28/2018	CDC_TAMPA	B08B6C16Q2	538
4/29/2018	CDC_TAMPA	B08B6C16Q2	739
4/30/2018	CDC_TAMPA	B08B6C16Q2	607
5/1/2018	CDC_TAMPA	B08B6C16Q2	494
5/2/2018	CDC_TAMPA	B08B6C16Q2	371
5/3/2018	CDC_TAMPA	B08B6C16Q2	282
5/4/2018	CDC_TAMPA	B08B6C16Q2	541
5/5/2018	CDC_TAMPA	B08B6C16Q2	438
5/6/2018	CDC_TAMPA	B08B6C16Q2	363
5/7/2018	CDC_TAMPA	B08B6C16Q2	299
5/8/2018	CDC_TAMPA	B08B6C16Q2	591
5/9/2018	CDC_TAMPA	B08B6C16Q2	496
5/10/2018	CDC_TAMPA	B08B6C16Q2	395
5/11/2018	CDC_TAMPA	B08B6C16Q2	690
5/12/2018	CDC_TAMPA	B08B6C16Q2	596
5/13/2018	CDC_TAMPA	B08B6C16Q2	546
5/14/2018	CDC_TAMPA	B08B6C16Q2	445
5/15/2018	CDC_TAMPA	B08B6C16Q2	727
5/16/2018	CDC_TAMPA	B08B6C16Q2	652
5/17/2018	CDC_TAMPA	B08B6C16Q2	575
5/18/2018	CDC_TAMPA	B08B6C16Q2	472
5/19/2018	CDC_TAMPA	B08B6C16Q2	372
5/20/2018	CDC_TAMPA	B08B6C16Q2	661
5/21/2018	CDC_TAMPA	B08B6C16Q2	577
5/22/2018	CDC_TAMPA	B08B6C16Q2	495
5/23/2018	CDC_TAMPA	B08B6C16Q2	399
5/24/2018	CDC_TAMPA	B08B6C16Q2	622
5/25/2018	CDC_TAMPA	B08B6C16Q2	524
5/26/2018	CDC_TAMPA	B08B6C16Q2	452
5/27/2018	CDC_TAMPA	B08B6C16Q2	436
5/28/2018	CDC_TAMPA	B08B6C16Q2	665
5/29/2018	CDC_TAMPA	B08B6C16Q2	527
5/30/2018	CDC_TAMPA	B08B6C16Q2	435
5/31/2018	CDC_TAMPA	B08B6C16Q2	358
6/1/2018	CDC_TAMPA	B08B6C16Q2	641
6/2/2018	CDC_TAMPA	B08B6C16Q2	561
6/3/2018	CDC_TAMPA	B08B6C16Q2	511
6/4/2018	CDC_TAMPA	B08B6C16Q2	445
6/5/2018	CDC_TAMPA	B08B6C16Q2	743
6/6/2018	CDC_TAMPA	B08B6C16Q2	656
6/7/2018	CDC_TAMPA	B08B6C16Q2	584
6/8/2018	CDC_TAMPA	B08B6C16Q2	491
6/9/2018	CDC_TAMPA	B08B6C16Q2	769
6/10/2018	CDC_TAMPA	B08B6C16Q2	663
6/11/2018	CDC_TAMPA	B08B6C16Q2	577
6/12/2018	CDC_TAMPA	B08B6C16Q2	439
6/13/2018	CDC_TAMPA	B08B6C16Q2	409
6/14/2018	CDC_TAMPA	B08B6C16Q2	696
6/15/2018	CDC_TAMPA	B08B6C16Q2	592
6/16/2018	CDC_TAMPA	B08B6C16Q2	445
6/17/2018	CDC_TAMPA	B08B6C16Q2	372
6/18/2018	CDC_TAMPA	B08B6C16Q2	597
6/19/2018	CDC_TAMPA	B08B6C16Q2	523
6/20/2018	CDC_TAMPA	B08B6C16Q2	408
6/21/2018	CDC_TAMPA	B08B6C16Q2	336
6/22/2018	CDC_TAMPA	B08B6C16Q2	643
6/23/2018	CDC_TAMPA	B08B6C16Q2	571
6/24/2018	CDC_TAMPA	B08B6C16Q2	525
6/25/2018	CDC_TAMPA	B08B6C16Q2	437
6/26/2018	CDC_TAMPA	B08B6C16Q2	688
6/27/2018	CDC_TAMPA	B08B6C16Q2	574
6/28/2018	CDC_TAMPA	B08B6C16Q2	497
6/29/2018	CDC_TAMPA	B08B6C16Q2	433
6/30/2018	CDC_TAMPA	B08B6C16Q2	681
7/1/2018	CDC_TAMPA	B08B6C16Q2	681
