Model Version: 1.0.0
Scenario: Scenario 3 - Multi Ech Single Prod
Run Length: 181 days starting on 1/1/2018 including 0 warm up days
Day 1 (1/1/2018): Begin simulation run.
Day 1 (1/1/2018): Create new Inventory Policy for Site = CDC_TAMPA, Product = B08B6C16Q2
Day 1 (1/1/2018): Update policy for Site = CDC_TAMPA, Product = B08B6C16Q2, (s,S), RP = 1200, RL = 1500, RT = 0
Day 1 (1/1/2018): Review inventory for Site = CDC_TAMPA, Product = B08B6C16Q2, OH = 1500, POS = 1500, RP = 1200
Day 1 (1/1/2018): Receive order TY2-2-1 - qty 64 at Site = CDC_TAMPA, Product = B08B6C16Q2
Day 1 (1/1/2018): Ship order TY2-2-1 - qty 64 on time at Site = CDC_TAMPA, Product = B08B6C16Q2
Day 1 (1/1/2018): Collect statistics for Site = CDC_TAMPA, Product = B08B6C16Q2, OH = 1436, COQ = 0, BOQ = 0
Day 2 (1/2/2018): Receive order TY2-2-2 - qty 66 at Site = CDC_TAMPA, Product = B08B6C16Q2
Day 2 (1/2/2018): Ship order TY2-2-2 - qty 66 on time at Site = CDC_TAMPA, Product = B08B6C16Q2
Day 2 (1/2/2018): Collect statistics for Site = CDC_TAMPA, Product = B08B6C16Q2, OH = 1370, COQ = 0, BOQ = 0
Day 3 (1/3/2018): Receive order TY2-2-3 - qty 52 at Site = CDC_TAMPA, Product = B08B6C16Q2
Day 3 (1/3/2018): Ship order TY2-2-3 - qty 52 on time at Site = CDC_TAMPA, Product = B08B6C16Q2
Day 3 (1/3/2018): Collect statistics for Site = CDC_TAMPA, Product = B08B6C16Q2, OH = 1318, COQ = 0, BOQ = 0
Day 4 (1/4/2018): Receive order TY2-2-4 - qty 103 at Site = CDC_TAMPA, Product = B08B6C16Q2
Day 4 (1/4/2018): Ship order TY2-2-4 - qty 103 on time at Site = CDC_TAMPA, Product = B08B6C16Q2
Day 4 (1/4/2018): Collect statistics for Site = CDC_TAMPA, Product = B08B6C16Q2, OH = 1215, COQ = 0, BOQ = 0
Day 5 (1/5/2018): Receive order TY2-2-5 - qty 19 at Site = CDC_TAMPA, Product = B08B6C16Q2
Day 5 (1/5/2018): Create replen order SRC-CDC_TAMPA_B08B6C16Q2_1 Qty = 304 for Site = CDC_TAMPA, Product = B08B6C16Q2, OH = 1215, POS = 1500, RP = 1200
Day 5 (1/5/2018): Ship order TY2-2-5 - qty 19 on time at Site = CDC_TAMPA, Product = B08B6C16Q2
Day 5 (1/5/2018): Collect statistics for Site = CDC_TAMPA, Product = B08B6C16Q2, OH = 1196, COQ = 304, BOQ = 0
Day 6 (1/6/2018): Receive order TY2-2-6 - qty 126 at Site = CDC_TAMPA, Product = B08B6C16Q2
Day 6 (1/6/2018): Ship order TY2-2-6 - qty 126 on time at Site = CDC_TAMPA, Product = B08B6C16Q2
Day 6 (1/6/2018): Collect statistics for Site = CDC_TAMPA, Product = B08B6C16Q2, OH = 1070, COQ = 304, BOQ = 0
Day 7 (1/7/2018): Receive order TY2-2-7 - qty 60 at Site = CDC_TAMPA, Product = B08B6C16Q2
Day 7 (1/7/2018): Ship order TY2-2-7 - qty 60 on time at Site = CDC_TAMPA, Product = B08B6C16Q2
Day 7 (1/7/2018): Collect statistics for Site = CDC_TAMPA, Product = B08B6C16Q2, OH = 1010, COQ = 304, BOQ = 0
Day 8 (1/8/2018): Receive order TY2-2-8 - qty 88 at Site = CDC_TAMPA, Product = B08B6C16Q2
Day 8 (1/8/2018): Ship order TY2-2-8 - qty 88 on time at Site = CDC_TAMPA, Product = B08B6C16Q2
Day 8 (1/8/2018): Collect statistics for Site = CDC_TAMPA, Product = B08B6C16Q2, OH = 922, COQ = 304, BOQ = 0
Day 9 (1/9/2018): Receive order TY2-2-9 - qty 73 at Site = CDC_TAMPA, Product = B08B6C16Q2
Day 9 (1/9/2018): Create replen order SRC-CDC_TAMPA_B08B6C16Q2_2 Qty = 347 for Site = CDC_TAMPA, Product = B08B6C16Q2, OH = 922, POS = 1500, RP = 1200
Day 9 (1/9/2018): Ship order TY2-2-9 - qty 73 on time at Site = CDC_TAMPA, Product = B08B6C16Q2
Day 9 (1/9/2018): Collect statistics for Site = CDC_TAMPA, Product = B08B6C16Q2, OH = 849, COQ = 651, BOQ = 0
Day 10 (1/10/2018): Receive order TY2-2-10 - qty 119 at Site = CDC_TAMPA, Product = B08B6C16Q2
Day 10 (1/10/2018): Ship order TY2-2-10 - qty 119 on time at Site = CDC_TAMPA, Product = B08B6C16Q2
Day 10 (1/10/2018): Collect statistics for Site = CDC_TAMPA, Product = B08B6C16Q2, OH = 730, COQ = 651, BOQ = 0
Day 11 (1/11/2018): Receive order TY2-2-11 - qty 26 at Site = CDC_TAMPA, Product = B08B6C16Q2
Day 11 (1/11/2018): Ship order TY2-2-11 - qty 26 on time at Site = CDC_TAMPA, Product = B08B6C16Q2
Day 11 (1/11/2018): Collect statistics for Site = CDC_TAMPA, Product = B08B6C16Q2, OH = 704, COQ = 651, BOQ = 0
Day 12 (1/12/2018): Receive order TY2-2-12 - qty 71 at Site = CDC_TAMPA, Product = B08B6C16Q2
Day 12 (1/12/2018): Ship order TY2-2-12 - qty 71 on time at Site = CDC_TAMPA, Product = B08B6C16Q2
Day 12 (1/12/2018): Collect statistics for Site = CDC_TAMPA, Product = B08B6C16Q2, OH = 633, COQ = 651, BOQ = 0
Day 13 (1/13/2018): Receive order TY2-2-13 - qty 70 at Site = CDC_TAMPA, Product = B08B6C16Q2
Day 13 (1/13/2018): Ship order TY2-2-13 - qty 70 on time at Site = CDC_TAMPA, Product = B08B6C16Q2
Day 13 (1/13/2018): Collect statistics for Site = CDC_TAMPA, Product = B08B6C16Q2, OH = 563, COQ = 651, BOQ = 0
Day 14 (1/14/2018): Receive order TY2-2-14 - qty 110 at Site = CDC_TAMPA, Product = B08B6C16Q2
Day 14 (1/14/2018): Create replen order SRC-CDC_TAMPA_B08B6C16Q2_3 Qty = 396 for Site = CDC_TAMPA, Product = B08B6C16Q2, OH = 563, POS = 1500, RP = 1200
Day 14 (1/14/2018): Ship order TY2-2-14 - qty 110 on time at Site = CDC_TAMPA, Product = B08B6C16Q2
Day 14 (1/14/2018): Collect statistics for Site = CDC_TAMPA, Product = B08B6C16Q2, OH = 453, COQ = 1047, BOQ = 0
Day 15 (1/15/2018): Receive replen order SRC-CDC_TAMPA_B08B6C16Q2_1 Qty 304 at Site = CDC_TAMPA, Product = B08B6C16Q2, OH = 757,  POS = 1500
Day 15 (1/15/2018): Receive order TY2-2-15 - qty 51 at Site = CDC_TAMPA, Product = B08B6C16Q2
Day 15 (1/15/2018): Ship order TY2-2-15 - qty 51 on time at Site = CDC_TAMPA, Product = B08B6C16Q2
Day 15 (1/15/2018): Collect statistics for Site = CDC_TAMPA, Product = B08B6C16Q2, OH = 706, COQ = 743, BOQ = 0
Day 16 (1/16/2018): Receive order TY2-2-16 - qty 75 at Site = CDC_TAMPA, Product = B08B6C16Q2
Day 16 (1/16/2018): Ship order TY2-2-16 - qty 75 on time at Site = CDC_TAMPA, Product = B08B6C16Q2
Day 16 (1/16/2018): Collect statistics for Site = CDC_TAMPA, Product = B08B6C16Q2, OH = 631, COQ = 743, BOQ = 0
Day 17 (1/17/2018): Receive order TY2-2-17 - qty 57 at Site = CDC_TAMPA, Product = B08B6C16Q2
Day 17 (1/17/2018): Ship order TY2-2-17 - qty 57 on time at Site = CDC_TAMPA, Product = B08B6C16Q2
Day 17 (1/17/2018): Collect statistics for Site = CDC_TAMPA, Product = B08B6C16Q2, OH = 574, COQ = 743, BOQ = 0
Day 18 (1/18/2018): Receive order TY2-2-18 - qty 81 at Site = CDC_TAMPA, Product = B08B6C16Q2
Day 18 (1/18/2018): Ship order TY2-2-18 - qty 81 on time at Site = CDC_TAMPA, Product = B08B6C16Q2
Day 18 (1/18/2018): Collect statistics for Site = CDC_TAMPA, Product = B08B6C16Q2, OH = 493, COQ = 743, BOQ = 0
Day 19 (1/19/2018): Receive replen order SRC-CDC_TAMPA_B08B6C16Q2_2 Qty 347 at Site = CDC_TAMPA, Product = B08B6C16Q2, OH = 840,  POS = 1236
Day 19 (1/19/2018): Receive order TY2-2-19 - qty 95 at Site = CDC_TAMPA, Product = B08B6C16Q2
Day 19 (1/19/2018): Create replen order SRC-CDC_TAMPA_B08B6C16Q2_4 Qty = 359 for Site = CDC_TAMPA, Product = B08B6C16Q2, OH = 840, POS = 1500, RP = 1200
Day 19 (1/19/2018): Ship order TY2-2-19 - qty 95 on time at Site = CDC_TAMPA, Product = B08B6C16Q2
Day 19 (1/19/2018): Collect statistics for Site = CDC_TAMPA, Product = B08B6C16Q2, OH = 745, COQ = 755, BOQ = 0
Day 20 (1/20/2018): Receive order TY2-2-20 - qty 51 at Site = CDC_TAMPA, Product = B08B6C16Q2
Day 20 (1/20/2018): Ship order TY2-2-20 - qty 51 on time at Site = CDC_TAMPA, Product = B08B6C16Q2
Day 20 (1/20/2018): Collect statistics for Site = CDC_TAMPA, Product = B08B6C16Q2, OH = 694, COQ = 755, BOQ = 0
Day 21 (1/21/2018): Receive order TY2-2-21 - qty 110 at Site = CDC_TAMPA, Product = B08B6C16Q2
Day 21 (1/21/2018): Ship order TY2-2-21 - qty 110 on time at Site = CDC_TAMPA, Product = B08B6C16Q2
Day 21 (1/21/2018): Collect statistics for Site = CDC_TAMPA, Product = B08B6C16Q2, OH = 584, COQ = 755, BOQ = 0
Day 22 (1/22/2018): Receive order TY2-2-22 - qty 104 at Site = CDC_TAMPA, Product = B08B6C16Q2
Day 22 (1/22/2018): Ship order TY2-2-22 - qty 104 on time at Site = CDC_TAMPA, Product = B08B6C16Q2
Day 22 (1/22/2018): Collect statistics for Site = CDC_TAMPA, Product = B08B6C16Q2, OH = 480, COQ = 755, BOQ = 0
Day 23 (1/23/2018): Receive order TY2-2-23 - qty 93 at Site = CDC_TAMPA, Product = B08B6C16Q2
Day 23 (1/23/2018): Create replen order SRC-CDC_TAMPA_B08B6C16Q2_5 Qty = 358 for Site = CDC_TAMPA, Product = B08B6C16Q2, OH = 480, POS = 1500, RP = 1200
Day 23 (1/23/2018): Ship order TY2-2-23 - qty 93 on time at Site = CDC_TAMPA, Product = B08B6C16Q2
Day 23 (1/23/2018): Collect statistics for Site = CDC_TAMPA, Product = B08B6C16Q2, OH = 387, COQ = 1113, BOQ = 0
Day 24 (1/24/2018): Receive replen order SRC-CDC_TAMPA_B08B6C16Q2_3 Qty 396 at Site = CDC_TAMPA, Product = B08B6C16Q2, OH = 783,  POS = 1500
Day 24 (1/24/2018): Receive order TY2-2-24 - qty 104 at Site = CDC_TAMPA, Product = B08B6C16Q2
Day 24 (1/24/2018): Ship order TY2-2-24 - qty 104 on time at Site = CDC_TAMPA, Product = B08B6C16Q2
Day 24 (1/24/2018): Collect statistics for Site = CDC_TAMPA, Product = B08B6C16Q2, OH = 679, COQ = 717, BOQ = 0
Day 25 (1/25/2018): Receive order TY2-2-25 - qty 62 at Site = CDC_TAMPA, Product = B08B6C16Q2
Day 25 (1/25/2018): Ship order TY2-2-25 - qty 62 on time at Site = CDC_TAMPA, Product = B08B6C16Q2
Day 25 (1/25/2018): Collect statistics for Site = CDC_TAMPA, Product = B08B6C16Q2, OH = 617, COQ = 717, BOQ = 0
Day 26 (1/26/2018): Receive order TY2-2-26 - qty 77 at Site = CDC_TAMPA, Product = B08B6C16Q2
Day 26 (1/26/2018): Ship order TY2-2-26 - qty 77 on time at Site = CDC_TAMPA, Product = B08B6C16Q2
Day 26 (1/26/2018): Collect statistics for Site = CDC_TAMPA, Product = B08B6C16Q2, OH = 540, COQ = 717, BOQ = 0
Day 27 (1/27/2018): Receive order TY2-2-27 - qty 55 at Site = CDC_TAMPA, Product = B08B6C16Q2
Day 27 (1/27/2018): Ship order TY2-2-27 - qty 55 on time at Site = CDC_TAMPA, Product = B08B6C16Q2
Day 27 (1/27/2018): Collect statistics for Site = CDC_TAMPA, Product = B08B6C16Q2, OH = 485, COQ = 717, BOQ = 0
Day 28 (1/28/2018): Receive order TY2-2-28 - qty 73 at Site = CDC_TAMPA, Product = B08B6C16Q2
Day 28 (1/28/2018): Create replen order SRC-CDC_TAMPA_B08B6C16Q2_6 Qty = 371 for Site = CDC_TAMPA, Product = B08B6C16Q2, OH = 485, POS = 1500, RP = 1200
Day 28 (1/28/2018): Ship order TY2-2-28 - qty 73 on time at Site = CDC_TAMPA, Product = B08B6C16Q2
Day 28 (1/28/2018): Collect statistics for Site = CDC_TAMPA, Product = B08B6C16Q2, OH = 412, COQ = 1088, BOQ = 0
Day 29 (1/29/2018): Receive replen order SRC-CDC_TAMPA_B08B6C16Q2_4 Qty 359 at Site = CDC_TAMPA, Product = B08B6C16Q2, OH = 771,  POS = 1500
Day 29 (1/29/2018): Receive order TY2-2-29 - qty 94 at Site = CDC_TAMPA, Product = B08B6C16Q2
Day 29 (1/29/2018): Ship order TY2-2-29 - qty 94 on time at Site = CDC_TAMPA, Product = B08B6C16Q2
Day 29 (1/29/2018): Collect statistics for Site = CDC_TAMPA, Product = B08B6C16Q2, OH = 677, COQ = 729, BOQ = 0
Day 30 (1/30/2018): Receive order TY2-2-30 - qty 62 at Site = CDC_TAMPA, Product = B08B6C16Q2
Day 30 (1/30/2018): Ship order TY2-2-30 - qty 62 on time at Site = CDC_TAMPA, Product = B08B6C16Q2
Day 30 (1/30/2018): Collect statistics for Site = CDC_TAMPA, Product = B08B6C16Q2, OH = 615, COQ = 729, BOQ = 0
Day 31 (1/31/2018): Receive order TY2-2-31 - qty 70 at Site = CDC_TAMPA, Product = B08B6C16Q2
Day 31 (1/31/2018): Ship order TY2-2-31 - qty 70 on time at Site = CDC_TAMPA, Product = B08B6C16Q2
Day 31 (1/31/2018): Collect statistics for Site = CDC_TAMPA, Product = B08B6C16Q2, OH = 545, COQ = 729, BOQ = 0
Day 32 (2/1/2018): Update policy for Site = CDC_TAMPA, Product = B08B6C16Q2, (s,S), RP = 1200, RL = 1500, RT = 0
Day 32 (2/1/2018): Review inventory for Site = CDC_TAMPA, Product = B08B6C16Q2, OH = 545, POS = 1274, RP = 1200
Day 32 (2/1/2018): Receive order TY2-3-1 - qty 58 at Site = CDC_TAMPA, Product = B08B6C16Q2
Day 32 (2/1/2018): Ship order TY2-3-1 - qty 58 on time at Site = CDC_TAMPA, Product = B08B6C16Q2
Day 32 (2/1/2018): Collect statistics for Site = CDC_TAMPA, Product = B08B6C16Q2, OH = 487, COQ = 729, BOQ = 0
Day 33 (2/2/2018): Receive replen order SRC-CDC_TAMPA_B08B6C16Q2_5 Qty 358 at Site = CDC_TAMPA, Product = B08B6C16Q2, OH = 845,  POS = 1216
Day 33 (2/2/2018): Receive order TY2-3-2 - qty 62 at Site = CDC_TAMPA, Product = B08B6C16Q2
Day 33 (2/2/2018): Create replen order SRC-CDC_TAMPA_B08B6C16Q2_7 Qty = 346 for Site = CDC_TAMPA, Product = B08B6C16Q2, OH = 845, POS = 1500, RP = 1200
Day 33 (2/2/2018): Ship order TY2-3-2 - qty 62 on time at Site = CDC_TAMPA, Product = B08B6C16Q2
Day 33 (2/2/2018): Collect statistics for Site = CDC_TAMPA, Product = B08B6C16Q2, OH = 783, COQ = 717, BOQ = 0
Day 34 (2/3/2018): Receive order TY2-3-3 - qty 80 at Site = CDC_TAMPA, Product = B08B6C16Q2
Day 34 (2/3/2018): Ship order TY2-3-3 - qty 80 on time at Site = CDC_TAMPA, Product = B08B6C16Q2
Day 34 (2/3/2018): Collect statistics for Site = CDC_TAMPA, Product = B08B6C16Q2, OH = 703, COQ = 717, BOQ = 0
Day 35 (2/4/2018): Receive order TY2-3-4 - qty 51 at Site = CDC_TAMPA, Product = B08B6C16Q2
Day 35 (2/4/2018): Ship order TY2-3-4 - qty 51 on time at Site = CDC_TAMPA, Product = B08B6C16Q2
Day 35 (2/4/2018): Collect statistics for Site = CDC_TAMPA, Product = B08B6C16Q2, OH = 652, COQ = 717, BOQ = 0
Day 36 (2/5/2018): Receive order TY2-3-5 - qty 86 at Site = CDC_TAMPA, Product = B08B6C16Q2
Day 36 (2/5/2018): Ship order TY2-3-5 - qty 86 on time at Site = CDC_TAMPA, Product = B08B6C16Q2
Day 36 (2/5/2018): Collect statistics for Site = CDC_TAMPA, Product = B08B6C16Q2, OH = 566, COQ = 717, BOQ = 0
Day 37 (2/6/2018): Receive order TY2-3-6 - qty 124 at Site = CDC_TAMPA, Product = B08B6C16Q2
Day 37 (2/6/2018): Create replen order SRC-CDC_TAMPA_B08B6C16Q2_8 Qty = 341 for Site = CDC_TAMPA, Product = B08B6C16Q2, OH = 566, POS = 1500, RP = 1200
Day 37 (2/6/2018): Ship order TY2-3-6 - qty 124 on time at Site = CDC_TAMPA, Product = B08B6C16Q2
Day 37 (2/6/2018): Collect statistics for Site = CDC_TAMPA, Product = B08B6C16Q2, OH = 442, COQ = 1058, BOQ = 0
Day 38 (2/7/2018): Receive replen order SRC-CDC_TAMPA_B08B6C16Q2_6 Qty 371 at Site = CDC_TAMPA, Product = B08B6C16Q2, OH = 813,  POS = 1500
Day 38 (2/7/2018): Receive order TY2-3-7 - qty 100 at Site = CDC_TAMPA, Product = B08B6C16Q2
Day 38 (2/7/2018): Ship order TY2-3-7 - qty 100 on time at Site = CDC_TAMPA, Product = B08B6C16Q2
Day 38 (2/7/2018): Collect statistics for Site = CDC_TAMPA, Product = B08B6C16Q2, OH = 713, COQ = 687, BOQ = 0
Day 39 (2/8/2018): Receive order TY2-3-8 - qty 75 at Site = CDC_TAMPA, Product = B08B6C16Q2
Day 39 (2/8/2018): Ship order TY2-3-8 - qty 75 on time at Site = CDC_TAMPA, Product = B08B6C16Q2
Day 39 (2/8/2018): Collect statistics for Site = CDC_TAMPA, Product = B08B6C16Q2, OH = 638, COQ = 687, BOQ = 0
Day 40 (2/9/2018): Receive order TY2-3-9 - qty 57 at Site = CDC_TAMPA, Product = B08B6C16Q2
Day 40 (2/9/2018): Ship order TY2-3-9 - qty 57 on time at Site = CDC_TAMPA, Product = B08B6C16Q2
Day 40 (2/9/2018): Collect statistics for Site = CDC_TAMPA, Product = B08B6C16Q2, OH = 581, COQ = 687, BOQ = 0
Day 41 (2/10/2018): Receive order TY2-3-10 - qty 60 at Site = CDC_TAMPA, Product = B08B6C16Q2
Day 41 (2/10/2018): Ship order TY2-3-10 - qty 60 on time at Site = CDC_TAMPA, Product = B08B6C16Q2
Day 41 (2/10/2018): Collect statistics for Site = CDC_TAMPA, Product = B08B6C16Q2, OH = 521, COQ = 687, BOQ = 0
Day 42 (2/11/2018): Receive order TY2-3-11 - qty 125 at Site = CDC_TAMPA, Product = B08B6C16Q2
Day 42 (2/11/2018): Create replen order SRC-CDC_TAMPA_B08B6C16Q2_9 Qty = 417 for Site = CDC_TAMPA, Product = B08B6C16Q2, OH = 521, POS = 1500, RP = 1200
Day 42 (2/11/2018): Ship order TY2-3-11 - qty 125 on time at Site = CDC_TAMPA, Product = B08B6C16Q2
Day 42 (2/11/2018): Collect statistics for Site = CDC_TAMPA, Product = B08B6C16Q2, OH = 396, COQ = 1104, BOQ = 0
Day 43 (2/12/2018): Receive replen order SRC-CDC_TAMPA_B08B6C16Q2_7 Qty 346 at Site = CDC_TAMPA, Product = B08B6C16Q2, OH = 742,  POS = 1500
Day 43 (2/12/2018): Receive order TY2-3-12 - qty 81 at Site = CDC_TAMPA, Product = B08B6C16Q2
Day 43 (2/12/2018): Ship order TY2-3-12 - qty 81 on time at Site = CDC_TAMPA, Product = B08B6C16Q2
Day 43 (2/12/2018): Collect statistics for Site = CDC_TAMPA, Product = B08B6C16Q2, OH = 661, COQ = 758, BOQ = 0
Day 44 (2/13/2018): Receive order TY2-3-13 - qty 63 at Site = CDC_TAMPA, Product = B08B6C16Q2
Day 44 (2/13/2018): Ship order TY2-3-13 - qty 63 on time at Site = CDC_TAMPA, Product = B08B6C16Q2
Day 44 (2/13/2018): Collect statistics for Site = CDC_TAMPA, Product = B08B6C16Q2, OH = 598, COQ = 758, BOQ = 0
Day 45 (2/14/2018): Receive order TY2-3-14 - qty 85 at Site = CDC_TAMPA, Product = B08B6C16Q2
Day 45 (2/14/2018): Ship order TY2-3-14 - qty 85 on time at Site = CDC_TAMPA, Product = B08B6C16Q2
Day 45 (2/14/2018): Collect statistics for Site = CDC_TAMPA, Product = B08B6C16Q2, OH = 513, COQ = 758, BOQ = 0
Day 46 (2/15/2018): Receive order TY2-3-15 - qty 135 at Site = CDC_TAMPA, Product = B08B6C16Q2
Day 46 (2/15/2018): Create replen order SRC-CDC_TAMPA_B08B6C16Q2_10 Qty = 364 for Site = CDC_TAMPA, Product = B08B6C16Q2, OH = 513, POS = 1500, RP = 1200
Day 46 (2/15/2018): Ship order TY2-3-15 - qty 135 on time at Site = CDC_TAMPA, Product = B08B6C16Q2
Day 46 (2/15/2018): Collect statistics for Site = CDC_TAMPA, Product = B08B6C16Q2, OH = 378, COQ = 1122, BOQ = 0
Day 47 (2/16/2018): Receive replen order SRC-CDC_TAMPA_B08B6C16Q2_8 Qty 341 at Site = CDC_TAMPA, Product = B08B6C16Q2, OH = 719,  POS = 1500
Day 47 (2/16/2018): Receive order TY2-3-16 - qty 83 at Site = CDC_TAMPA, Product = B08B6C16Q2
Day 47 (2/16/2018): Ship order TY2-3-16 - qty 83 on time at Site = CDC_TAMPA, Product = B08B6C16Q2
Day 47 (2/16/2018): Collect statistics for Site = CDC_TAMPA, Product = B08B6C16Q2, OH = 636, COQ = 781, BOQ = 0
Day 48 (2/17/2018): Receive order TY2-3-17 - qty 96 at Site = CDC_TAMPA, Product = B08B6C16Q2
Day 48 (2/17/2018): Ship order TY2-3-17 - qty 96 on time at Site = CDC_TAMPA, Product = B08B6C16Q2
Day 48 (2/17/2018): Collect statistics for Site = CDC_TAMPA, Product = B08B6C16Q2, OH = 540, COQ = 781, BOQ = 0
Day 49 (2/18/2018): Receive order TY2-3-18 - qty 88 at Site = CDC_TAMPA, Product = B08B6C16Q2
Day 49 (2/18/2018): Ship order TY2-3-18 - qty 88 on time at Site = CDC_TAMPA, Product = B08B6C16Q2
Day 49 (2/18/2018): Collect statistics for Site = CDC_TAMPA, Product = B08B6C16Q2, OH = 452, COQ = 781, BOQ = 0
Day 50 (2/19/2018): Receive order TY2-3-19 - qty 71 at Site = CDC_TAMPA, Product = B08B6C16Q2
Day 50 (2/19/2018): Create replen order SRC-CDC_TAMPA_B08B6C16Q2_11 Qty = 338 for Site = CDC_TAMPA, Product = B08B6C16Q2, OH = 452, POS = 1500, RP = 1200
Day 50 (2/19/2018): Ship order TY2-3-19 - qty 71 on time at Site = CDC_TAMPA, Product = B08B6C16Q2
Day 50 (2/19/2018): Collect statistics for Site = CDC_TAMPA, Product = B08B6C16Q2, OH = 381, COQ = 1119, BOQ = 0
Day 51 (2/20/2018): Receive order TY2-3-20 - qty 50 at Site = CDC_TAMPA, Product = B08B6C16Q2
Day 51 (2/20/2018): Ship order TY2-3-20 - qty 50 on time at Site = CDC_TAMPA, Product = B08B6C16Q2
Day 51 (2/20/2018): Collect statistics for Site = CDC_TAMPA, Product = B08B6C16Q2, OH = 331, COQ = 1119, BOQ = 0
Day 52 (2/21/2018): Receive replen order SRC-CDC_TAMPA_B08B6C16Q2_9 Qty 417 at Site = CDC_TAMPA, Product = B08B6C16Q2, OH = 748,  POS = 1450
Day 52 (2/21/2018): Receive order TY2-3-21 - qty 71 at Site = CDC_TAMPA, Product = B08B6C16Q2
Day 52 (2/21/2018): Ship order TY2-3-21 - qty 71 on time at Site = CDC_TAMPA, Product = B08B6C16Q2
Day 52 (2/21/2018): Collect statistics for Site = CDC_TAMPA, Product = B08B6C16Q2, OH = 677, COQ = 702, BOQ = 0
Day 53 (2/22/2018): Receive order TY2-3-22 - qty 74 at Site = CDC_TAMPA, Product = B08B6C16Q2
Day 53 (2/22/2018): Ship order TY2-3-22 - qty 74 on time at Site = CDC_TAMPA, Product = B08B6C16Q2
Day 53 (2/22/2018): Collect statistics for Site = CDC_TAMPA, Product = B08B6C16Q2, OH = 603, COQ = 702, BOQ = 0
Day 54 (2/23/2018): Receive order TY2-3-23 - qty 95 at Site = CDC_TAMPA, Product = B08B6C16Q2
Day 54 (2/23/2018): Ship order TY2-3-23 - qty 95 on time at Site = CDC_TAMPA, Product = B08B6C16Q2
Day 54 (2/23/2018): Collect statistics for Site = CDC_TAMPA, Product = B08B6C16Q2, OH = 508, COQ = 702, BOQ = 0
Day 55 (2/24/2018): Receive order TY2-3-24 - qty 102 at Site = CDC_TAMPA, Product = B08B6C16Q2
Day 55 (2/24/2018): Create replen order SRC-CDC_TAMPA_B08B6C16Q2_12 Qty = 392 for Site = CDC_TAMPA, Product = B08B6C16Q2, OH = 508, POS = 1500, RP = 1200
Day 55 (2/24/2018): Ship order TY2-3-24 - qty 102 on time at Site = CDC_TAMPA, Product = B08B6C16Q2
Day 55 (2/24/2018): Collect statistics for Site = CDC_TAMPA, Product = B08B6C16Q2, OH = 406, COQ = 1094, BOQ = 0
Day 56 (2/25/2018): Receive replen order SRC-CDC_TAMPA_B08B6C16Q2_10 Qty 364 at Site = CDC_TAMPA, Product = B08B6C16Q2, OH = 770,  POS = 1500
Day 56 (2/25/2018): Receive order TY2-3-25 - qty 105 at Site = CDC_TAMPA, Product = B08B6C16Q2
Day 56 (2/25/2018): Ship order TY2-3-25 - qty 105 on time at Site = CDC_TAMPA, Product = B08B6C16Q2
Day 56 (2/25/2018): Collect statistics for Site = CDC_TAMPA, Product = B08B6C16Q2, OH = 665, COQ = 730, BOQ = 0
Day 57 (2/26/2018): Receive order TY2-3-26 - qty 88 at Site = CDC_TAMPA, Product = B08B6C16Q2
Day 57 (2/26/2018): Ship order TY2-3-26 - qty 88 on time at Site = CDC_TAMPA, Product = B08B6C16Q2
Day 57 (2/26/2018): Collect statistics for Site = CDC_TAMPA, Product = B08B6C16Q2, OH = 577, COQ = 730, BOQ = 0
Day 58 (2/27/2018): Receive order TY2-3-27 - qty 103 at Site = CDC_TAMPA, Product = B08B6C16Q2
Day 58 (2/27/2018): Ship order TY2-3-27 - qty 103 on time at Site = CDC_TAMPA, Product = B08B6C16Q2
Day 58 (2/27/2018): Collect statistics for Site = CDC_TAMPA, Product = B08B6C16Q2, OH = 474, COQ = 730, BOQ = 0
Day 59 (2/28/2018): Receive order TY2-3-28 - qty 60 at Site = CDC_TAMPA, Product = B08B6C16Q2
Day 59 (2/28/2018): Create replen order SRC-CDC_TAMPA_B08B6C16Q2_13 Qty = 356 for Site = CDC_TAMPA, Product = B08B6C16Q2, OH = 474, POS = 1500, RP = 1200
Day 59 (2/28/2018): Ship order TY2-3-28 - qty 60 on time at Site = CDC_TAMPA, Product = B08B6C16Q2
Day 59 (2/28/2018): Collect statistics for Site = CDC_TAMPA, Product = B08B6C16Q2, OH = 414, COQ = 1086, BOQ = 0
Day 60 (3/1/2018): Update policy for Site = CDC_TAMPA, Product = B08B6C16Q2, (s,S), RP = 1200, RL = 1500, RT = 0
Day 60 (3/1/2018): Review inventory for Site = CDC_TAMPA, Product = B08B6C16Q2, OH = 414, POS = 1500, RP = 1200
Day 60 (3/1/2018): Receive replen order SRC-CDC_TAMPA_B08B6C16Q2_11 Qty 338 at Site = CDC_TAMPA, Product = B08B6C16Q2, OH = 752,  POS = 1500
Day 60 (3/1/2018): Receive order TY2-4-1 - qty 94 at Site = CDC_TAMPA, Product = B08B6C16Q2
Day 60 (3/1/2018): Ship order TY2-4-1 - qty 94 on time at Site = CDC_TAMPA, Product = B08B6C16Q2
Day 60 (3/1/2018): Collect statistics for Site = CDC_TAMPA, Product = B08B6C16Q2, OH = 658, COQ = 748, BOQ = 0
Day 61 (3/2/2018): Receive order TY2-4-2 - qty 72 at Site = CDC_TAMPA, Product = B08B6C16Q2
Day 61 (3/2/2018): Ship order TY2-4-2 - qty 72 on time at Site = CDC_TAMPA, Product = B08B6C16Q2
Day 61 (3/2/2018): Collect statistics for Site = CDC_TAMPA, Product = B08B6C16Q2, OH = 586, COQ = 748, BOQ = 0
Day 62 (3/3/2018): Receive order TY2-4-3 - qty 93 at Site = CDC_TAMPA, Product = B08B6C16Q2
Day 62 (3/3/2018): Ship order TY2-4-3 - qty 93 on time at Site = CDC_TAMPA, Product = B08B6C16Q2
Day 62 (3/3/2018): Collect statistics for Site = CDC_TAMPA, Product = B08B6C16Q2, OH = 493, COQ = 748, BOQ = 0
Day 63 (3/4/2018): Receive order TY2-4-4 - qty 78 at Site = CDC_TAMPA, Product = B08B6C16Q2
Day 63 (3/4/2018): Create replen order SRC-CDC_TAMPA_B08B6C16Q2_14 Qty = 337 for Site = CDC_TAMPA, Product = B08B6C16Q2, OH = 493, POS = 1500, RP = 1200
Day 63 (3/4/2018): Ship order TY2-4-4 - qty 78 on time at Site = CDC_TAMPA, Product = B08B6C16Q2
Day 63 (3/4/2018): Collect statistics for Site = CDC_TAMPA, Product = B08B6C16Q2, OH = 415, COQ = 1085, BOQ = 0
Day 64 (3/5/2018): Receive order TY2-4-5 - qty 110 at Site = CDC_TAMPA, Product = B08B6C16Q2
Day 64 (3/5/2018): Ship order TY2-4-5 - qty 110 on time at Site = CDC_TAMPA, Product = B08B6C16Q2
Day 64 (3/5/2018): Collect statistics for Site = CDC_TAMPA, Product = B08B6C16Q2, OH = 305, COQ = 1085, BOQ = 0
Day 65 (3/6/2018): Receive replen order SRC-CDC_TAMPA_B08B6C16Q2_12 Qty 392 at Site = CDC_TAMPA, Product = B08B6C16Q2, OH = 697,  POS = 1390
Day 65 (3/6/2018): Receive order TY2-4-6 - qty 120 at Site = CDC_TAMPA, Product = B08B6C16Q2
Day 65 (3/6/2018): Ship order TY2-4-6 - qty 120 on time at Site = CDC_TAMPA, Product = B08B6C16Q2
Day 65 (3/6/2018): Collect statistics for Site = CDC_TAMPA, Product = B08B6C16Q2, OH = 577, COQ = 693, BOQ = 0
Day 66 (3/7/2018): Receive order TY2-4-7 - qty 138 at Site = CDC_TAMPA, Product = B08B6C16Q2
Day 66 (3/7/2018): Create replen order SRC-CDC_TAMPA_B08B6C16Q2_15 Qty = 368 for Site = CDC_TAMPA, Product = B08B6C16Q2, OH = 577, POS = 1500, RP = 1200
Day 66 (3/7/2018): Ship order TY2-4-7 - qty 138 on time at Site = CDC_TAMPA, Product = B08B6C16Q2
Day 66 (3/7/2018): Collect statistics for Site = CDC_TAMPA, Product = B08B6C16Q2, OH = 439, COQ = 1061, BOQ = 0
Day 67 (3/8/2018): Receive order TY2-4-8 - qty 43 at Site = CDC_TAMPA, Product = B08B6C16Q2
Day 67 (3/8/2018): Ship order TY2-4-8 - qty 43 on time at Site = CDC_TAMPA, Product = B08B6C16Q2
Day 67 (3/8/2018): Collect statistics for Site = CDC_TAMPA, Product = B08B6C16Q2, OH = 396, COQ = 1061, BOQ = 0
Day 68 (3/9/2018): Receive order TY2-4-9 - qty 42 at Site = CDC_TAMPA, Product = B08B6C16Q2
Day 68 (3/9/2018): Ship order TY2-4-9 - qty 42 on time at Site = CDC_TAMPA, Product = B08B6C16Q2
Day 68 (3/9/2018): Collect statistics for Site = CDC_TAMPA, Product = B08B6C16Q2, OH = 354, COQ = 1061, BOQ = 0
Day 69 (3/10/2018): Receive replen order SRC-CDC_TAMPA_B08B6C16Q2_13 Qty 356 at Site = CDC_TAMPA, Product = B08B6C16Q2, OH = 710,  POS = 1415
Day 69 (3/10/2018): Receive order TY2-4-10 - qty 67 at Site = CDC_TAMPA, Product = B08B6C16Q2
Day 69 (3/10/2018): Ship order TY2-4-10 - qty 67 on time at Site = CDC_TAMPA, Product = B08B6C16Q2
Day 69 (3/10/2018): Collect statistics for Site = CDC_TAMPA, Product = B08B6C16Q2, OH = 643, COQ = 705, BOQ = 0
Day 70 (3/11/2018): Receive order TY2-4-11 - qty 84 at Site = CDC_TAMPA, Product = B08B6C16Q2
Day 70 (3/11/2018): Ship order TY2-4-11 - qty 84 on time at Site = CDC_TAMPA, Product = B08B6C16Q2
Day 70 (3/11/2018): Collect statistics for Site = CDC_TAMPA, Product = B08B6C16Q2, OH = 559, COQ = 705, BOQ = 0
Day 71 (3/12/2018): Receive order TY2-4-12 - qty 103 at Site = CDC_TAMPA, Product = B08B6C16Q2
Day 71 (3/12/2018): Create replen order SRC-CDC_TAMPA_B08B6C16Q2_16 Qty = 339 for Site = CDC_TAMPA, Product = B08B6C16Q2, OH = 559, POS = 1500, RP = 1200
Day 71 (3/12/2018): Ship order TY2-4-12 - qty 103 on time at Site = CDC_TAMPA, Product = B08B6C16Q2
Day 71 (3/12/2018): Collect statistics for Site = CDC_TAMPA, Product = B08B6C16Q2, OH = 456, COQ = 1044, BOQ = 0
Day 72 (3/13/2018): Receive order TY2-4-13 - qty 88 at Site = CDC_TAMPA, Product = B08B6C16Q2
Day 72 (3/13/2018): Ship order TY2-4-13 - qty 88 on time at Site = CDC_TAMPA, Product = B08B6C16Q2
Day 72 (3/13/2018): Collect statistics for Site = CDC_TAMPA, Product = B08B6C16Q2, OH = 368, COQ = 1044, BOQ = 0
Day 73 (3/14/2018): Receive replen order SRC-CDC_TAMPA_B08B6C16Q2_14 Qty 337 at Site = CDC_TAMPA, Product = B08B6C16Q2, OH = 705,  POS = 1412
Day 73 (3/14/2018): Receive order TY2-4-14 - qty 27 at Site = CDC_TAMPA, Product = B08B6C16Q2
Day 73 (3/14/2018): Ship order TY2-4-14 - qty 27 on time at Site = CDC_TAMPA, Product = B08B6C16Q2
Day 73 (3/14/2018): Collect statistics for Site = CDC_TAMPA, Product = B08B6C16Q2, OH = 678, COQ = 707, BOQ = 0
Day 74 (3/15/2018): Receive order TY2-4-15 - qty 72 at Site = CDC_TAMPA, Product = B08B6C16Q2
Day 74 (3/15/2018): Ship order TY2-4-15 - qty 72 on time at Site = CDC_TAMPA, Product = B08B6C16Q2
Day 74 (3/15/2018): Collect statistics for Site = CDC_TAMPA, Product = B08B6C16Q2, OH = 606, COQ = 707, BOQ = 0
Day 75 (3/16/2018): Receive order TY2-4-16 - qty 102 at Site = CDC_TAMPA, Product = B08B6C16Q2
Day 75 (3/16/2018): Ship order TY2-4-16 - qty 102 on time at Site = CDC_TAMPA, Product = B08B6C16Q2
Day 75 (3/16/2018): Collect statistics for Site = CDC_TAMPA, Product = B08B6C16Q2, OH = 504, COQ = 707, BOQ = 0
Day 76 (3/17/2018): Receive replen order SRC-CDC_TAMPA_B08B6C16Q2_15 Qty 368 at Site = CDC_TAMPA, Product = B08B6C16Q2, OH = 872,  POS = 1211
Day 76 (3/17/2018): Receive order TY2-4-17 - qty 86 at Site = CDC_TAMPA, Product = B08B6C16Q2
Day 76 (3/17/2018): Create replen order SRC-CDC_TAMPA_B08B6C16Q2_17 Qty = 375 for Site = CDC_TAMPA, Product = B08B6C16Q2, OH = 872, POS = 1500, RP = 1200
Day 76 (3/17/2018): Ship order TY2-4-17 - qty 86 on time at Site = CDC_TAMPA, Product = B08B6C16Q2
Day 76 (3/17/2018): Collect statistics for Site = CDC_TAMPA, Product = B08B6C16Q2, OH = 786, COQ = 714, BOQ = 0
Day 77 (3/18/2018): Receive order TY2-4-18 - qty 100 at Site = CDC_TAMPA, Product = B08B6C16Q2
Day 77 (3/18/2018): Ship order TY2-4-18 - qty 100 on time at Site = CDC_TAMPA, Product = B08B6C16Q2
Day 77 (3/18/2018): Collect statistics for Site = CDC_TAMPA, Product = B08B6C16Q2, OH = 686, COQ = 714, BOQ = 0
Day 78 (3/19/2018): Receive order TY2-4-19 - qty 74 at Site = CDC_TAMPA, Product = B08B6C16Q2
Day 78 (3/19/2018): Ship order TY2-4-19 - qty 74 on time at Site = CDC_TAMPA, Product = B08B6C16Q2
Day 78 (3/19/2018): Collect statistics for Site = CDC_TAMPA, Product = B08B6C16Q2, OH = 612, COQ = 714, BOQ = 0
Day 79 (3/20/2018): Receive order TY2-4-20 - qty 75 at Site = CDC_TAMPA, Product = B08B6C16Q2
Day 79 (3/20/2018): Ship order TY2-4-20 - qty 75 on time at Site = CDC_TAMPA, Product = B08B6C16Q2
Day 79 (3/20/2018): Collect statistics for Site = CDC_TAMPA, Product = B08B6C16Q2, OH = 537, COQ = 714, BOQ = 0
Day 80 (3/21/2018): Receive order TY2-4-21 - qty 85 at Site = CDC_TAMPA, Product = B08B6C16Q2
Day 80 (3/21/2018): Create replen order SRC-CDC_TAMPA_B08B6C16Q2_18 Qty = 334 for Site = CDC_TAMPA, Product = B08B6C16Q2, OH = 537, POS = 1500, RP = 1200
Day 80 (3/21/2018): Ship order TY2-4-21 - qty 85 on time at Site = CDC_TAMPA, Product = B08B6C16Q2
Day 80 (3/21/2018): Collect statistics for Site = CDC_TAMPA, Product = B08B6C16Q2, OH = 452, COQ = 1048, BOQ = 0
Day 81 (3/22/2018): Receive replen order SRC-CDC_TAMPA_B08B6C16Q2_16 Qty 339 at Site = CDC_TAMPA, Product = B08B6C16Q2, OH = 791,  POS = 1500
Day 81 (3/22/2018): Receive order TY2-4-22 - qty 91 at Site = CDC_TAMPA, Product = B08B6C16Q2
Day 81 (3/22/2018): Ship order TY2-4-22 - qty 91 on time at Site = CDC_TAMPA, Product = B08B6C16Q2
Day 81 (3/22/2018): Collect statistics for Site = CDC_TAMPA, Product = B08B6C16Q2, OH = 700, COQ = 709, BOQ = 0
Day 82 (3/23/2018): Receive order TY2-4-23 - qty 85 at Site = CDC_TAMPA, Product = B08B6C16Q2
Day 82 (3/23/2018): Ship order TY2-4-23 - qty 85 on time at Site = CDC_TAMPA, Product = B08B6C16Q2
Day 82 (3/23/2018): Collect statistics for Site = CDC_TAMPA, Product = B08B6C16Q2, OH = 615, COQ = 709, BOQ = 0
Day 83 (3/24/2018): Receive order TY2-4-24 - qty 83 at Site = CDC_TAMPA, Product = B08B6C16Q2
Day 83 (3/24/2018): Ship order TY2-4-24 - qty 83 on time at Site = CDC_TAMPA, Product = B08B6C16Q2
Day 83 (3/24/2018): Collect statistics for Site = CDC_TAMPA, Product = B08B6C16Q2, OH = 532, COQ = 709, BOQ = 0
Day 84 (3/25/2018): Receive order TY2-4-25 - qty 62 at Site = CDC_TAMPA, Product = B08B6C16Q2
Day 84 (3/25/2018): Create replen order SRC-CDC_TAMPA_B08B6C16Q2_19 Qty = 321 for Site = CDC_TAMPA, Product = B08B6C16Q2, OH = 532, POS = 1500, RP = 1200
Day 84 (3/25/2018): Ship order TY2-4-25 - qty 62 on time at Site = CDC_TAMPA, Product = B08B6C16Q2
Day 84 (3/25/2018): Collect statistics for Site = CDC_TAMPA, Product = B08B6C16Q2, OH = 470, COQ = 1030, BOQ = 0
Day 85 (3/26/2018): Receive order TY2-4-26 - qty 90 at Site = CDC_TAMPA, Product = B08B6C16Q2
Day 85 (3/26/2018): Ship order TY2-4-26 - qty 90 on time at Site = CDC_TAMPA, Product = B08B6C16Q2
Day 85 (3/26/2018): Collect statistics for Site = CDC_TAMPA, Product = B08B6C16Q2, OH = 380, COQ = 1030, BOQ = 0
Day 86 (3/27/2018): Receive replen order SRC-CDC_TAMPA_B08B6C16Q2_17 Qty 375 at Site = CDC_TAMPA, Product = B08B6C16Q2, OH = 755,  POS = 1410
Day 86 (3/27/2018): Receive order TY2-4-27 - qty 83 at Site = CDC_TAMPA, Product = B08B6C16Q2
Day 86 (3/27/2018): Ship order TY2-4-27 - qty 83 on time at Site = CDC_TAMPA, Product = B08B6C16Q2
Day 86 (3/27/2018): Collect statistics for Site = CDC_TAMPA, Product = B08B6C16Q2, OH = 672, COQ = 655, BOQ = 0
Day 87 (3/28/2018): Receive order TY2-4-28 - qty 110 at Site = CDC_TAMPA, Product = B08B6C16Q2
Day 87 (3/28/2018): Ship order TY2-4-28 - qty 110 on time at Site = CDC_TAMPA, Product = B08B6C16Q2
Day 87 (3/28/2018): Collect statistics for Site = CDC_TAMPA, Product = B08B6C16Q2, OH = 562, COQ = 655, BOQ = 0
Day 88 (3/29/2018): Receive order TY2-4-29 - qty 112 at Site = CDC_TAMPA, Product = B08B6C16Q2
Day 88 (3/29/2018): Create replen order SRC-CDC_TAMPA_B08B6C16Q2_20 Qty = 395 for Site = CDC_TAMPA, Product = B08B6C16Q2, OH = 562, POS = 1500, RP = 1200
Day 88 (3/29/2018): Ship order TY2-4-29 - qty 112 on time at Site = CDC_TAMPA, Product = B08B6C16Q2
Day 88 (3/29/2018): Collect statistics for Site = CDC_TAMPA, Product = B08B6C16Q2, OH = 450, COQ = 1050, BOQ = 0
Day 89 (3/30/2018): Receive order TY2-4-30 - qty 85 at Site = CDC_TAMPA, Product = B08B6C16Q2
Day 89 (3/30/2018): Ship order TY2-4-30 - qty 85 on time at Site = CDC_TAMPA, Product = B08B6C16Q2
Day 89 (3/30/2018): Collect statistics for Site = CDC_TAMPA, Product = B08B6C16Q2, OH = 365, COQ = 1050, BOQ = 0
Day 90 (3/31/2018): Receive replen order SRC-CDC_TAMPA_B08B6C16Q2_18 Qty 334 at Site = CDC_TAMPA, Product = B08B6C16Q2, OH = 699,  POS = 1415
Day 90 (3/31/2018): Receive order TY2-4-31 - qty 70 at Site = CDC_TAMPA, Product = B08B6C16Q2
Day 90 (3/31/2018): Ship order TY2-4-31 - qty 70 on time at Site = CDC_TAMPA, Product = B08B6C16Q2
Day 90 (3/31/2018): Collect statistics for Site = CDC_TAMPA, Product = B08B6C16Q2, OH = 629, COQ = 716, BOQ = 0
Day 91 (4/1/2018): Update policy for Site = CDC_TAMPA, Product = B08B6C16Q2, (s,S), RP = 1200, RL = 1500, RT = 0
Day 91 (4/1/2018): Review inventory for Site = CDC_TAMPA, Product = B08B6C16Q2, OH = 629, POS = 1345, RP = 1200
Day 91 (4/1/2018): Receive order TY2-5-1 - qty 91 at Site = CDC_TAMPA, Product = B08B6C16Q2
Day 91 (4/1/2018): Ship order TY2-5-1 - qty 91 on time at Site = CDC_TAMPA, Product = B08B6C16Q2
Day 91 (4/1/2018): Collect statistics for Site = CDC_TAMPA, Product = B08B6C16Q2, OH = 538, COQ = 716, BOQ = 0
Day 92 (4/2/2018): Receive order TY2-5-2 - qty 82 at Site = CDC_TAMPA, Product = B08B6C16Q2
Day 92 (4/2/2018): Create replen order SRC-CDC_TAMPA_B08B6C16Q2_21 Qty = 328 for Site = CDC_TAMPA, Product = B08B6C16Q2, OH = 538, POS = 1500, RP = 1200
Day 92 (4/2/2018): Ship order TY2-5-2 - qty 82 on time at Site = CDC_TAMPA, Product = B08B6C16Q2
Day 92 (4/2/2018): Collect statistics for Site = CDC_TAMPA, Product = B08B6C16Q2, OH = 456, COQ = 1044, BOQ = 0
Day 93 (4/3/2018): Receive order TY2-5-3 - qty 71 at Site = CDC_TAMPA, Product = B08B6C16Q2
Day 93 (4/3/2018): Ship order TY2-5-3 - qty 71 on time at Site = CDC_TAMPA, Product = B08B6C16Q2
Day 93 (4/3/2018): Collect statistics for Site = CDC_TAMPA, Product = B08B6C16Q2, OH = 385, COQ = 1044, BOQ = 0
Day 94 (4/4/2018): Receive replen order SRC-CDC_TAMPA_B08B6C16Q2_19 Qty 321 at Site = CDC_TAMPA, Product = B08B6C16Q2, OH = 706,  POS = 1429
Day 94 (4/4/2018): Receive order TY2-5-4 - qty 81 at Site = CDC_TAMPA, Product = B08B6C16Q2
Day 94 (4/4/2018): Ship order TY2-5-4 - qty 81 on time at Site = CDC_TAMPA, Product = B08B6C16Q2
Day 94 (4/4/2018): Collect statistics for Site = CDC_TAMPA, Product = B08B6C16Q2, OH = 625, COQ = 723, BOQ = 0
Day 95 (4/5/2018): Receive order TY2-5-5 - qty 64 at Site = CDC_TAMPA, Product = B08B6C16Q2
Day 95 (4/5/2018): Ship order TY2-5-5 - qty 64 on time at Site = CDC_TAMPA, Product = B08B6C16Q2
Day 95 (4/5/2018): Collect statistics for Site = CDC_TAMPA, Product = B08B6C16Q2, OH = 561, COQ = 723, BOQ = 0
Day 96 (4/6/2018): Receive order TY2-5-6 - qty 98 at Site = CDC_TAMPA, Product = B08B6C16Q2
Day 96 (4/6/2018): Create replen order SRC-CDC_TAMPA_B08B6C16Q2_22 Qty = 314 for Site = CDC_TAMPA, Product = B08B6C16Q2, OH = 561, POS = 1500, RP = 1200
Day 96 (4/6/2018): Ship order TY2-5-6 - qty 98 on time at Site = CDC_TAMPA, Product = B08B6C16Q2
Day 96 (4/6/2018): Collect statistics for Site = CDC_TAMPA, Product = B08B6C16Q2, OH = 463, COQ = 1037, BOQ = 0
Day 97 (4/7/2018): Receive order TY2-5-7 - qty 68 at Site = CDC_TAMPA, Product = B08B6C16Q2
Day 97 (4/7/2018): Ship order TY2-5-7 - qty 68 on time at Site = CDC_TAMPA, Product = B08B6C16Q2
Day 97 (4/7/2018): Collect statistics for Site = CDC_TAMPA, Product = B08B6C16Q2, OH = 395, COQ = 1037, BOQ = 0
Day 98 (4/8/2018): Receive replen order SRC-CDC_TAMPA_B08B6C16Q2_20 Qty 395 at Site = CDC_TAMPA, Product = B08B6C16Q2, OH = 790,  POS = 1432
Day 98 (4/8/2018): Receive order TY2-5-8 - qty 112 at Site = CDC_TAMPA, Product = B08B6C16Q2
Day 98 (4/8/2018): Ship order TY2-5-8 - qty 112 on time at Site = CDC_TAMPA, Product = B08B6C16Q2
Day 98 (4/8/2018): Collect statistics for Site = CDC_TAMPA, Product = B08B6C16Q2, OH = 678, COQ = 642, BOQ = 0
Day 99 (4/9/2018): Receive order TY2-5-9 - qty 91 at Site = CDC_TAMPA, Product = B08B6C16Q2
Day 99 (4/9/2018): Ship order TY2-5-9 - qty 91 on time at Site = CDC_TAMPA, Product = B08B6C16Q2
Day 99 (4/9/2018): Collect statistics for Site = CDC_TAMPA, Product = B08B6C16Q2, OH = 587, COQ = 642, BOQ = 0
Day 100 (4/10/2018): Receive order TY2-5-10 - qty 96 at Site = CDC_TAMPA, Product = B08B6C16Q2
Day 100 (4/10/2018): Create replen order SRC-CDC_TAMPA_B08B6C16Q2_23 Qty = 367 for Site = CDC_TAMPA, Product = B08B6C16Q2, OH = 587, POS = 1500, RP = 1200
Day 100 (4/10/2018): Ship order TY2-5-10 - qty 96 on time at Site = CDC_TAMPA, Product = B08B6C16Q2
Day 100 (4/10/2018): Collect statistics for Site = CDC_TAMPA, Product = B08B6C16Q2, OH = 491, COQ = 1009, BOQ = 0
Day 101 (4/11/2018): Receive order TY2-5-11 - qty 51 at Site = CDC_TAMPA, Product = B08B6C16Q2
Day 101 (4/11/2018): Ship order TY2-5-11 - qty 51 on time at Site = CDC_TAMPA, Product = B08B6C16Q2
Day 101 (4/11/2018): Collect statistics for Site = CDC_TAMPA, Product = B08B6C16Q2, OH = 440, COQ = 1009, BOQ = 0
Day 102 (4/12/2018): Receive replen order SRC-CDC_TAMPA_B08B6C16Q2_21 Qty 328 at Site = CDC_TAMPA, Product = B08B6C16Q2, OH = 768,  POS = 1449
Day 102 (4/12/2018): Receive order TY2-5-12 - qty 84 at Site = CDC_TAMPA, Product = B08B6C16Q2
Day 102 (4/12/2018): Ship order TY2-5-12 - qty 84 on time at Site = CDC_TAMPA, Product = B08B6C16Q2
Day 102 (4/12/2018): Collect statistics for Site = CDC_TAMPA, Product = B08B6C16Q2, OH = 684, COQ = 681, BOQ = 0
Day 103 (4/13/2018): Receive order TY2-5-13 - qty 100 at Site = CDC_TAMPA, Product = B08B6C16Q2
Day 103 (4/13/2018): Ship order TY2-5-13 - qty 100 on time at Site = CDC_TAMPA, Product = B08B6C16Q2
Day 103 (4/13/2018): Collect statistics for Site = CDC_TAMPA, Product = B08B6C16Q2, OH = 584, COQ = 681, BOQ = 0
Day 104 (4/14/2018): Receive order TY2-5-14 - qty 55 at Site = CDC_TAMPA, Product = B08B6C16Q2
Day 104 (4/14/2018): Ship order TY2-5-14 - qty 55 on time at Site = CDC_TAMPA, Product = B08B6C16Q2
Day 104 (4/14/2018): Collect statistics for Site = CDC_TAMPA, Product = B08B6C16Q2, OH = 529, COQ = 681, BOQ = 0
Day 105 (4/15/2018): Receive order TY2-5-15 - qty 73 at Site = CDC_TAMPA, Product = B08B6C16Q2
Day 105 (4/15/2018): Create replen order SRC-CDC_TAMPA_B08B6C16Q2_24 Qty = 363 for Site = CDC_TAMPA, Product = B08B6C16Q2, OH = 529, POS = 1500, RP = 1200
Day 105 (4/15/2018): Ship order TY2-5-15 - qty 73 on time at Site = CDC_TAMPA, Product = B08B6C16Q2
Day 105 (4/15/2018): Collect statistics for Site = CDC_TAMPA, Product = B08B6C16Q2, OH = 456, COQ = 1044, BOQ = 0
Day 106 (4/16/2018): Receive replen order SRC-CDC_TAMPA_B08B6C16Q2_22 Qty 314 at Site = CDC_TAMPA, Product = B08B6C16Q2, OH = 770,  POS = 1500
Day 106 (4/16/2018): Receive order TY2-5-16 - qty 81 at Site = CDC_TAMPA, Product = B08B6C16Q2
Day 106 (4/16/2018): Ship order TY2-5-16 - qty 81 on time at Site = CDC_TAMPA, Product = B08B6C16Q2
Day 106 (4/16/2018): Collect statistics for Site = CDC_TAMPA, Product = B08B6C16Q2, OH = 689, COQ = 730, BOQ = 0
Day 107 (4/17/2018): Receive order TY2-5-17 - qty 44 at Site = CDC_TAMPA, Product = B08B6C16Q2
Day 107 (4/17/2018): Ship order TY2-5-17 - qty 44 on time at Site = CDC_TAMPA, Product = B08B6C16Q2
Day 107 (4/17/2018): Collect statistics for Site = CDC_TAMPA, Product = B08B6C16Q2, OH = 645, COQ = 730, BOQ = 0
Day 108 (4/18/2018): Receive order TY2-5-18 - qty 88 at Site = CDC_TAMPA, Product = B08B6C16Q2
Day 108 (4/18/2018): Ship order TY2-5-18 - qty 88 on time at Site = CDC_TAMPA, Product = B08B6C16Q2
Day 108 (4/18/2018): Collect statistics for Site = CDC_TAMPA, Product = B08B6C16Q2, OH = 557, COQ = 730, BOQ = 0
Day 109 (4/19/2018): Receive order TY2-5-19 - qty 102 at Site = CDC_TAMPA, Product = B08B6C16Q2
Day 109 (4/19/2018): Create replen order SRC-CDC_TAMPA_B08B6C16Q2_25 Qty = 315 for Site = CDC_TAMPA, Product = B08B6C16Q2, OH = 557, POS = 1500, RP = 1200
Day 109 (4/19/2018): Ship order TY2-5-19 - qty 102 on time at Site = CDC_TAMPA, Product = B08B6C16Q2
Day 109 (4/19/2018): Collect statistics for Site = CDC_TAMPA, Product = B08B6C16Q2, OH = 455, COQ = 1045, BOQ = 0
Day 110 (4/20/2018): Receive replen order SRC-CDC_TAMPA_B08B6C16Q2_23 Qty 367 at Site = CDC_TAMPA, Product = B08B6C16Q2, OH = 822,  POS = 1500
Day 110 (4/20/2018): Receive order TY2-5-20 - qty 57 at Site = CDC_TAMPA, Product = B08B6C16Q2
Day 110 (4/20/2018): Ship order TY2-5-20 - qty 57 on time at Site = CDC_TAMPA, Product = B08B6C16Q2
Day 110 (4/20/2018): Collect statistics for Site = CDC_TAMPA, Product = B08B6C16Q2, OH = 765, COQ = 678, BOQ = 0
Day 111 (4/21/2018): Receive order TY2-5-21 - qty 89 at Site = CDC_TAMPA, Product = B08B6C16Q2
Day 111 (4/21/2018): Ship order TY2-5-21 - qty 89 on time at Site = CDC_TAMPA, Product = B08B6C16Q2
Day 111 (4/21/2018): Collect statistics for Site = CDC_TAMPA, Product = B08B6C16Q2, OH = 676, COQ = 678, BOQ = 0
Day 112 (4/22/2018): Receive order TY2-5-22 - qty 45 at Site = CDC_TAMPA, Product = B08B6C16Q2
Day 112 (4/22/2018): Ship order TY2-5-22 - qty 45 on time at Site = CDC_TAMPA, Product = B08B6C16Q2
Day 112 (4/22/2018): Collect statistics for Site = CDC_TAMPA, Product = B08B6C16Q2, OH = 631, COQ = 678, BOQ = 0
Day 113 (4/23/2018): Receive order TY2-5-23 - qty 79 at Site = CDC_TAMPA, Product = B08B6C16Q2
Day 113 (4/23/2018): Ship order TY2-5-23 - qty 79 on time at Site = CDC_TAMPA, Product = B08B6C16Q2
Day 113 (4/23/2018): Collect statistics for Site = CDC_TAMPA, Product = B08B6C16Q2, OH = 552, COQ = 678, BOQ = 0
Day 114 (4/24/2018): Receive order TY2-5-24 - qty 37 at Site = CDC_TAMPA, Product = B08B6C16Q2
Day 114 (4/24/2018): Create replen order SRC-CDC_TAMPA_B08B6C16Q2_26 Qty = 307 for Site = CDC_TAMPA, Product = B08B6C16Q2, OH = 552, POS = 1500, RP = 1200
Day 114 (4/24/2018): Ship order TY2-5-24 - qty 37 on time at Site = CDC_TAMPA, Product = B08B6C16Q2
Day 114 (4/24/2018): Collect statistics for Site = CDC_TAMPA, Product = B08B6C16Q2, OH = 515, COQ = 985, BOQ = 0
Day 115 (4/25/2018): Receive replen order SRC-CDC_TAMPA_B08B6C16Q2_24 Qty 363 at Site = CDC_TAMPA, Product = B08B6C16Q2, OH = 878,  POS = 1500
Day 115 (4/25/2018): Receive order TY2-5-25 - qty 110 at Site = CDC_TAMPA, Product = B08B6C16Q2
Day 115 (4/25/2018): Ship order TY2-5-25 - qty 110 on time at Site = CDC_TAMPA, Product = B08B6C16Q2
Day 115 (4/25/2018): Collect statistics for Site = CDC_TAMPA, Product = B08B6C16Q2, OH = 768, COQ = 622, BOQ = 0
Day 116 (4/26/2018): Receive order TY2-5-26 - qty 91 at Site = CDC_TAMPA, Product = B08B6C16Q2
Day 116 (4/26/2018): Ship order TY2-5-26 - qty 91 on time at Site = CDC_TAMPA, Product = B08B6C16Q2
Day 116 (4/26/2018): Collect statistics for Site = CDC_TAMPA, Product = B08B6C16Q2, OH = 677, COQ = 622, BOQ = 0
Day 117 (4/27/2018): Receive order TY2-5-27 - qty 79 at Site = CDC_TAMPA, Product = B08B6C16Q2
Day 117 (4/27/2018): Ship order TY2-5-27 - qty 79 on time at Site = CDC_TAMPA, Product = B08B6C16Q2
Day 117 (4/27/2018): Collect statistics for Site = CDC_TAMPA, Product = B08B6C16Q2, OH = 598, COQ = 622, BOQ = 0
Day 118 (4/28/2018): Receive order TY2-5-28 - qty 60 at Site = CDC_TAMPA, Product = B08B6C16Q2
Day 118 (4/28/2018): Create replen order SRC-CDC_TAMPA_B08B6C16Q2_27 Qty = 340 for Site = CDC_TAMPA, Product = B08B6C16Q2, OH = 598, POS = 1500, RP = 1200
Day 118 (4/28/2018): Ship order TY2-5-28 - qty 60 on time at Site = CDC_TAMPA, Product = B08B6C16Q2
Day 118 (4/28/2018): Collect statistics for Site = CDC_TAMPA, Product = B08B6C16Q2, OH = 538, COQ = 962, BOQ = 0
Day 119 (4/29/2018): Receive replen order SRC-CDC_TAMPA_B08B6C16Q2_25 Qty 315 at Site = CDC_TAMPA, Product = B08B6C16Q2, OH = 853,  POS = 1500
Day 119 (4/29/2018): Receive order TY2-5-29 - qty 114 at Site = CDC_TAMPA, Product = B08B6C16Q2
Day 119 (4/29/2018): Ship order TY2-5-29 - qty 114 on time at Site = CDC_TAMPA, Product = B08B6C16Q2
Day 119 (4/29/2018): Collect statistics for Site = CDC_TAMPA, Product = B08B6C16Q2, OH = 739, COQ = 647, BOQ = 0
Day 120 (4/30/2018): Receive order TY2-5-30 - qty 132 at Site = CDC_TAMPA, Product = B08B6C16Q2
Day 120 (4/30/2018): Ship order TY2-5-30 - qty 132 on time at Site = CDC_TAMPA, Product = B08B6C16Q2
Day 120 (4/30/2018): Collect statistics for Site = CDC_TAMPA, Product = B08B6C16Q2, OH = 607, COQ = 647, BOQ = 0
Day 121 (5/1/2018): Update policy for Site = CDC_TAMPA, Product = B08B6C16Q2, (s,S), RP = 1200, RL = 1500, RT = 0
Day 121 (5/1/2018): Review inventory for Site = CDC_TAMPA, Product = B08B6C16Q2, OH = 607, POS = 1254, RP = 1200
Day 121 (5/1/2018): Receive order TY2-6-1 - qty 113 at Site = CDC_TAMPA, Product = B08B6C16Q2
Day 121 (5/1/2018): Create replen order SRC-CDC_TAMPA_B08B6C16Q2_28 Qty = 359 for Site = CDC_TAMPA, Product = B08B6C16Q2, OH = 607, POS = 1500, RP = 1200
Day 121 (5/1/2018): Ship order TY2-6-1 - qty 113 on time at Site = CDC_TAMPA, Product = B08B6C16Q2
Day 121 (5/1/2018): Collect statistics for Site = CDC_TAMPA, Product = B08B6C16Q2, OH = 494, COQ = 1006, BOQ = 0
Day 122 (5/2/2018): Receive order TY2-6-2 - qty 123 at Site = CDC_TAMPA, Product = B08B6C16Q2
Day 122 (5/2/2018): Ship order TY2-6-2 - qty 123 on time at Site = CDC_TAMPA, Product = B08B6C16Q2
Day 122 (5/2/2018): Collect statistics for Site = CDC_TAMPA, Product = B08B6C16Q2, OH = 371, COQ = 1006, BOQ = 0
Day 123 (5/3/2018): Receive order TY2-6-3 - qty 89 at Site = CDC_TAMPA, Product = B08B6C16Q2
Day 123 (5/3/2018): Ship order TY2-6-3 - qty 89 on time at Site = CDC_TAMPA, Product = B08B6C16Q2
Day 123 (5/3/2018): Collect statistics for Site = CDC_TAMPA, Product = B08B6C16Q2, OH = 282, COQ = 1006, BOQ = 0
Day 124 (5/4/2018): Receive replen order SRC-CDC_TAMPA_B08B6C16Q2_26 Qty 307 at Site = CDC_TAMPA, Product = B08B6C16Q2, OH = 589,  POS = 1288
Day 124 (5/4/2018): Receive order TY2-6-4 - qty 48 at Site = CDC_TAMPA, Product = B08B6C16Q2
Day 124 (5/4/2018): Ship order TY2-6-4 - qty 48 on time at Site = CDC_TAMPA, Product = B08B6C16Q2
Day 124 (5/4/2018): Collect statistics for Site = CDC_TAMPA, Product = B08B6C16Q2, OH = 541, COQ = 699, BOQ = 0
Day 125 (5/5/2018): Receive order TY2-6-5 - qty 103 at Site = CDC_TAMPA, Product = B08B6C16Q2
Day 125 (5/5/2018): Create replen order SRC-CDC_TAMPA_B08B6C16Q2_29 Qty = 363 for Site = CDC_TAMPA, Product = B08B6C16Q2, OH = 541, POS = 1500, RP = 1200
Day 125 (5/5/2018): Ship order TY2-6-5 - qty 103 on time at Site = CDC_TAMPA, Product = B08B6C16Q2
Day 125 (5/5/2018): Collect statistics for Site = CDC_TAMPA, Product = B08B6C16Q2, OH = 438, COQ = 1062, BOQ = 0
Day 126 (5/6/2018): Receive order TY2-6-6 - qty 75 at Site = CDC_TAMPA, Product = B08B6C16Q2
Day 126 (5/6/2018): Ship order TY2-6-6 - qty 75 on time at Site = CDC_TAMPA, Product = B08B6C16Q2
Day 126 (5/6/2018): Collect statistics for Site = CDC_TAMPA, Product = B08B6C16Q2, OH = 363, COQ = 1062, BOQ = 0
Day 127 (5/7/2018): Receive order TY2-6-7 - qty 64 at Site = CDC_TAMPA, Product = B08B6C16Q2
Day 127 (5/7/2018): Ship order TY2-6-7 - qty 64 on time at Site = CDC_TAMPA, Product = B08B6C16Q2
Day 127 (5/7/2018): Collect statistics for Site = CDC_TAMPA, Product = B08B6C16Q2, OH = 299, COQ = 1062, BOQ = 0
Day 128 (5/8/2018): Receive replen order SRC-CDC_TAMPA_B08B6C16Q2_27 Qty 340 at Site = CDC_TAMPA, Product = B08B6C16Q2, OH = 639,  POS = 1361
Day 128 (5/8/2018): Receive order TY2-6-8 - qty 48 at Site = CDC_TAMPA, Product = B08B6C16Q2
Day 128 (5/8/2018): Ship order TY2-6-8 - qty 48 on time at Site = CDC_TAMPA, Product = B08B6C16Q2
Day 128 (5/8/2018): Collect statistics for Site = CDC_TAMPA, Product = B08B6C16Q2, OH = 591, COQ = 722, BOQ = 0
Day 129 (5/9/2018): Receive order TY2-6-9 - qty 95 at Site = CDC_TAMPA, Product = B08B6C16Q2
Day 129 (5/9/2018): Ship order TY2-6-9 - qty 95 on time at Site = CDC_TAMPA, Product = B08B6C16Q2
Day 129 (5/9/2018): Collect statistics for Site = CDC_TAMPA, Product = B08B6C16Q2, OH = 496, COQ = 722, BOQ = 0
Day 130 (5/10/2018): Receive order TY2-6-10 - qty 101 at Site = CDC_TAMPA, Product = B08B6C16Q2
Day 130 (5/10/2018): Create replen order SRC-CDC_TAMPA_B08B6C16Q2_30 Qty = 383 for Site = CDC_TAMPA, Product = B08B6C16Q2, OH = 496, POS = 1500, RP = 1200
Day 130 (5/10/2018): Ship order TY2-6-10 - qty 101 on time at Site = CDC_TAMPA, Product = B08B6C16Q2
Day 130 (5/10/2018): Collect statistics for Site = CDC_TAMPA, Product = B08B6C16Q2, OH = 395, COQ = 1105, BOQ = 0
Day 131 (5/11/2018): Receive replen order SRC-CDC_TAMPA_B08B6C16Q2_28 Qty 359 at Site = CDC_TAMPA, Product = B08B6C16Q2, OH = 754,  POS = 1500
Day 131 (5/11/2018): Receive order TY2-6-11 - qty 64 at Site = CDC_TAMPA, Product = B08B6C16Q2
Day 131 (5/11/2018): Ship order TY2-6-11 - qty 64 on time at Site = CDC_TAMPA, Product = B08B6C16Q2
Day 131 (5/11/2018): Collect statistics for Site = CDC_TAMPA, Product = B08B6C16Q2, OH = 690, COQ = 746, BOQ = 0
Day 132 (5/12/2018): Receive order TY2-6-12 - qty 94 at Site = CDC_TAMPA, Product = B08B6C16Q2
Day 132 (5/12/2018): Ship order TY2-6-12 - qty 94 on time at Site = CDC_TAMPA, Product = B08B6C16Q2
Day 132 (5/12/2018): Collect statistics for Site = CDC_TAMPA, Product = B08B6C16Q2, OH = 596, COQ = 746, BOQ = 0
Day 133 (5/13/2018): Receive order TY2-6-13 - qty 50 at Site = CDC_TAMPA, Product = B08B6C16Q2
Day 133 (5/13/2018): Ship order TY2-6-13 - qty 50 on time at Site = CDC_TAMPA, Product = B08B6C16Q2
Day 133 (5/13/2018): Collect statistics for Site = CDC_TAMPA, Product = B08B6C16Q2, OH = 546, COQ = 746, BOQ = 0
Day 134 (5/14/2018): Receive order TY2-6-14 - qty 101 at Site = CDC_TAMPA, Product = B08B6C16Q2
Day 134 (5/14/2018): Create replen order SRC-CDC_TAMPA_B08B6C16Q2_31 Qty = 309 for Site = CDC_TAMPA, Product = B08B6C16Q2, OH = 546, POS = 1500, RP = 1200
Day 134 (5/14/2018): Ship order TY2-6-14 - qty 101 on time at Site = CDC_TAMPA, Product = B08B6C16Q2
Day 134 (5/14/2018): Collect statistics for Site = CDC_TAMPA, Product = B08B6C16Q2, OH = 445, COQ = 1055, BOQ = 0
Day 135 (5/15/2018): Receive replen order SRC-CDC_TAMPA_B08B6C16Q2_29 Qty 363 at Site = CDC_TAMPA, Product = B08B6C16Q2, OH = 808,  POS = 1500
Day 135 (5/15/2018): Receive order TY2-6-15 - qty 81 at Site = CDC_TAMPA, Product = B08B6C16Q2
Day 135 (5/15/2018): Ship order TY2-6-15 - qty 81 on time at Site = CDC_TAMPA, Product = B08B6C16Q2
Day 135 (5/15/2018): Collect statistics for Site = CDC_TAMPA, Product = B08B6C16Q2, OH = 727, COQ = 692, BOQ = 0
Day 136 (5/16/2018): Receive order TY2-6-16 - qty 75 at Site = CDC_TAMPA, Product = B08B6C16Q2
Day 136 (5/16/2018): Ship order TY2-6-16 - qty 75 on time at Site = CDC_TAMPA, Product = B08B6C16Q2
Day 136 (5/16/2018): Collect statistics for Site = CDC_TAMPA, Product = B08B6C16Q2, OH = 652, COQ = 692, BOQ = 0
Day 137 (5/17/2018): Receive order TY2-6-17 - qty 77 at Site = CDC_TAMPA, Product = B08B6C16Q2
Day 137 (5/17/2018): Ship order TY2-6-17 - qty 77 on time at Site = CDC_TAMPA, Product = B08B6C16Q2
Day 137 (5/17/2018): Collect statistics for Site = CDC_TAMPA, Product = B08B6C16Q2, OH = 575, COQ = 692, BOQ = 0
Day 138 (5/18/2018): Receive order TY2-6-18 - qty 103 at Site = CDC_TAMPA, Product = B08B6C16Q2
Day 138 (5/18/2018): Create replen order SRC-CDC_TAMPA_B08B6C16Q2_32 Qty = 336 for Site = CDC_TAMPA, Product = B08B6C16Q2, OH = 575, POS = 1500, RP = 1200
Day 138 (5/18/2018): Ship order TY2-6-18 - qty 103 on time at Site = CDC_TAMPA, Product = B08B6C16Q2
Day 138 (5/18/2018): Collect statistics for Site = CDC_TAMPA, Product = B08B6C16Q2, OH = 472, COQ = 1028, BOQ = 0
Day 139 (5/19/2018): Receive order TY2-6-19 - qty 100 at Site = CDC_TAMPA, Product = B08B6C16Q2
Day 139 (5/19/2018): Ship order TY2-6-19 - qty 100 on time at Site = CDC_TAMPA, Product = B08B6C16Q2
Day 139 (5/19/2018): Collect statistics for Site = CDC_TAMPA, Product = B08B6C16Q2, OH = 372, COQ = 1028, BOQ = 0
Day 140 (5/20/2018): Receive replen order SRC-CDC_TAMPA_B08B6C16Q2_30 Qty 383 at Site = CDC_TAMPA, Product = B08B6C16Q2, OH = 755,  POS = 1400
Day 140 (5/20/2018): Receive order TY2-6-20 - qty 94 at Site = CDC_TAMPA, Product = B08B6C16Q2
Day 140 (5/20/2018): Ship order TY2-6-20 - qty 94 on time at Site = CDC_TAMPA, Product = B08B6C16Q2
Day 140 (5/20/2018): Collect statistics for Site = CDC_TAMPA, Product = B08B6C16Q2, OH = 661, COQ = 645, BOQ = 0
Day 141 (5/21/2018): Receive order TY2-6-21 - qty 84 at Site = CDC_TAMPA, Product = B08B6C16Q2
Day 141 (5/21/2018): Ship order TY2-6-21 - qty 84 on time at Site = CDC_TAMPA, Product = B08B6C16Q2
Day 141 (5/21/2018): Collect statistics for Site = CDC_TAMPA, Product = B08B6C16Q2, OH = 577, COQ = 645, BOQ = 0
Day 142 (5/22/2018): Receive order TY2-6-22 - qty 82 at Site = CDC_TAMPA, Product = B08B6C16Q2
Day 142 (5/22/2018): Create replen order SRC-CDC_TAMPA_B08B6C16Q2_33 Qty = 360 for Site = CDC_TAMPA, Product = B08B6C16Q2, OH = 577, POS = 1500, RP = 1200
Day 142 (5/22/2018): Ship order TY2-6-22 - qty 82 on time at Site = CDC_TAMPA, Product = B08B6C16Q2
Day 142 (5/22/2018): Collect statistics for Site = CDC_TAMPA, Product = B08B6C16Q2, OH = 495, COQ = 1005, BOQ = 0
Day 143 (5/23/2018): Receive order TY2-6-23 - qty 96 at Site = CDC_TAMPA, Product = B08B6C16Q2
Day 143 (5/23/2018): Ship order TY2-6-23 - qty 96 on time at Site = CDC_TAMPA, Product = B08B6C16Q2
Day 143 (5/23/2018): Collect statistics for Site = CDC_TAMPA, Product = B08B6C16Q2, OH = 399, COQ = 1005, BOQ = 0
Day 144 (5/24/2018): Receive replen order SRC-CDC_TAMPA_B08B6C16Q2_31 Qty 309 at Site = CDC_TAMPA, Product = B08B6C16Q2, OH = 708,  POS = 1404
Day 144 (5/24/2018): Receive order TY2-6-24 - qty 86 at Site = CDC_TAMPA, Product = B08B6C16Q2
Day 144 (5/24/2018): Ship order TY2-6-24 - qty 86 on time at Site = CDC_TAMPA, Product = B08B6C16Q2
Day 144 (5/24/2018): Collect statistics for Site = CDC_TAMPA, Product = B08B6C16Q2, OH = 622, COQ = 696, BOQ = 0
Day 145 (5/25/2018): Receive order TY2-6-25 - qty 98 at Site = CDC_TAMPA, Product = B08B6C16Q2
Day 145 (5/25/2018): Ship order TY2-6-25 - qty 98 on time at Site = CDC_TAMPA, Product = B08B6C16Q2
Day 145 (5/25/2018): Collect statistics for Site = CDC_TAMPA, Product = B08B6C16Q2, OH = 524, COQ = 696, BOQ = 0
Day 146 (5/26/2018): Receive order TY2-6-26 - qty 72 at Site = CDC_TAMPA, Product = B08B6C16Q2
Day 146 (5/26/2018): Create replen order SRC-CDC_TAMPA_B08B6C16Q2_34 Qty = 352 for Site = CDC_TAMPA, Product = B08B6C16Q2, OH = 524, POS = 1500, RP = 1200
Day 146 (5/26/2018): Ship order TY2-6-26 - qty 72 on time at Site = CDC_TAMPA, Product = B08B6C16Q2
Day 146 (5/26/2018): Collect statistics for Site = CDC_TAMPA, Product = B08B6C16Q2, OH = 452, COQ = 1048, BOQ = 0
Day 147 (5/27/2018): Receive order TY2-6-27 - qty 16 at Site = CDC_TAMPA, Product = B08B6C16Q2
Day 147 (5/27/2018): Ship order TY2-6-27 - qty 16 on time at Site = CDC_TAMPA, Product = B08B6C16Q2
Day 147 (5/27/2018): Collect statistics for Site = CDC_TAMPA, Product = B08B6C16Q2, OH = 436, COQ = 1048, BOQ = 0
Day 148 (5/28/2018): Receive replen order SRC-CDC_TAMPA_B08B6C16Q2_32 Qty 336 at Site = CDC_TAMPA, Product = B08B6C16Q2, OH = 772,  POS = 1484
Day 148 (5/28/2018): Receive order TY2-6-28 - qty 107 at Site = CDC_TAMPA, Product = B08B6C16Q2
Day 148 (5/28/2018): Ship order TY2-6-28 - qty 107 on time at Site = CDC_TAMPA, Product = B08B6C16Q2
Day 148 (5/28/2018): Collect statistics for Site = CDC_TAMPA, Product = B08B6C16Q2, OH = 665, COQ = 712, BOQ = 0
Day 149 (5/29/2018): Receive order TY2-6-29 - qty 138 at Site = CDC_TAMPA, Product = B08B6C16Q2
Day 149 (5/29/2018): Ship order TY2-6-29 - qty 138 on time at Site = CDC_TAMPA, Product = B08B6C16Q2
Day 149 (5/29/2018): Collect statistics for Site = CDC_TAMPA, Product = B08B6C16Q2, OH = 527, COQ = 712, BOQ = 0
Day 150 (5/30/2018): Receive order TY2-6-30 - qty 92 at Site = CDC_TAMPA, Product = B08B6C16Q2
Day 150 (5/30/2018): Create replen order SRC-CDC_TAMPA_B08B6C16Q2_35 Qty = 353 for Site = CDC_TAMPA, Product = B08B6C16Q2, OH = 527, POS = 1500, RP = 1200
Day 150 (5/30/2018): Ship order TY2-6-30 - qty 92 on time at Site = CDC_TAMPA, Product = B08B6C16Q2
Day 150 (5/30/2018): Collect statistics for Site = CDC_TAMPA, Product = B08B6C16Q2, OH = 435, COQ = 1065, BOQ = 0
Day 151 (5/31/2018): Receive order TY2-6-31 - qty 77 at Site = CDC_TAMPA, Product = B08B6C16Q2
Day 151 (5/31/2018): Ship order TY2-6-31 - qty 77 on time at Site = CDC_TAMPA, Product = B08B6C16Q2
Day 151 (5/31/2018): Collect statistics for Site = CDC_TAMPA, Product = B08B6C16Q2, OH = 358, COQ = 1065, BOQ = 0
Day 152 (6/1/2018): Update policy for Site = CDC_TAMPA, Product = B08B6C16Q2, (s,S), RP = 1200, RL = 1500, RT = 0
Day 152 (6/1/2018): Review inventory for Site = CDC_TAMPA, Product = B08B6C16Q2, OH = 358, POS = 1423, RP = 1200
Day 152 (6/1/2018): Receive replen order SRC-CDC_TAMPA_B08B6C16Q2_33 Qty 360 at Site = CDC_TAMPA, Product = B08B6C16Q2, OH = 718,  POS = 1423
Day 152 (6/1/2018): Receive order TY2-7-1 - qty 77 at Site = CDC_TAMPA, Product = B08B6C16Q2
Day 152 (6/1/2018): Ship order TY2-7-1 - qty 77 on time at Site = CDC_TAMPA, Product = B08B6C16Q2
Day 152 (6/1/2018): Collect statistics for Site = CDC_TAMPA, Product = B08B6C16Q2, OH = 641, COQ = 705, BOQ = 0
Day 153 (6/2/2018): Receive order TY2-7-2 - qty 80 at Site = CDC_TAMPA, Product = B08B6C16Q2
Day 153 (6/2/2018): Ship order TY2-7-2 - qty 80 on time at Site = CDC_TAMPA, Product = B08B6C16Q2
Day 153 (6/2/2018): Collect statistics for Site = CDC_TAMPA, Product = B08B6C16Q2, OH = 561, COQ = 705, BOQ = 0
Day 154 (6/3/2018): Receive order TY2-7-3 - qty 50 at Site = CDC_TAMPA, Product = B08B6C16Q2
Day 154 (6/3/2018): Ship order TY2-7-3 - qty 50 on time at Site = CDC_TAMPA, Product = B08B6C16Q2
Day 154 (6/3/2018): Collect statistics for Site = CDC_TAMPA, Product = B08B6C16Q2, OH = 511, COQ = 705, BOQ = 0
Day 155 (6/4/2018): Receive order TY2-7-4 - qty 66 at Site = CDC_TAMPA, Product = B08B6C16Q2
Day 155 (6/4/2018): Create replen order SRC-CDC_TAMPA_B08B6C16Q2_36 Qty = 350 for Site = CDC_TAMPA, Product = B08B6C16Q2, OH = 511, POS = 1500, RP = 1200
Day 155 (6/4/2018): Ship order TY2-7-4 - qty 66 on time at Site = CDC_TAMPA, Product = B08B6C16Q2
Day 155 (6/4/2018): Collect statistics for Site = CDC_TAMPA, Product = B08B6C16Q2, OH = 445, COQ = 1055, BOQ = 0
Day 156 (6/5/2018): Receive replen order SRC-CDC_TAMPA_B08B6C16Q2_34 Qty 352 at Site = CDC_TAMPA, Product = B08B6C16Q2, OH = 797,  POS = 1500
Day 156 (6/5/2018): Receive order TY2-7-5 - qty 54 at Site = CDC_TAMPA, Product = B08B6C16Q2
Day 156 (6/5/2018): Ship order TY2-7-5 - qty 54 on time at Site = CDC_TAMPA, Product = B08B6C16Q2
Day 156 (6/5/2018): Collect statistics for Site = CDC_TAMPA, Product = B08B6C16Q2, OH = 743, COQ = 703, BOQ = 0
Day 157 (6/6/2018): Receive order TY2-7-6 - qty 87 at Site = CDC_TAMPA, Product = B08B6C16Q2
Day 157 (6/6/2018): Ship order TY2-7-6 - qty 87 on time at Site = CDC_TAMPA, Product = B08B6C16Q2
Day 157 (6/6/2018): Collect statistics for Site = CDC_TAMPA, Product = B08B6C16Q2, OH = 656, COQ = 703, BOQ = 0
Day 158 (6/7/2018): Receive order TY2-7-7 - qty 72 at Site = CDC_TAMPA, Product = B08B6C16Q2
Day 158 (6/7/2018): Ship order TY2-7-7 - qty 72 on time at Site = CDC_TAMPA, Product = B08B6C16Q2
Day 158 (6/7/2018): Collect statistics for Site = CDC_TAMPA, Product = B08B6C16Q2, OH = 584, COQ = 703, BOQ = 0
Day 159 (6/8/2018): Receive order TY2-7-8 - qty 93 at Site = CDC_TAMPA, Product = B08B6C16Q2
Day 159 (6/8/2018): Create replen order SRC-CDC_TAMPA_B08B6C16Q2_37 Qty = 306 for Site = CDC_TAMPA, Product = B08B6C16Q2, OH = 584, POS = 1500, RP = 1200
Day 159 (6/8/2018): Ship order TY2-7-8 - qty 93 on time at Site = CDC_TAMPA, Product = B08B6C16Q2
Day 159 (6/8/2018): Collect statistics for Site = CDC_TAMPA, Product = B08B6C16Q2, OH = 491, COQ = 1009, BOQ = 0
Day 160 (6/9/2018): Receive replen order SRC-CDC_TAMPA_B08B6C16Q2_35 Qty 353 at Site = CDC_TAMPA, Product = B08B6C16Q2, OH = 844,  POS = 1500
Day 160 (6/9/2018): Receive order TY2-7-9 - qty 75 at Site = CDC_TAMPA, Product = B08B6C16Q2
Day 160 (6/9/2018): Ship order TY2-7-9 - qty 75 on time at Site = CDC_TAMPA, Product = B08B6C16Q2
Day 160 (6/9/2018): Collect statistics for Site = CDC_TAMPA, Product = B08B6C16Q2, OH = 769, COQ = 656, BOQ = 0
Day 161 (6/10/2018): Receive order TY2-7-10 - qty 106 at Site = CDC_TAMPA, Product = B08B6C16Q2
Day 161 (6/10/2018): Ship order TY2-7-10 - qty 106 on time at Site = CDC_TAMPA, Product = B08B6C16Q2
Day 161 (6/10/2018): Collect statistics for Site = CDC_TAMPA, Product = B08B6C16Q2, OH = 663, COQ = 656, BOQ = 0
Day 162 (6/11/2018): Receive order TY2-7-11 - qty 86 at Site = CDC_TAMPA, Product = B08B6C16Q2
Day 162 (6/11/2018): Ship order TY2-7-11 - qty 86 on time at Site = CDC_TAMPA, Product = B08B6C16Q2
Day 162 (6/11/2018): Collect statistics for Site = CDC_TAMPA, Product = B08B6C16Q2, OH = 577, COQ = 656, BOQ = 0
Day 163 (6/12/2018): Receive order TY2-7-12 - qty 138 at Site = CDC_TAMPA, Product = B08B6C16Q2
Day 163 (6/12/2018): Create replen order SRC-CDC_TAMPA_B08B6C16Q2_38 Qty = 405 for Site = CDC_TAMPA, Product = B08B6C16Q2, OH = 577, POS = 1500, RP = 1200
Day 163 (6/12/2018): Ship order TY2-7-12 - qty 138 on time at Site = CDC_TAMPA, Product = B08B6C16Q2
Day 163 (6/12/2018): Collect statistics for Site = CDC_TAMPA, Product = B08B6C16Q2, OH = 439, COQ = 1061, BOQ = 0
Day 164 (6/13/2018): Receive order TY2-7-13 - qty 30 at Site = CDC_TAMPA, Product = B08B6C16Q2
Day 164 (6/13/2018): Ship order TY2-7-13 - qty 30 on time at Site = CDC_TAMPA, Product = B08B6C16Q2
Day 164 (6/13/2018): Collect statistics for Site = CDC_TAMPA, Product = B08B6C16Q2, OH = 409, COQ = 1061, BOQ = 0
Day 165 (6/14/2018): Receive replen order SRC-CDC_TAMPA_B08B6C16Q2_36 Qty 350 at Site = CDC_TAMPA, Product = B08B6C16Q2, OH = 759,  POS = 1470
Day 165 (6/14/2018): Receive order TY2-7-14 - qty 63 at Site = CDC_TAMPA, Product = B08B6C16Q2
Day 165 (6/14/2018): Ship order TY2-7-14 - qty 63 on time at Site = CDC_TAMPA, Product = B08B6C16Q2
Day 165 (6/14/2018): Collect statistics for Site = CDC_TAMPA, Product = B08B6C16Q2, OH = 696, COQ = 711, BOQ = 0
Day 166 (6/15/2018): Receive order TY2-7-15 - qty 104 at Site = CDC_TAMPA, Product = B08B6C16Q2
Day 166 (6/15/2018): Ship order TY2-7-15 - qty 104 on time at Site = CDC_TAMPA, Product = B08B6C16Q2
Day 166 (6/15/2018): Collect statistics for Site = CDC_TAMPA, Product = B08B6C16Q2, OH = 592, COQ = 711, BOQ = 0
Day 167 (6/16/2018): Receive order TY2-7-16 - qty 147 at Site = CDC_TAMPA, Product = B08B6C16Q2
Day 167 (6/16/2018): Create replen order SRC-CDC_TAMPA_B08B6C16Q2_39 Qty = 344 for Site = CDC_TAMPA, Product = B08B6C16Q2, OH = 592, POS = 1500, RP = 1200
Day 167 (6/16/2018): Ship order TY2-7-16 - qty 147 on time at Site = CDC_TAMPA, Product = B08B6C16Q2
Day 167 (6/16/2018): Collect statistics for Site = CDC_TAMPA, Product = B08B6C16Q2, OH = 445, COQ = 1055, BOQ = 0
Day 168 (6/17/2018): Receive order TY2-7-17 - qty 73 at Site = CDC_TAMPA, Product = B08B6C16Q2
Day 168 (6/17/2018): Ship order TY2-7-17 - qty 73 on time at Site = CDC_TAMPA, Product = B08B6C16Q2
Day 168 (6/17/2018): Collect statistics for Site = CDC_TAMPA, Product = B08B6C16Q2, OH = 372, COQ = 1055, BOQ = 0
Day 169 (6/18/2018): Receive replen order SRC-CDC_TAMPA_B08B6C16Q2_37 Qty 306 at Site = CDC_TAMPA, Product = B08B6C16Q2, OH = 678,  POS = 1427
Day 169 (6/18/2018): Receive order TY2-7-18 - qty 81 at Site = CDC_TAMPA, Product = B08B6C16Q2
Day 169 (6/18/2018): Ship order TY2-7-18 - qty 81 on time at Site = CDC_TAMPA, Product = B08B6C16Q2
Day 169 (6/18/2018): Collect statistics for Site = CDC_TAMPA, Product = B08B6C16Q2, OH = 597, COQ = 749, BOQ = 0
Day 170 (6/19/2018): Receive order TY2-7-19 - qty 74 at Site = CDC_TAMPA, Product = B08B6C16Q2
Day 170 (6/19/2018): Ship order TY2-7-19 - qty 74 on time at Site = CDC_TAMPA, Product = B08B6C16Q2
Day 170 (6/19/2018): Collect statistics for Site = CDC_TAMPA, Product = B08B6C16Q2, OH = 523, COQ = 749, BOQ = 0
Day 171 (6/20/2018): Receive order TY2-7-20 - qty 115 at Site = CDC_TAMPA, Product = B08B6C16Q2
Day 171 (6/20/2018): Create replen order SRC-CDC_TAMPA_B08B6C16Q2_40 Qty = 343 for Site = CDC_TAMPA, Product = B08B6C16Q2, OH = 523, POS = 1500, RP = 1200
Day 171 (6/20/2018): Ship order TY2-7-20 - qty 115 on time at Site = CDC_TAMPA, Product = B08B6C16Q2
Day 171 (6/20/2018): Collect statistics for Site = CDC_TAMPA, Product = B08B6C16Q2, OH = 408, COQ = 1092, BOQ = 0
Day 172 (6/21/2018): Receive order TY2-7-21 - qty 72 at Site = CDC_TAMPA, Product = B08B6C16Q2
Day 172 (6/21/2018): Ship order TY2-7-21 - qty 72 on time at Site = CDC_TAMPA, Product = B08B6C16Q2
Day 172 (6/21/2018): Collect statistics for Site = CDC_TAMPA, Product = B08B6C16Q2, OH = 336, COQ = 1092, BOQ = 0
Day 173 (6/22/2018): Receive replen order SRC-CDC_TAMPA_B08B6C16Q2_38 Qty 405 at Site = CDC_TAMPA, Product = B08B6C16Q2, OH = 741,  POS = 1428
Day 173 (6/22/2018): Receive order TY2-7-22 - qty 98 at Site = CDC_TAMPA, Product = B08B6C16Q2
Day 173 (6/22/2018): Ship order TY2-7-22 - qty 98 on time at Site = CDC_TAMPA, Product = B08B6C16Q2
Day 173 (6/22/2018): Collect statistics for Site = CDC_TAMPA, Product = B08B6C16Q2, OH = 643, COQ = 687, BOQ = 0
Day 174 (6/23/2018): Receive order TY2-7-23 - qty 72 at Site = CDC_TAMPA, Product = B08B6C16Q2
Day 174 (6/23/2018): Ship order TY2-7-23 - qty 72 on time at Site = CDC_TAMPA, Product = B08B6C16Q2
Day 174 (6/23/2018): Collect statistics for Site = CDC_TAMPA, Product = B08B6C16Q2, OH = 571, COQ = 687, BOQ = 0
Day 175 (6/24/2018): Receive order TY2-7-24 - qty 46 at Site = CDC_TAMPA, Product = B08B6C16Q2
Day 175 (6/24/2018): Ship order TY2-7-24 - qty 46 on time at Site = CDC_TAMPA, Product = B08B6C16Q2
Day 175 (6/24/2018): Collect statistics for Site = CDC_TAMPA, Product = B08B6C16Q2, OH = 525, COQ = 687, BOQ = 0
Day 176 (6/25/2018): Receive order TY2-7-25 - qty 88 at Site = CDC_TAMPA, Product = B08B6C16Q2
Day 176 (6/25/2018): Create replen order SRC-CDC_TAMPA_B08B6C16Q2_41 Qty = 376 for Site = CDC_TAMPA, Product = B08B6C16Q2, OH = 525, POS = 1500, RP = 1200
Day 176 (6/25/2018): Ship order TY2-7-25 - qty 88 on time at Site = CDC_TAMPA, Product = B08B6C16Q2
Day 176 (6/25/2018): Collect statistics for Site = CDC_TAMPA, Product = B08B6C16Q2, OH = 437, COQ = 1063, BOQ = 0
Day 177 (6/26/2018): Receive replen order SRC-CDC_TAMPA_B08B6C16Q2_39 Qty 344 at Site = CDC_TAMPA, Product = B08B6C16Q2, OH = 781,  POS = 1500
Day 177 (6/26/2018): Receive order TY2-7-26 - qty 93 at Site = CDC_TAMPA, Product = B08B6C16Q2
Day 177 (6/26/2018): Ship order TY2-7-26 - qty 93 on time at Site = CDC_TAMPA, Product = B08B6C16Q2
Day 177 (6/26/2018): Collect statistics for Site = CDC_TAMPA, Product = B08B6C16Q2, OH = 688, COQ = 719, BOQ = 0
Day 178 (6/27/2018): Receive order TY2-7-27 - qty 114 at Site = CDC_TAMPA, Product = B08B6C16Q2
Day 178 (6/27/2018): Ship order TY2-7-27 - qty 114 on time at Site = CDC_TAMPA, Product = B08B6C16Q2
Day 178 (6/27/2018): Collect statistics for Site = CDC_TAMPA, Product = B08B6C16Q2, OH = 574, COQ = 719, BOQ = 0
Day 179 (6/28/2018): Receive order TY2-7-28 - qty 77 at Site = CDC_TAMPA, Product = B08B6C16Q2
Day 179 (6/28/2018): Ship order TY2-7-28 - qty 77 on time at Site = CDC_TAMPA, Product = B08B6C16Q2
Day 179 (6/28/2018): Collect statistics for Site = CDC_TAMPA, Product = B08B6C16Q2, OH = 497, COQ = 719, BOQ = 0
Day 180 (6/29/2018): Receive order TY2-7-29 - qty 64 at Site = CDC_TAMPA, Product = B08B6C16Q2
Day 180 (6/29/2018): Create replen order SRC-CDC_TAMPA_B08B6C16Q2_42 Qty = 348 for Site = CDC_TAMPA, Product = B08B6C16Q2, OH = 497, POS = 1500, RP = 1200
Day 180 (6/29/2018): Ship order TY2-7-29 - qty 64 on time at Site = CDC_TAMPA, Product = B08B6C16Q2
Day 180 (6/29/2018): Collect statistics for Site = CDC_TAMPA, Product = B08B6C16Q2, OH = 433, COQ = 1067, BOQ = 0
Day 181 (6/30/2018): Receive replen order SRC-CDC_TAMPA_B08B6C16Q2_40 Qty 343 at Site = CDC_TAMPA, Product = B08B6C16Q2, OH = 776,  POS = 1500
Day 181 (6/30/2018): Receive order TY2-7-30 - qty 95 at Site = CDC_TAMPA, Product = B08B6C16Q2
Day 181 (6/30/2018): Ship order TY2-7-30 - qty 95 on time at Site = CDC_TAMPA, Product = B08B6C16Q2
Day 181 (6/30/2018): Collect statistics for Site = CDC_TAMPA, Product = B08B6C16Q2, OH = 681, COQ = 724, BOQ = 0
Day 182 (7/1/2018): Collect statistics for Site = CDC_TAMPA, Product = B08B6C16Q2, OH = 681, COQ = 724, BOQ = 0
Day 181 (6/30/2018): End simulation run with success in 0.497 seconds
