Model Version: 1.0.0
Scenario: Scenario 1 - Single Site, Single Product
Run Length: 364 days starting on 1/1/2018 including 0 warm up days
Day 1 (1/1/2018): Begin simulation run.
Day 4 (1/4/2018): Create new Inventory Policy for Site = CDC_Tampa, Product = B07HNLBZ4Y
Day 4 (1/4/2018): Update policy for Site = CDC_Tampa, Product = B07HNLBZ4Y, (T,S), RP = 5000, RL = 5000, RT = 10
Day 4 (1/4/2018): Review inventory for Site = CDC_Tampa, Product = B07HNLBZ4Y, OH = 5000, POS = 5000, RP = 5000
Day 4 (1/4/2018): Receive order 29374414 - qty 500 at Site = CDC_Tampa, Product = B07HNLBZ4Y
Day 4 (1/4/2018): Ship order 29374414 - qty 500 on time at Site = CDC_Tampa, Product = B07HNLBZ4Y
Day 4 (1/4/2018): Collect statistics for Site = CDC_Tampa, Product = B07HNLBZ4Y, OH = 4500, COQ = 0, BOQ = 0
Day 5 (1/5/2018): Collect statistics for Site = CDC_Tampa, Product = B07HNLBZ4Y, OH = 4500, COQ = 0, BOQ = 0
Day 6 (1/6/2018): Receive order 29374217 - qty 500 at Site = CDC_Tampa, Product = B07HNLBZ4Y
Day 6 (1/6/2018): Ship order 29374217 - qty 500 on time at Site = CDC_Tampa, Product = B07HNLBZ4Y
Day 6 (1/6/2018): Collect statistics for Site = CDC_Tampa, Product = B07HNLBZ4Y, OH = 4000, COQ = 0, BOQ = 0
Day 7 (1/7/2018): Receive order 29374640 - qty 3000 at Site = CDC_Tampa, Product = B07HNLBZ4Y
Day 7 (1/7/2018): Ship order 29374640 - qty 3000 on time at Site = CDC_Tampa, Product = B07HNLBZ4Y
Day 7 (1/7/2018): Collect statistics for Site = CDC_Tampa, Product = B07HNLBZ4Y, OH = 1000, COQ = 0, BOQ = 0
Day 8 (1/8/2018): Receive order 29373506 - qty 500 at Site = CDC_Tampa, Product = B07HNLBZ4Y
Day 8 (1/8/2018): Ship order 29373506 - qty 500 on time at Site = CDC_Tampa, Product = B07HNLBZ4Y
Day 8 (1/8/2018): Collect statistics for Site = CDC_Tampa, Product = B07HNLBZ4Y, OH = 500, COQ = 0, BOQ = 0
Day 9 (1/9/2018): Collect statistics for Site = CDC_Tampa, Product = B07HNLBZ4Y, OH = 500, COQ = 0, BOQ = 0
Day 10 (1/10/2018): Receive order 29374218 - qty 500 at Site = CDC_Tampa, Product = B07HNLBZ4Y
Day 10 (1/10/2018): Ship order 29374218 - qty 500 on time at Site = CDC_Tampa, Product = B07HNLBZ4Y
Day 10 (1/10/2018): Collect statistics for Site = CDC_Tampa, Product = B07HNLBZ4Y, OH = 0, COQ = 0, BOQ = 0
Day 11 (1/11/2018): Collect statistics for Site = CDC_Tampa, Product = B07HNLBZ4Y, OH = 0, COQ = 0, BOQ = 0
Day 12 (1/12/2018): Receive order 29374415 - qty 500 at Site = CDC_Tampa, Product = B07HNLBZ4Y
Day 12 (1/12/2018): Backorder order 29374415 - qty 500 at Site = CDC_Tampa, Product = B07HNLBZ4Y
Day 12 (1/12/2018): Collect statistics for Site = CDC_Tampa, Product = B07HNLBZ4Y, OH = 0, COQ = 0, BOQ = 500
Day 13 (1/13/2018): Review inventory for Site = CDC_Tampa, Product = B07HNLBZ4Y, OH = 0, POS = -500, RP = 5000
Day 13 (1/13/2018): Create replen order SRC-CDC_Tampa_B07HNLBZ4Y_1 Qty = 5500 for Site = CDC_Tampa, Product = B07HNLBZ4Y, OH = 0, POS = 5000, RP = 5000
Day 13 (1/13/2018): Collect statistics for Site = CDC_Tampa, Product = B07HNLBZ4Y, OH = 0, COQ = 5500, BOQ = 500
Day 14 (1/14/2018): Receive order 29374219 - qty 500 at Site = CDC_Tampa, Product = B07HNLBZ4Y
Day 14 (1/14/2018): Queue order 29374219 - qty 500 at Site = CDC_Tampa, Product = B07HNLBZ4Y
Day 14 (1/14/2018): Collect statistics for Site = CDC_Tampa, Product = B07HNLBZ4Y, OH = 0, COQ = 5500, BOQ = 1000
Day 15 (1/15/2018): Receive order 29374641 - qty 3000 at Site = CDC_Tampa, Product = B07HNLBZ4Y
Day 15 (1/15/2018): Queue order 29374641 - qty 3000 at Site = CDC_Tampa, Product = B07HNLBZ4Y
Day 15 (1/15/2018): Collect statistics for Site = CDC_Tampa, Product = B07HNLBZ4Y, OH = 0, COQ = 5500, BOQ = 4000
Day 16 (1/16/2018): Receive order 29374642 - qty 500 at Site = CDC_Tampa, Product = B07HNLBZ4Y
Day 16 (1/16/2018): Queue order 29374642 - qty 500 at Site = CDC_Tampa, Product = B07HNLBZ4Y
Day 16 (1/16/2018): Collect statistics for Site = CDC_Tampa, Product = B07HNLBZ4Y, OH = 0, COQ = 5500, BOQ = 4500
Day 17 (1/17/2018): Collect statistics for Site = CDC_Tampa, Product = B07HNLBZ4Y, OH = 0, COQ = 5500, BOQ = 4500
Day 18 (1/18/2018): Receive order 29374643 - qty 500 at Site = CDC_Tampa, Product = B07HNLBZ4Y
Day 18 (1/18/2018): Queue order 29374643 - qty 500 at Site = CDC_Tampa, Product = B07HNLBZ4Y
Day 18 (1/18/2018): Collect statistics for Site = CDC_Tampa, Product = B07HNLBZ4Y, OH = 0, COQ = 5500, BOQ = 5000
Day 19 (1/19/2018): Collect statistics for Site = CDC_Tampa, Product = B07HNLBZ4Y, OH = 0, COQ = 5500, BOQ = 5000
Day 20 (1/20/2018): Receive order 29374644 - qty 500 at Site = CDC_Tampa, Product = B07HNLBZ4Y
Day 20 (1/20/2018): Queue order 29374644 - qty 500 at Site = CDC_Tampa, Product = B07HNLBZ4Y
Day 20 (1/20/2018): Collect statistics for Site = CDC_Tampa, Product = B07HNLBZ4Y, OH = 0, COQ = 5500, BOQ = 5500
Day 21 (1/21/2018): Collect statistics for Site = CDC_Tampa, Product = B07HNLBZ4Y, OH = 0, COQ = 5500, BOQ = 5500
Day 22 (1/22/2018): Receive order 29374645 - qty 500 at Site = CDC_Tampa, Product = B07HNLBZ4Y
Day 22 (1/22/2018): Queue order 29374645 - qty 500 at Site = CDC_Tampa, Product = B07HNLBZ4Y
Day 22 (1/22/2018): Collect statistics for Site = CDC_Tampa, Product = B07HNLBZ4Y, OH = 0, COQ = 5500, BOQ = 6000
Day 23 (1/23/2018): Receive replen order SRC-CDC_Tampa_B07HNLBZ4Y_1 Qty 5500 at Site = CDC_Tampa, Product = B07HNLBZ4Y, OH = 5500,  POS = -500
Day 23 (1/23/2018): Ship order 29374415 - qty 500 late at Site = CDC_Tampa, Product = B07HNLBZ4Y
Day 23 (1/23/2018): Unqueue order 29374219 - qty 500 at Site = CDC_Tampa, Product = B07HNLBZ4Y
Day 23 (1/23/2018): Ship order 29374219 - qty 500 late at Site = CDC_Tampa, Product = B07HNLBZ4Y
Day 23 (1/23/2018): Unqueue order 29374641 - qty 3000 at Site = CDC_Tampa, Product = B07HNLBZ4Y
Day 23 (1/23/2018): Ship order 29374641 - qty 3000 late at Site = CDC_Tampa, Product = B07HNLBZ4Y
Day 23 (1/23/2018): Unqueue order 29374642 - qty 500 at Site = CDC_Tampa, Product = B07HNLBZ4Y
Day 23 (1/23/2018): Ship order 29374642 - qty 500 late at Site = CDC_Tampa, Product = B07HNLBZ4Y
Day 23 (1/23/2018): Unqueue order 29374643 - qty 500 at Site = CDC_Tampa, Product = B07HNLBZ4Y
Day 23 (1/23/2018): Ship order 29374643 - qty 500 late at Site = CDC_Tampa, Product = B07HNLBZ4Y
Day 23 (1/23/2018): Unqueue order 29374644 - qty 500 at Site = CDC_Tampa, Product = B07HNLBZ4Y
Day 23 (1/23/2018): Ship order 29374644 - qty 500 on time at Site = CDC_Tampa, Product = B07HNLBZ4Y
Day 23 (1/23/2018): Unqueue order 29374645 - qty 500 at Site = CDC_Tampa, Product = B07HNLBZ4Y
Day 23 (1/23/2018): Backorder order 29374645 - qty 500 at Site = CDC_Tampa, Product = B07HNLBZ4Y
Day 23 (1/23/2018): Review inventory for Site = CDC_Tampa, Product = B07HNLBZ4Y, OH = 0, POS = -500, RP = 5000
Day 23 (1/23/2018): Create replen order SRC-CDC_Tampa_B07HNLBZ4Y_2 Qty = 5500 for Site = CDC_Tampa, Product = B07HNLBZ4Y, OH = 0, POS = 5000, RP = 5000
Day 23 (1/23/2018): Collect statistics for Site = CDC_Tampa, Product = B07HNLBZ4Y, OH = 0, COQ = 5500, BOQ = 500
Day 24 (1/24/2018): Receive order 29374646 - qty 500 at Site = CDC_Tampa, Product = B07HNLBZ4Y
Day 24 (1/24/2018): Queue order 29374646 - qty 500 at Site = CDC_Tampa, Product = B07HNLBZ4Y
Day 24 (1/24/2018): Collect statistics for Site = CDC_Tampa, Product = B07HNLBZ4Y, OH = 0, COQ = 5500, BOQ = 1000
Day 25 (1/25/2018): Collect statistics for Site = CDC_Tampa, Product = B07HNLBZ4Y, OH = 0, COQ = 5500, BOQ = 1000
Day 26 (1/26/2018): Receive order 29374647 - qty 500 at Site = CDC_Tampa, Product = B07HNLBZ4Y
Day 26 (1/26/2018): Queue order 29374647 - qty 500 at Site = CDC_Tampa, Product = B07HNLBZ4Y
Day 26 (1/26/2018): Collect statistics for Site = CDC_Tampa, Product = B07HNLBZ4Y, OH = 0, COQ = 5500, BOQ = 1500
Day 27 (1/27/2018): Collect statistics for Site = CDC_Tampa, Product = B07HNLBZ4Y, OH = 0, COQ = 5500, BOQ = 1500
Day 28 (1/28/2018): Receive order 29374648 - qty 500 at Site = CDC_Tampa, Product = B07HNLBZ4Y
Day 28 (1/28/2018): Queue order 29374648 - qty 500 at Site = CDC_Tampa, Product = B07HNLBZ4Y
Day 28 (1/28/2018): Collect statistics for Site = CDC_Tampa, Product = B07HNLBZ4Y, OH = 0, COQ = 5500, BOQ = 2000
Day 29 (1/29/2018): Collect statistics for Site = CDC_Tampa, Product = B07HNLBZ4Y, OH = 0, COQ = 5500, BOQ = 2000
Day 30 (1/30/2018): Receive order 29374649 - qty 500 at Site = CDC_Tampa, Product = B07HNLBZ4Y
Day 30 (1/30/2018): Queue order 29374649 - qty 500 at Site = CDC_Tampa, Product = B07HNLBZ4Y
Day 30 (1/30/2018): Collect statistics for Site = CDC_Tampa, Product = B07HNLBZ4Y, OH = 0, COQ = 5500, BOQ = 2500
Day 31 (1/31/2018): Collect statistics for Site = CDC_Tampa, Product = B07HNLBZ4Y, OH = 0, COQ = 5500, BOQ = 2500
Day 32 (2/1/2018): Receive order 29374650 - qty 500 at Site = CDC_Tampa, Product = B07HNLBZ4Y
Day 32 (2/1/2018): Queue order 29374650 - qty 500 at Site = CDC_Tampa, Product = B07HNLBZ4Y
Day 32 (2/1/2018): Collect statistics for Site = CDC_Tampa, Product = B07HNLBZ4Y, OH = 0, COQ = 5500, BOQ = 3000
Day 33 (2/2/2018): Receive replen order SRC-CDC_Tampa_B07HNLBZ4Y_2 Qty 5500 at Site = CDC_Tampa, Product = B07HNLBZ4Y, OH = 5500,  POS = 2500
Day 33 (2/2/2018): Ship order 29374645 - qty 500 late at Site = CDC_Tampa, Product = B07HNLBZ4Y
Day 33 (2/2/2018): Unqueue order 29374646 - qty 500 at Site = CDC_Tampa, Product = B07HNLBZ4Y
Day 33 (2/2/2018): Ship order 29374646 - qty 500 late at Site = CDC_Tampa, Product = B07HNLBZ4Y
Day 33 (2/2/2018): Unqueue order 29374647 - qty 500 at Site = CDC_Tampa, Product = B07HNLBZ4Y
Day 33 (2/2/2018): Ship order 29374647 - qty 500 late at Site = CDC_Tampa, Product = B07HNLBZ4Y
Day 33 (2/2/2018): Unqueue order 29374648 - qty 500 at Site = CDC_Tampa, Product = B07HNLBZ4Y
Day 33 (2/2/2018): Ship order 29374648 - qty 500 late at Site = CDC_Tampa, Product = B07HNLBZ4Y
Day 33 (2/2/2018): Unqueue order 29374649 - qty 500 at Site = CDC_Tampa, Product = B07HNLBZ4Y
Day 33 (2/2/2018): Ship order 29374649 - qty 500 on time at Site = CDC_Tampa, Product = B07HNLBZ4Y
Day 33 (2/2/2018): Unqueue order 29374650 - qty 500 at Site = CDC_Tampa, Product = B07HNLBZ4Y
Day 33 (2/2/2018): Ship order 29374650 - qty 500 on time at Site = CDC_Tampa, Product = B07HNLBZ4Y
Day 33 (2/2/2018): Review inventory for Site = CDC_Tampa, Product = B07HNLBZ4Y, OH = 2500, POS = 2500, RP = 5000
Day 33 (2/2/2018): Create replen order SRC-CDC_Tampa_B07HNLBZ4Y_3 Qty = 2500 for Site = CDC_Tampa, Product = B07HNLBZ4Y, OH = 2500, POS = 5000, RP = 5000
Day 33 (2/2/2018): Collect statistics for Site = CDC_Tampa, Product = B07HNLBZ4Y, OH = 2500, COQ = 2500, BOQ = 0
Day 34 (2/3/2018): Receive order 29374651 - qty 500 at Site = CDC_Tampa, Product = B07HNLBZ4Y
Day 34 (2/3/2018): Ship order 29374651 - qty 500 on time at Site = CDC_Tampa, Product = B07HNLBZ4Y
Day 34 (2/3/2018): Collect statistics for Site = CDC_Tampa, Product = B07HNLBZ4Y, OH = 2000, COQ = 2500, BOQ = 0
Day 35 (2/4/2018): Collect statistics for Site = CDC_Tampa, Product = B07HNLBZ4Y, OH = 2000, COQ = 2500, BOQ = 0
Day 36 (2/5/2018): Receive order 29374652 - qty 500 at Site = CDC_Tampa, Product = B07HNLBZ4Y
Day 36 (2/5/2018): Ship order 29374652 - qty 500 on time at Site = CDC_Tampa, Product = B07HNLBZ4Y
Day 36 (2/5/2018): Collect statistics for Site = CDC_Tampa, Product = B07HNLBZ4Y, OH = 1500, COQ = 2500, BOQ = 0
Day 37 (2/6/2018): Collect statistics for Site = CDC_Tampa, Product = B07HNLBZ4Y, OH = 1500, COQ = 2500, BOQ = 0
Day 38 (2/7/2018): Receive order 29374653 - qty 500 at Site = CDC_Tampa, Product = B07HNLBZ4Y
Day 38 (2/7/2018): Ship order 29374653 - qty 500 on time at Site = CDC_Tampa, Product = B07HNLBZ4Y
Day 38 (2/7/2018): Receive order 29374654 - qty 3000 at Site = CDC_Tampa, Product = B07HNLBZ4Y
Day 38 (2/7/2018): Backorder order 29374654 - qty 3000 at Site = CDC_Tampa, Product = B07HNLBZ4Y
Day 38 (2/7/2018): Collect statistics for Site = CDC_Tampa, Product = B07HNLBZ4Y, OH = 1000, COQ = 2500, BOQ = 2000
Day 39 (2/8/2018): Collect statistics for Site = CDC_Tampa, Product = B07HNLBZ4Y, OH = 1000, COQ = 2500, BOQ = 2000
Day 40 (2/9/2018): Receive order 29374655 - qty 500 at Site = CDC_Tampa, Product = B07HNLBZ4Y
Day 40 (2/9/2018): Queue order 29374655 - qty 500 at Site = CDC_Tampa, Product = B07HNLBZ4Y
Day 40 (2/9/2018): Collect statistics for Site = CDC_Tampa, Product = B07HNLBZ4Y, OH = 1000, COQ = 2500, BOQ = 2500
Day 41 (2/10/2018): Collect statistics for Site = CDC_Tampa, Product = B07HNLBZ4Y, OH = 1000, COQ = 2500, BOQ = 2500
Day 42 (2/11/2018): Receive order 29374656 - qty 500 at Site = CDC_Tampa, Product = B07HNLBZ4Y
Day 42 (2/11/2018): Queue order 29374656 - qty 500 at Site = CDC_Tampa, Product = B07HNLBZ4Y
Day 42 (2/11/2018): Collect statistics for Site = CDC_Tampa, Product = B07HNLBZ4Y, OH = 1000, COQ = 2500, BOQ = 3000
Day 43 (2/12/2018): Receive replen order SRC-CDC_Tampa_B07HNLBZ4Y_3 Qty 2500 at Site = CDC_Tampa, Product = B07HNLBZ4Y, OH = 3500,  POS = -500
Day 43 (2/12/2018): Ship order 29374654 - qty 3000 on time at Site = CDC_Tampa, Product = B07HNLBZ4Y
Day 43 (2/12/2018): Unqueue order 29374655 - qty 500 at Site = CDC_Tampa, Product = B07HNLBZ4Y
Day 43 (2/12/2018): Ship order 29374655 - qty 500 on time at Site = CDC_Tampa, Product = B07HNLBZ4Y
Day 43 (2/12/2018): Unqueue order 29374656 - qty 500 at Site = CDC_Tampa, Product = B07HNLBZ4Y
Day 43 (2/12/2018): Backorder order 29374656 - qty 500 at Site = CDC_Tampa, Product = B07HNLBZ4Y
Day 43 (2/12/2018): Review inventory for Site = CDC_Tampa, Product = B07HNLBZ4Y, OH = 0, POS = -500, RP = 5000
Day 43 (2/12/2018): Create replen order SRC-CDC_Tampa_B07HNLBZ4Y_4 Qty = 5500 for Site = CDC_Tampa, Product = B07HNLBZ4Y, OH = 0, POS = 5000, RP = 5000
Day 43 (2/12/2018): Collect statistics for Site = CDC_Tampa, Product = B07HNLBZ4Y, OH = 0, COQ = 5500, BOQ = 500
Day 44 (2/13/2018): Receive order 29374657 - qty 500 at Site = CDC_Tampa, Product = B07HNLBZ4Y
Day 44 (2/13/2018): Queue order 29374657 - qty 500 at Site = CDC_Tampa, Product = B07HNLBZ4Y
Day 44 (2/13/2018): Collect statistics for Site = CDC_Tampa, Product = B07HNLBZ4Y, OH = 0, COQ = 5500, BOQ = 1000
Day 45 (2/14/2018): Collect statistics for Site = CDC_Tampa, Product = B07HNLBZ4Y, OH = 0, COQ = 5500, BOQ = 1000
Day 46 (2/15/2018): Receive order 29374658 - qty 500 at Site = CDC_Tampa, Product = B07HNLBZ4Y
Day 46 (2/15/2018): Queue order 29374658 - qty 500 at Site = CDC_Tampa, Product = B07HNLBZ4Y
Day 46 (2/15/2018): Receive order 29374659 - qty 3000 at Site = CDC_Tampa, Product = B07HNLBZ4Y
Day 46 (2/15/2018): Queue order 29374659 - qty 3000 at Site = CDC_Tampa, Product = B07HNLBZ4Y
Day 46 (2/15/2018): Collect statistics for Site = CDC_Tampa, Product = B07HNLBZ4Y, OH = 0, COQ = 5500, BOQ = 4500
Day 47 (2/16/2018): Collect statistics for Site = CDC_Tampa, Product = B07HNLBZ4Y, OH = 0, COQ = 5500, BOQ = 4500
Day 48 (2/17/2018): Receive order 29374660 - qty 500 at Site = CDC_Tampa, Product = B07HNLBZ4Y
Day 48 (2/17/2018): Queue order 29374660 - qty 500 at Site = CDC_Tampa, Product = B07HNLBZ4Y
Day 48 (2/17/2018): Collect statistics for Site = CDC_Tampa, Product = B07HNLBZ4Y, OH = 0, COQ = 5500, BOQ = 5000
Day 49 (2/18/2018): Collect statistics for Site = CDC_Tampa, Product = B07HNLBZ4Y, OH = 0, COQ = 5500, BOQ = 5000
Day 50 (2/19/2018): Receive order 29374661 - qty 500 at Site = CDC_Tampa, Product = B07HNLBZ4Y
Day 50 (2/19/2018): Queue order 29374661 - qty 500 at Site = CDC_Tampa, Product = B07HNLBZ4Y
Day 50 (2/19/2018): Collect statistics for Site = CDC_Tampa, Product = B07HNLBZ4Y, OH = 0, COQ = 5500, BOQ = 5500
Day 51 (2/20/2018): Collect statistics for Site = CDC_Tampa, Product = B07HNLBZ4Y, OH = 0, COQ = 5500, BOQ = 5500
Day 52 (2/21/2018): Receive order 29374662 - qty 500 at Site = CDC_Tampa, Product = B07HNLBZ4Y
Day 52 (2/21/2018): Queue order 29374662 - qty 500 at Site = CDC_Tampa, Product = B07HNLBZ4Y
Day 52 (2/21/2018): Collect statistics for Site = CDC_Tampa, Product = B07HNLBZ4Y, OH = 0, COQ = 5500, BOQ = 6000
Day 53 (2/22/2018): Receive replen order SRC-CDC_Tampa_B07HNLBZ4Y_4 Qty 5500 at Site = CDC_Tampa, Product = B07HNLBZ4Y, OH = 5500,  POS = -500
Day 53 (2/22/2018): Ship order 29374656 - qty 500 late at Site = CDC_Tampa, Product = B07HNLBZ4Y
Day 53 (2/22/2018): Unqueue order 29374657 - qty 500 at Site = CDC_Tampa, Product = B07HNLBZ4Y
Day 53 (2/22/2018): Ship order 29374657 - qty 500 late at Site = CDC_Tampa, Product = B07HNLBZ4Y
Day 53 (2/22/2018): Unqueue order 29374658 - qty 500 at Site = CDC_Tampa, Product = B07HNLBZ4Y
Day 53 (2/22/2018): Ship order 29374658 - qty 500 late at Site = CDC_Tampa, Product = B07HNLBZ4Y
Day 53 (2/22/2018): Unqueue order 29374659 - qty 3000 at Site = CDC_Tampa, Product = B07HNLBZ4Y
Day 53 (2/22/2018): Ship order 29374659 - qty 3000 on time at Site = CDC_Tampa, Product = B07HNLBZ4Y
Day 53 (2/22/2018): Unqueue order 29374660 - qty 500 at Site = CDC_Tampa, Product = B07HNLBZ4Y
Day 53 (2/22/2018): Ship order 29374660 - qty 500 late at Site = CDC_Tampa, Product = B07HNLBZ4Y
Day 53 (2/22/2018): Unqueue order 29374661 - qty 500 at Site = CDC_Tampa, Product = B07HNLBZ4Y
Day 53 (2/22/2018): Ship order 29374661 - qty 500 on time at Site = CDC_Tampa, Product = B07HNLBZ4Y
Day 53 (2/22/2018): Unqueue order 29374662 - qty 500 at Site = CDC_Tampa, Product = B07HNLBZ4Y
Day 53 (2/22/2018): Backorder order 29374662 - qty 500 at Site = CDC_Tampa, Product = B07HNLBZ4Y
Day 53 (2/22/2018): Review inventory for Site = CDC_Tampa, Product = B07HNLBZ4Y, OH = 0, POS = -500, RP = 5000
Day 53 (2/22/2018): Create replen order SRC-CDC_Tampa_B07HNLBZ4Y_5 Qty = 5500 for Site = CDC_Tampa, Product = B07HNLBZ4Y, OH = 0, POS = 5000, RP = 5000
Day 53 (2/22/2018): Collect statistics for Site = CDC_Tampa, Product = B07HNLBZ4Y, OH = 0, COQ = 5500, BOQ = 500
Day 54 (2/23/2018): Receive order 29374663 - qty 500 at Site = CDC_Tampa, Product = B07HNLBZ4Y
Day 54 (2/23/2018): Queue order 29374663 - qty 500 at Site = CDC_Tampa, Product = B07HNLBZ4Y
Day 54 (2/23/2018): Collect statistics for Site = CDC_Tampa, Product = B07HNLBZ4Y, OH = 0, COQ = 5500, BOQ = 1000
Day 55 (2/24/2018): Collect statistics for Site = CDC_Tampa, Product = B07HNLBZ4Y, OH = 0, COQ = 5500, BOQ = 1000
Day 56 (2/25/2018): Receive order 29374664 - qty 500 at Site = CDC_Tampa, Product = B07HNLBZ4Y
Day 56 (2/25/2018): Queue order 29374664 - qty 500 at Site = CDC_Tampa, Product = B07HNLBZ4Y
Day 56 (2/25/2018): Collect statistics for Site = CDC_Tampa, Product = B07HNLBZ4Y, OH = 0, COQ = 5500, BOQ = 1500
Day 57 (2/26/2018): Collect statistics for Site = CDC_Tampa, Product = B07HNLBZ4Y, OH = 0, COQ = 5500, BOQ = 1500
Day 58 (2/27/2018): Receive order 29374665 - qty 500 at Site = CDC_Tampa, Product = B07HNLBZ4Y
Day 58 (2/27/2018): Queue order 29374665 - qty 500 at Site = CDC_Tampa, Product = B07HNLBZ4Y
Day 58 (2/27/2018): Collect statistics for Site = CDC_Tampa, Product = B07HNLBZ4Y, OH = 0, COQ = 5500, BOQ = 2000
Day 59 (2/28/2018): Collect statistics for Site = CDC_Tampa, Product = B07HNLBZ4Y, OH = 0, COQ = 5500, BOQ = 2000
Day 60 (3/1/2018): Receive order 29374666 - qty 500 at Site = CDC_Tampa, Product = B07HNLBZ4Y
Day 60 (3/1/2018): Queue order 29374666 - qty 500 at Site = CDC_Tampa, Product = B07HNLBZ4Y
Day 60 (3/1/2018): Collect statistics for Site = CDC_Tampa, Product = B07HNLBZ4Y, OH = 0, COQ = 5500, BOQ = 2500
Day 61 (3/2/2018): Collect statistics for Site = CDC_Tampa, Product = B07HNLBZ4Y, OH = 0, COQ = 5500, BOQ = 2500
Day 62 (3/3/2018): Collect statistics for Site = CDC_Tampa, Product = B07HNLBZ4Y, OH = 0, COQ = 5500, BOQ = 2500
Day 63 (3/4/2018): Receive replen order SRC-CDC_Tampa_B07HNLBZ4Y_5 Qty 5500 at Site = CDC_Tampa, Product = B07HNLBZ4Y, OH = 5500,  POS = 3000
Day 63 (3/4/2018): Ship order 29374662 - qty 500 late at Site = CDC_Tampa, Product = B07HNLBZ4Y
Day 63 (3/4/2018): Unqueue order 29374663 - qty 500 at Site = CDC_Tampa, Product = B07HNLBZ4Y
Day 63 (3/4/2018): Ship order 29374663 - qty 500 late at Site = CDC_Tampa, Product = B07HNLBZ4Y
Day 63 (3/4/2018): Unqueue order 29374664 - qty 500 at Site = CDC_Tampa, Product = B07HNLBZ4Y
Day 63 (3/4/2018): Ship order 29374664 - qty 500 late at Site = CDC_Tampa, Product = B07HNLBZ4Y
Day 63 (3/4/2018): Unqueue order 29374665 - qty 500 at Site = CDC_Tampa, Product = B07HNLBZ4Y
Day 63 (3/4/2018): Ship order 29374665 - qty 500 late at Site = CDC_Tampa, Product = B07HNLBZ4Y
Day 63 (3/4/2018): Unqueue order 29374666 - qty 500 at Site = CDC_Tampa, Product = B07HNLBZ4Y
Day 63 (3/4/2018): Ship order 29374666 - qty 500 on time at Site = CDC_Tampa, Product = B07HNLBZ4Y
Day 63 (3/4/2018): Review inventory for Site = CDC_Tampa, Product = B07HNLBZ4Y, OH = 3000, POS = 3000, RP = 5000
Day 63 (3/4/2018): Create replen order SRC-CDC_Tampa_B07HNLBZ4Y_6 Qty = 2000 for Site = CDC_Tampa, Product = B07HNLBZ4Y, OH = 3000, POS = 5000, RP = 5000
Day 63 (3/4/2018): Collect statistics for Site = CDC_Tampa, Product = B07HNLBZ4Y, OH = 3000, COQ = 2000, BOQ = 0
Day 64 (3/5/2018): Receive order 29374667 - qty 500 at Site = CDC_Tampa, Product = B07HNLBZ4Y
Day 64 (3/5/2018): Ship order 29374667 - qty 500 on time at Site = CDC_Tampa, Product = B07HNLBZ4Y
Day 64 (3/5/2018): Collect statistics for Site = CDC_Tampa, Product = B07HNLBZ4Y, OH = 2500, COQ = 2000, BOQ = 0
Day 65 (3/6/2018): Receive order 29374668 - qty 500 at Site = CDC_Tampa, Product = B07HNLBZ4Y
Day 65 (3/6/2018): Ship order 29374668 - qty 500 on time at Site = CDC_Tampa, Product = B07HNLBZ4Y
Day 65 (3/6/2018): Collect statistics for Site = CDC_Tampa, Product = B07HNLBZ4Y, OH = 2000, COQ = 2000, BOQ = 0
Day 66 (3/7/2018): Collect statistics for Site = CDC_Tampa, Product = B07HNLBZ4Y, OH = 2000, COQ = 2000, BOQ = 0
Day 67 (3/8/2018): Receive order 29374669 - qty 500 at Site = CDC_Tampa, Product = B07HNLBZ4Y
Day 67 (3/8/2018): Ship order 29374669 - qty 500 on time at Site = CDC_Tampa, Product = B07HNLBZ4Y
Day 67 (3/8/2018): Collect statistics for Site = CDC_Tampa, Product = B07HNLBZ4Y, OH = 1500, COQ = 2000, BOQ = 0
Day 68 (3/9/2018): Collect statistics for Site = CDC_Tampa, Product = B07HNLBZ4Y, OH = 1500, COQ = 2000, BOQ = 0
Day 69 (3/10/2018): Collect statistics for Site = CDC_Tampa, Product = B07HNLBZ4Y, OH = 1500, COQ = 2000, BOQ = 0
Day 70 (3/11/2018): Collect statistics for Site = CDC_Tampa, Product = B07HNLBZ4Y, OH = 1500, COQ = 2000, BOQ = 0
Day 71 (3/12/2018): Collect statistics for Site = CDC_Tampa, Product = B07HNLBZ4Y, OH = 1500, COQ = 2000, BOQ = 0
Day 72 (3/13/2018): Receive order 29374670 - qty 500 at Site = CDC_Tampa, Product = B07HNLBZ4Y
Day 72 (3/13/2018): Ship order 29374670 - qty 500 on time at Site = CDC_Tampa, Product = B07HNLBZ4Y
Day 72 (3/13/2018): Collect statistics for Site = CDC_Tampa, Product = B07HNLBZ4Y, OH = 1000, COQ = 2000, BOQ = 0
Day 73 (3/14/2018): Receive replen order SRC-CDC_Tampa_B07HNLBZ4Y_6 Qty 2000 at Site = CDC_Tampa, Product = B07HNLBZ4Y, OH = 3000,  POS = 3000
Day 73 (3/14/2018): Review inventory for Site = CDC_Tampa, Product = B07HNLBZ4Y, OH = 3000, POS = 3000, RP = 5000
Day 73 (3/14/2018): Create replen order SRC-CDC_Tampa_B07HNLBZ4Y_7 Qty = 2000 for Site = CDC_Tampa, Product = B07HNLBZ4Y, OH = 3000, POS = 5000, RP = 5000
Day 73 (3/14/2018): Collect statistics for Site = CDC_Tampa, Product = B07HNLBZ4Y, OH = 3000, COQ = 2000, BOQ = 0
Day 74 (3/15/2018): Collect statistics for Site = CDC_Tampa, Product = B07HNLBZ4Y, OH = 3000, COQ = 2000, BOQ = 0
Day 75 (3/16/2018): Collect statistics for Site = CDC_Tampa, Product = B07HNLBZ4Y, OH = 3000, COQ = 2000, BOQ = 0
Day 76 (3/17/2018): Receive order 29374671 - qty 500 at Site = CDC_Tampa, Product = B07HNLBZ4Y
Day 76 (3/17/2018): Ship order 29374671 - qty 500 on time at Site = CDC_Tampa, Product = B07HNLBZ4Y
Day 76 (3/17/2018): Collect statistics for Site = CDC_Tampa, Product = B07HNLBZ4Y, OH = 2500, COQ = 2000, BOQ = 0
Day 77 (3/18/2018): Collect statistics for Site = CDC_Tampa, Product = B07HNLBZ4Y, OH = 2500, COQ = 2000, BOQ = 0
Day 78 (3/19/2018): Collect statistics for Site = CDC_Tampa, Product = B07HNLBZ4Y, OH = 2500, COQ = 2000, BOQ = 0
Day 79 (3/20/2018): Receive order 29374672 - qty 3000 at Site = CDC_Tampa, Product = B07HNLBZ4Y
Day 79 (3/20/2018): Backorder order 29374672 - qty 3000 at Site = CDC_Tampa, Product = B07HNLBZ4Y
Day 79 (3/20/2018): Collect statistics for Site = CDC_Tampa, Product = B07HNLBZ4Y, OH = 2500, COQ = 2000, BOQ = 500
Day 80 (3/21/2018): Receive order 29374673 - qty 500 at Site = CDC_Tampa, Product = B07HNLBZ4Y
Day 80 (3/21/2018): Queue order 29374673 - qty 500 at Site = CDC_Tampa, Product = B07HNLBZ4Y
Day 80 (3/21/2018): Collect statistics for Site = CDC_Tampa, Product = B07HNLBZ4Y, OH = 2500, COQ = 2000, BOQ = 1000
Day 81 (3/22/2018): Receive order 29374674 - qty 500 at Site = CDC_Tampa, Product = B07HNLBZ4Y
Day 81 (3/22/2018): Queue order 29374674 - qty 500 at Site = CDC_Tampa, Product = B07HNLBZ4Y
Day 81 (3/22/2018): Collect statistics for Site = CDC_Tampa, Product = B07HNLBZ4Y, OH = 2500, COQ = 2000, BOQ = 1500
Day 82 (3/23/2018): Collect statistics for Site = CDC_Tampa, Product = B07HNLBZ4Y, OH = 2500, COQ = 2000, BOQ = 1500
Day 83 (3/24/2018): Receive replen order SRC-CDC_Tampa_B07HNLBZ4Y_7 Qty 2000 at Site = CDC_Tampa, Product = B07HNLBZ4Y, OH = 4500,  POS = 500
Day 83 (3/24/2018): Ship order 29374672 - qty 3000 late at Site = CDC_Tampa, Product = B07HNLBZ4Y
Day 83 (3/24/2018): Unqueue order 29374673 - qty 500 at Site = CDC_Tampa, Product = B07HNLBZ4Y
Day 83 (3/24/2018): Ship order 29374673 - qty 500 on time at Site = CDC_Tampa, Product = B07HNLBZ4Y
Day 83 (3/24/2018): Unqueue order 29374674 - qty 500 at Site = CDC_Tampa, Product = B07HNLBZ4Y
Day 83 (3/24/2018): Ship order 29374674 - qty 500 on time at Site = CDC_Tampa, Product = B07HNLBZ4Y
Day 83 (3/24/2018): Review inventory for Site = CDC_Tampa, Product = B07HNLBZ4Y, OH = 500, POS = 500, RP = 5000
Day 83 (3/24/2018): Create replen order SRC-CDC_Tampa_B07HNLBZ4Y_8 Qty = 4500 for Site = CDC_Tampa, Product = B07HNLBZ4Y, OH = 500, POS = 5000, RP = 5000
Day 83 (3/24/2018): Collect statistics for Site = CDC_Tampa, Product = B07HNLBZ4Y, OH = 500, COQ = 4500, BOQ = 0
Day 84 (3/25/2018): Receive order 29374675 - qty 500 at Site = CDC_Tampa, Product = B07HNLBZ4Y
Day 84 (3/25/2018): Ship order 29374675 - qty 500 on time at Site = CDC_Tampa, Product = B07HNLBZ4Y
Day 84 (3/25/2018): Collect statistics for Site = CDC_Tampa, Product = B07HNLBZ4Y, OH = 0, COQ = 4500, BOQ = 0
Day 85 (3/26/2018): Collect statistics for Site = CDC_Tampa, Product = B07HNLBZ4Y, OH = 0, COQ = 4500, BOQ = 0
Day 86 (3/27/2018): Receive order 29374676 - qty 500 at Site = CDC_Tampa, Product = B07HNLBZ4Y
Day 86 (3/27/2018): Backorder order 29374676 - qty 500 at Site = CDC_Tampa, Product = B07HNLBZ4Y
Day 86 (3/27/2018): Collect statistics for Site = CDC_Tampa, Product = B07HNLBZ4Y, OH = 0, COQ = 4500, BOQ = 500
Day 87 (3/28/2018): Collect statistics for Site = CDC_Tampa, Product = B07HNLBZ4Y, OH = 0, COQ = 4500, BOQ = 500
Day 88 (3/29/2018): Collect statistics for Site = CDC_Tampa, Product = B07HNLBZ4Y, OH = 0, COQ = 4500, BOQ = 500
Day 89 (3/30/2018): Receive order 29374677 - qty 3000 at Site = CDC_Tampa, Product = B07HNLBZ4Y
Day 89 (3/30/2018): Queue order 29374677 - qty 3000 at Site = CDC_Tampa, Product = B07HNLBZ4Y
Day 89 (3/30/2018): Collect statistics for Site = CDC_Tampa, Product = B07HNLBZ4Y, OH = 0, COQ = 4500, BOQ = 3500
Day 90 (3/31/2018): Collect statistics for Site = CDC_Tampa, Product = B07HNLBZ4Y, OH = 0, COQ = 4500, BOQ = 3500
Day 91 (4/1/2018): Receive order 29374678 - qty 500 at Site = CDC_Tampa, Product = B07HNLBZ4Y
Day 91 (4/1/2018): Queue order 29374678 - qty 500 at Site = CDC_Tampa, Product = B07HNLBZ4Y
Day 91 (4/1/2018): Receive order 29374679 - qty 500 at Site = CDC_Tampa, Product = B07HNLBZ4Y
Day 91 (4/1/2018): Queue order 29374679 - qty 500 at Site = CDC_Tampa, Product = B07HNLBZ4Y
Day 91 (4/1/2018): Collect statistics for Site = CDC_Tampa, Product = B07HNLBZ4Y, OH = 0, COQ = 4500, BOQ = 4500
Day 92 (4/2/2018): Collect statistics for Site = CDC_Tampa, Product = B07HNLBZ4Y, OH = 0, COQ = 4500, BOQ = 4500
Day 93 (4/3/2018): Receive replen order SRC-CDC_Tampa_B07HNLBZ4Y_8 Qty 4500 at Site = CDC_Tampa, Product = B07HNLBZ4Y, OH = 4500,  POS = 0
Day 93 (4/3/2018): Ship order 29374676 - qty 500 late at Site = CDC_Tampa, Product = B07HNLBZ4Y
Day 93 (4/3/2018): Unqueue order 29374677 - qty 3000 at Site = CDC_Tampa, Product = B07HNLBZ4Y
Day 93 (4/3/2018): Ship order 29374677 - qty 3000 late at Site = CDC_Tampa, Product = B07HNLBZ4Y
Day 93 (4/3/2018): Unqueue order 29374678 - qty 500 at Site = CDC_Tampa, Product = B07HNLBZ4Y
Day 93 (4/3/2018): Ship order 29374678 - qty 500 on time at Site = CDC_Tampa, Product = B07HNLBZ4Y
Day 93 (4/3/2018): Unqueue order 29374679 - qty 500 at Site = CDC_Tampa, Product = B07HNLBZ4Y
Day 93 (4/3/2018): Ship order 29374679 - qty 500 on time at Site = CDC_Tampa, Product = B07HNLBZ4Y
Day 93 (4/3/2018): Review inventory for Site = CDC_Tampa, Product = B07HNLBZ4Y, OH = 0, POS = 0, RP = 5000
Day 93 (4/3/2018): Create replen order SRC-CDC_Tampa_B07HNLBZ4Y_9 Qty = 5000 for Site = CDC_Tampa, Product = B07HNLBZ4Y, OH = 0, POS = 5000, RP = 5000
Day 93 (4/3/2018): Collect statistics for Site = CDC_Tampa, Product = B07HNLBZ4Y, OH = 0, COQ = 5000, BOQ = 0
Day 94 (4/4/2018): Collect statistics for Site = CDC_Tampa, Product = B07HNLBZ4Y, OH = 0, COQ = 5000, BOQ = 0
Day 95 (4/5/2018): Collect statistics for Site = CDC_Tampa, Product = B07HNLBZ4Y, OH = 0, COQ = 5000, BOQ = 0
Day 96 (4/6/2018): Collect statistics for Site = CDC_Tampa, Product = B07HNLBZ4Y, OH = 0, COQ = 5000, BOQ = 0
Day 97 (4/7/2018): Receive order 29374680 - qty 500 at Site = CDC_Tampa, Product = B07HNLBZ4Y
Day 97 (4/7/2018): Backorder order 29374680 - qty 500 at Site = CDC_Tampa, Product = B07HNLBZ4Y
Day 97 (4/7/2018): Collect statistics for Site = CDC_Tampa, Product = B07HNLBZ4Y, OH = 0, COQ = 5000, BOQ = 500
Day 98 (4/8/2018): Collect statistics for Site = CDC_Tampa, Product = B07HNLBZ4Y, OH = 0, COQ = 5000, BOQ = 500
Day 99 (4/9/2018): Receive order 29374681 - qty 500 at Site = CDC_Tampa, Product = B07HNLBZ4Y
Day 99 (4/9/2018): Queue order 29374681 - qty 500 at Site = CDC_Tampa, Product = B07HNLBZ4Y
Day 99 (4/9/2018): Receive order 29374682 - qty 500 at Site = CDC_Tampa, Product = B07HNLBZ4Y
Day 99 (4/9/2018): Queue order 29374682 - qty 500 at Site = CDC_Tampa, Product = B07HNLBZ4Y
Day 99 (4/9/2018): Collect statistics for Site = CDC_Tampa, Product = B07HNLBZ4Y, OH = 0, COQ = 5000, BOQ = 1500
Day 100 (4/10/2018): Collect statistics for Site = CDC_Tampa, Product = B07HNLBZ4Y, OH = 0, COQ = 5000, BOQ = 1500
Day 101 (4/11/2018): Collect statistics for Site = CDC_Tampa, Product = B07HNLBZ4Y, OH = 0, COQ = 5000, BOQ = 1500
Day 102 (4/12/2018): Collect statistics for Site = CDC_Tampa, Product = B07HNLBZ4Y, OH = 0, COQ = 5000, BOQ = 1500
Day 103 (4/13/2018): Receive replen order SRC-CDC_Tampa_B07HNLBZ4Y_9 Qty 5000 at Site = CDC_Tampa, Product = B07HNLBZ4Y, OH = 5000,  POS = 3500
Day 103 (4/13/2018): Ship order 29374680 - qty 500 late at Site = CDC_Tampa, Product = B07HNLBZ4Y
Day 103 (4/13/2018): Unqueue order 29374681 - qty 500 at Site = CDC_Tampa, Product = B07HNLBZ4Y
Day 103 (4/13/2018): Ship order 29374681 - qty 500 late at Site = CDC_Tampa, Product = B07HNLBZ4Y
Day 103 (4/13/2018): Unqueue order 29374682 - qty 500 at Site = CDC_Tampa, Product = B07HNLBZ4Y
Day 103 (4/13/2018): Ship order 29374682 - qty 500 on time at Site = CDC_Tampa, Product = B07HNLBZ4Y
Day 103 (4/13/2018): Review inventory for Site = CDC_Tampa, Product = B07HNLBZ4Y, OH = 3500, POS = 3500, RP = 5000
Day 103 (4/13/2018): Create replen order SRC-CDC_Tampa_B07HNLBZ4Y_10 Qty = 1500 for Site = CDC_Tampa, Product = B07HNLBZ4Y, OH = 3500, POS = 5000, RP = 5000
Day 103 (4/13/2018): Collect statistics for Site = CDC_Tampa, Product = B07HNLBZ4Y, OH = 3500, COQ = 1500, BOQ = 0
Day 104 (4/14/2018): Collect statistics for Site = CDC_Tampa, Product = B07HNLBZ4Y, OH = 3500, COQ = 1500, BOQ = 0
Day 105 (4/15/2018): Receive order 29374684 - qty 500 at Site = CDC_Tampa, Product = B07HNLBZ4Y
Day 105 (4/15/2018): Ship order 29374684 - qty 500 on time at Site = CDC_Tampa, Product = B07HNLBZ4Y
Day 105 (4/15/2018): Collect statistics for Site = CDC_Tampa, Product = B07HNLBZ4Y, OH = 3000, COQ = 1500, BOQ = 0
Day 106 (4/16/2018): Receive order 29374683 - qty 500 at Site = CDC_Tampa, Product = B07HNLBZ4Y
Day 106 (4/16/2018): Ship order 29374683 - qty 500 on time at Site = CDC_Tampa, Product = B07HNLBZ4Y
Day 106 (4/16/2018): Collect statistics for Site = CDC_Tampa, Product = B07HNLBZ4Y, OH = 2500, COQ = 1500, BOQ = 0
Day 107 (4/17/2018): Collect statistics for Site = CDC_Tampa, Product = B07HNLBZ4Y, OH = 2500, COQ = 1500, BOQ = 0
Day 108 (4/18/2018): Receive order 29374685 - qty 500 at Site = CDC_Tampa, Product = B07HNLBZ4Y
Day 108 (4/18/2018): Ship order 29374685 - qty 500 on time at Site = CDC_Tampa, Product = B07HNLBZ4Y
Day 108 (4/18/2018): Collect statistics for Site = CDC_Tampa, Product = B07HNLBZ4Y, OH = 2000, COQ = 1500, BOQ = 0
Day 109 (4/19/2018): Collect statistics for Site = CDC_Tampa, Product = B07HNLBZ4Y, OH = 2000, COQ = 1500, BOQ = 0
Day 110 (4/20/2018): Collect statistics for Site = CDC_Tampa, Product = B07HNLBZ4Y, OH = 2000, COQ = 1500, BOQ = 0
Day 111 (4/21/2018): Collect statistics for Site = CDC_Tampa, Product = B07HNLBZ4Y, OH = 2000, COQ = 1500, BOQ = 0
Day 112 (4/22/2018): Collect statistics for Site = CDC_Tampa, Product = B07HNLBZ4Y, OH = 2000, COQ = 1500, BOQ = 0
Day 113 (4/23/2018): Receive replen order SRC-CDC_Tampa_B07HNLBZ4Y_10 Qty 1500 at Site = CDC_Tampa, Product = B07HNLBZ4Y, OH = 3500,  POS = 3500
Day 113 (4/23/2018): Receive order 29374686 - qty 500 at Site = CDC_Tampa, Product = B07HNLBZ4Y
Day 113 (4/23/2018): Ship order 29374686 - qty 500 on time at Site = CDC_Tampa, Product = B07HNLBZ4Y
Day 113 (4/23/2018): Review inventory for Site = CDC_Tampa, Product = B07HNLBZ4Y, OH = 3000, POS = 3000, RP = 5000
Day 113 (4/23/2018): Create replen order SRC-CDC_Tampa_B07HNLBZ4Y_11 Qty = 2000 for Site = CDC_Tampa, Product = B07HNLBZ4Y, OH = 3000, POS = 5000, RP = 5000
Day 113 (4/23/2018): Collect statistics for Site = CDC_Tampa, Product = B07HNLBZ4Y, OH = 3000, COQ = 2000, BOQ = 0
Day 114 (4/24/2018): Collect statistics for Site = CDC_Tampa, Product = B07HNLBZ4Y, OH = 3000, COQ = 2000, BOQ = 0
Day 115 (4/25/2018): Receive order 29374687 - qty 500 at Site = CDC_Tampa, Product = B07HNLBZ4Y
Day 115 (4/25/2018): Ship order 29374687 - qty 500 on time at Site = CDC_Tampa, Product = B07HNLBZ4Y
Day 115 (4/25/2018): Collect statistics for Site = CDC_Tampa, Product = B07HNLBZ4Y, OH = 2500, COQ = 2000, BOQ = 0
Day 116 (4/26/2018): Collect statistics for Site = CDC_Tampa, Product = B07HNLBZ4Y, OH = 2500, COQ = 2000, BOQ = 0
Day 117 (4/27/2018): Collect statistics for Site = CDC_Tampa, Product = B07HNLBZ4Y, OH = 2500, COQ = 2000, BOQ = 0
Day 118 (4/28/2018): Collect statistics for Site = CDC_Tampa, Product = B07HNLBZ4Y, OH = 2500, COQ = 2000, BOQ = 0
Day 119 (4/29/2018): Receive order 29374688 - qty 500 at Site = CDC_Tampa, Product = B07HNLBZ4Y
Day 119 (4/29/2018): Ship order 29374688 - qty 500 on time at Site = CDC_Tampa, Product = B07HNLBZ4Y
Day 119 (4/29/2018): Receive order 29374689 - qty 500 at Site = CDC_Tampa, Product = B07HNLBZ4Y
Day 119 (4/29/2018): Ship order 29374689 - qty 500 on time at Site = CDC_Tampa, Product = B07HNLBZ4Y
Day 119 (4/29/2018): Collect statistics for Site = CDC_Tampa, Product = B07HNLBZ4Y, OH = 1500, COQ = 2000, BOQ = 0
Day 120 (4/30/2018): Receive order 29374690 - qty 3000 at Site = CDC_Tampa, Product = B07HNLBZ4Y
Day 120 (4/30/2018): Backorder order 29374690 - qty 3000 at Site = CDC_Tampa, Product = B07HNLBZ4Y
Day 120 (4/30/2018): Collect statistics for Site = CDC_Tampa, Product = B07HNLBZ4Y, OH = 1500, COQ = 2000, BOQ = 1500
Day 121 (5/1/2018): Collect statistics for Site = CDC_Tampa, Product = B07HNLBZ4Y, OH = 1500, COQ = 2000, BOQ = 1500
Day 122 (5/2/2018): Collect statistics for Site = CDC_Tampa, Product = B07HNLBZ4Y, OH = 1500, COQ = 2000, BOQ = 1500
Day 123 (5/3/2018): Receive replen order SRC-CDC_Tampa_B07HNLBZ4Y_11 Qty 2000 at Site = CDC_Tampa, Product = B07HNLBZ4Y, OH = 3500,  POS = 500
Day 123 (5/3/2018): Ship order 29374690 - qty 3000 on time at Site = CDC_Tampa, Product = B07HNLBZ4Y
Day 123 (5/3/2018): Review inventory for Site = CDC_Tampa, Product = B07HNLBZ4Y, OH = 500, POS = 500, RP = 5000
Day 123 (5/3/2018): Create replen order SRC-CDC_Tampa_B07HNLBZ4Y_12 Qty = 4500 for Site = CDC_Tampa, Product = B07HNLBZ4Y, OH = 500, POS = 5000, RP = 5000
Day 123 (5/3/2018): Collect statistics for Site = CDC_Tampa, Product = B07HNLBZ4Y, OH = 500, COQ = 4500, BOQ = 0
Day 124 (5/4/2018): Collect statistics for Site = CDC_Tampa, Product = B07HNLBZ4Y, OH = 500, COQ = 4500, BOQ = 0
Day 125 (5/5/2018): Collect statistics for Site = CDC_Tampa, Product = B07HNLBZ4Y, OH = 500, COQ = 4500, BOQ = 0
Day 126 (5/6/2018): Collect statistics for Site = CDC_Tampa, Product = B07HNLBZ4Y, OH = 500, COQ = 4500, BOQ = 0
Day 127 (5/7/2018): Receive order 29374691 - qty 500 at Site = CDC_Tampa, Product = B07HNLBZ4Y
Day 127 (5/7/2018): Ship order 29374691 - qty 500 on time at Site = CDC_Tampa, Product = B07HNLBZ4Y
Day 127 (5/7/2018): Receive order 29374692 - qty 500 at Site = CDC_Tampa, Product = B07HNLBZ4Y
Day 127 (5/7/2018): Backorder order 29374692 - qty 500 at Site = CDC_Tampa, Product = B07HNLBZ4Y
Day 127 (5/7/2018): Collect statistics for Site = CDC_Tampa, Product = B07HNLBZ4Y, OH = 0, COQ = 4500, BOQ = 500
Day 128 (5/8/2018): Collect statistics for Site = CDC_Tampa, Product = B07HNLBZ4Y, OH = 0, COQ = 4500, BOQ = 500
Day 129 (5/9/2018): Receive order 29374694 - qty 500 at Site = CDC_Tampa, Product = B07HNLBZ4Y
Day 129 (5/9/2018): Queue order 29374694 - qty 500 at Site = CDC_Tampa, Product = B07HNLBZ4Y
Day 129 (5/9/2018): Collect statistics for Site = CDC_Tampa, Product = B07HNLBZ4Y, OH = 0, COQ = 4500, BOQ = 1000
Day 130 (5/10/2018): Receive order 29374693 - qty 500 at Site = CDC_Tampa, Product = B07HNLBZ4Y
Day 130 (5/10/2018): Queue order 29374693 - qty 500 at Site = CDC_Tampa, Product = B07HNLBZ4Y
Day 130 (5/10/2018): Collect statistics for Site = CDC_Tampa, Product = B07HNLBZ4Y, OH = 0, COQ = 4500, BOQ = 1500
Day 131 (5/11/2018): Collect statistics for Site = CDC_Tampa, Product = B07HNLBZ4Y, OH = 0, COQ = 4500, BOQ = 1500
Day 132 (5/12/2018): Receive order 29374695 - qty 3000 at Site = CDC_Tampa, Product = B07HNLBZ4Y
Day 132 (5/12/2018): Queue order 29374695 - qty 3000 at Site = CDC_Tampa, Product = B07HNLBZ4Y
Day 132 (5/12/2018): Collect statistics for Site = CDC_Tampa, Product = B07HNLBZ4Y, OH = 0, COQ = 4500, BOQ = 4500
Day 133 (5/13/2018): Receive replen order SRC-CDC_Tampa_B07HNLBZ4Y_12 Qty 4500 at Site = CDC_Tampa, Product = B07HNLBZ4Y, OH = 4500,  POS = 0
Day 133 (5/13/2018): Ship order 29374692 - qty 500 late at Site = CDC_Tampa, Product = B07HNLBZ4Y
Day 133 (5/13/2018): Unqueue order 29374694 - qty 500 at Site = CDC_Tampa, Product = B07HNLBZ4Y
Day 133 (5/13/2018): Ship order 29374694 - qty 500 late at Site = CDC_Tampa, Product = B07HNLBZ4Y
Day 133 (5/13/2018): Unqueue order 29374693 - qty 500 at Site = CDC_Tampa, Product = B07HNLBZ4Y
Day 133 (5/13/2018): Ship order 29374693 - qty 500 late at Site = CDC_Tampa, Product = B07HNLBZ4Y
Day 133 (5/13/2018): Unqueue order 29374695 - qty 3000 at Site = CDC_Tampa, Product = B07HNLBZ4Y
Day 133 (5/13/2018): Ship order 29374695 - qty 3000 on time at Site = CDC_Tampa, Product = B07HNLBZ4Y
Day 133 (5/13/2018): Review inventory for Site = CDC_Tampa, Product = B07HNLBZ4Y, OH = 0, POS = 0, RP = 5000
Day 133 (5/13/2018): Create replen order SRC-CDC_Tampa_B07HNLBZ4Y_13 Qty = 5000 for Site = CDC_Tampa, Product = B07HNLBZ4Y, OH = 0, POS = 5000, RP = 5000
Day 133 (5/13/2018): Collect statistics for Site = CDC_Tampa, Product = B07HNLBZ4Y, OH = 0, COQ = 5000, BOQ = 0
Day 134 (5/14/2018): Collect statistics for Site = CDC_Tampa, Product = B07HNLBZ4Y, OH = 0, COQ = 5000, BOQ = 0
Day 135 (5/15/2018): Collect statistics for Site = CDC_Tampa, Product = B07HNLBZ4Y, OH = 0, COQ = 5000, BOQ = 0
Day 136 (5/16/2018): Collect statistics for Site = CDC_Tampa, Product = B07HNLBZ4Y, OH = 0, COQ = 5000, BOQ = 0
Day 137 (5/17/2018): Collect statistics for Site = CDC_Tampa, Product = B07HNLBZ4Y, OH = 0, COQ = 5000, BOQ = 0
Day 138 (5/18/2018): Receive order 29374697 - qty 500 at Site = CDC_Tampa, Product = B07HNLBZ4Y
Day 138 (5/18/2018): Backorder order 29374697 - qty 500 at Site = CDC_Tampa, Product = B07HNLBZ4Y
Day 138 (5/18/2018): Collect statistics for Site = CDC_Tampa, Product = B07HNLBZ4Y, OH = 0, COQ = 5000, BOQ = 500
Day 139 (5/19/2018): Receive order 29374696 - qty 500 at Site = CDC_Tampa, Product = B07HNLBZ4Y
Day 139 (5/19/2018): Queue order 29374696 - qty 500 at Site = CDC_Tampa, Product = B07HNLBZ4Y
Day 139 (5/19/2018): Collect statistics for Site = CDC_Tampa, Product = B07HNLBZ4Y, OH = 0, COQ = 5000, BOQ = 1000
Day 140 (5/20/2018): Collect statistics for Site = CDC_Tampa, Product = B07HNLBZ4Y, OH = 0, COQ = 5000, BOQ = 1000
Day 141 (5/21/2018): Collect statistics for Site = CDC_Tampa, Product = B07HNLBZ4Y, OH = 0, COQ = 5000, BOQ = 1000
Day 142 (5/22/2018): Collect statistics for Site = CDC_Tampa, Product = B07HNLBZ4Y, OH = 0, COQ = 5000, BOQ = 1000
Day 143 (5/23/2018): Receive replen order SRC-CDC_Tampa_B07HNLBZ4Y_13 Qty 5000 at Site = CDC_Tampa, Product = B07HNLBZ4Y, OH = 5000,  POS = 4000
Day 143 (5/23/2018): Ship order 29374697 - qty 500 late at Site = CDC_Tampa, Product = B07HNLBZ4Y
Day 143 (5/23/2018): Unqueue order 29374696 - qty 500 at Site = CDC_Tampa, Product = B07HNLBZ4Y
Day 143 (5/23/2018): Ship order 29374696 - qty 500 late at Site = CDC_Tampa, Product = B07HNLBZ4Y
Day 143 (5/23/2018): Receive order 29374698 - qty 500 at Site = CDC_Tampa, Product = B07HNLBZ4Y
Day 143 (5/23/2018): Ship order 29374698 - qty 500 on time at Site = CDC_Tampa, Product = B07HNLBZ4Y
Day 143 (5/23/2018): Review inventory for Site = CDC_Tampa, Product = B07HNLBZ4Y, OH = 3500, POS = 3500, RP = 5000
Day 143 (5/23/2018): Create replen order SRC-CDC_Tampa_B07HNLBZ4Y_14 Qty = 1500 for Site = CDC_Tampa, Product = B07HNLBZ4Y, OH = 3500, POS = 5000, RP = 5000
Day 143 (5/23/2018): Collect statistics for Site = CDC_Tampa, Product = B07HNLBZ4Y, OH = 3500, COQ = 1500, BOQ = 0
Day 144 (5/24/2018): Collect statistics for Site = CDC_Tampa, Product = B07HNLBZ4Y, OH = 3500, COQ = 1500, BOQ = 0
Day 145 (5/25/2018): Collect statistics for Site = CDC_Tampa, Product = B07HNLBZ4Y, OH = 3500, COQ = 1500, BOQ = 0
Day 146 (5/26/2018): Receive order 29374699 - qty 500 at Site = CDC_Tampa, Product = B07HNLBZ4Y
Day 146 (5/26/2018): Ship order 29374699 - qty 500 on time at Site = CDC_Tampa, Product = B07HNLBZ4Y
Day 146 (5/26/2018): Collect statistics for Site = CDC_Tampa, Product = B07HNLBZ4Y, OH = 3000, COQ = 1500, BOQ = 0
Day 147 (5/27/2018): Collect statistics for Site = CDC_Tampa, Product = B07HNLBZ4Y, OH = 3000, COQ = 1500, BOQ = 0
Day 148 (5/28/2018): Receive order 29374700 - qty 500 at Site = CDC_Tampa, Product = B07HNLBZ4Y
Day 148 (5/28/2018): Ship order 29374700 - qty 500 on time at Site = CDC_Tampa, Product = B07HNLBZ4Y
Day 148 (5/28/2018): Collect statistics for Site = CDC_Tampa, Product = B07HNLBZ4Y, OH = 2500, COQ = 1500, BOQ = 0
Day 149 (5/29/2018): Receive order 29374701 - qty 500 at Site = CDC_Tampa, Product = B07HNLBZ4Y
Day 149 (5/29/2018): Ship order 29374701 - qty 500 on time at Site = CDC_Tampa, Product = B07HNLBZ4Y
Day 149 (5/29/2018): Receive order 29374702 - qty 500 at Site = CDC_Tampa, Product = B07HNLBZ4Y
Day 149 (5/29/2018): Ship order 29374702 - qty 500 on time at Site = CDC_Tampa, Product = B07HNLBZ4Y
Day 149 (5/29/2018): Collect statistics for Site = CDC_Tampa, Product = B07HNLBZ4Y, OH = 1500, COQ = 1500, BOQ = 0
Day 150 (5/30/2018): Receive order 29374703 - qty 500 at Site = CDC_Tampa, Product = B07HNLBZ4Y
Day 150 (5/30/2018): Ship order 29374703 - qty 500 on time at Site = CDC_Tampa, Product = B07HNLBZ4Y
Day 150 (5/30/2018): Collect statistics for Site = CDC_Tampa, Product = B07HNLBZ4Y, OH = 1000, COQ = 1500, BOQ = 0
Day 151 (5/31/2018): Collect statistics for Site = CDC_Tampa, Product = B07HNLBZ4Y, OH = 1000, COQ = 1500, BOQ = 0
Day 152 (6/1/2018): Collect statistics for Site = CDC_Tampa, Product = B07HNLBZ4Y, OH = 1000, COQ = 1500, BOQ = 0
Day 153 (6/2/2018): Receive replen order SRC-CDC_Tampa_B07HNLBZ4Y_14 Qty 1500 at Site = CDC_Tampa, Product = B07HNLBZ4Y, OH = 2500,  POS = 2500
Day 153 (6/2/2018): Receive order 29374704 - qty 500 at Site = CDC_Tampa, Product = B07HNLBZ4Y
Day 153 (6/2/2018): Ship order 29374704 - qty 500 on time at Site = CDC_Tampa, Product = B07HNLBZ4Y
Day 153 (6/2/2018): Review inventory for Site = CDC_Tampa, Product = B07HNLBZ4Y, OH = 2000, POS = 2000, RP = 5000
Day 153 (6/2/2018): Create replen order SRC-CDC_Tampa_B07HNLBZ4Y_15 Qty = 3000 for Site = CDC_Tampa, Product = B07HNLBZ4Y, OH = 2000, POS = 5000, RP = 5000
Day 153 (6/2/2018): Collect statistics for Site = CDC_Tampa, Product = B07HNLBZ4Y, OH = 2000, COQ = 3000, BOQ = 0
Day 154 (6/3/2018): Collect statistics for Site = CDC_Tampa, Product = B07HNLBZ4Y, OH = 2000, COQ = 3000, BOQ = 0
Day 155 (6/4/2018): Collect statistics for Site = CDC_Tampa, Product = B07HNLBZ4Y, OH = 2000, COQ = 3000, BOQ = 0
Day 156 (6/5/2018): Receive order 29374705 - qty 500 at Site = CDC_Tampa, Product = B07HNLBZ4Y
Day 156 (6/5/2018): Ship order 29374705 - qty 500 on time at Site = CDC_Tampa, Product = B07HNLBZ4Y
Day 156 (6/5/2018): Collect statistics for Site = CDC_Tampa, Product = B07HNLBZ4Y, OH = 1500, COQ = 3000, BOQ = 0
Day 157 (6/6/2018): Receive order 29374706 - qty 500 at Site = CDC_Tampa, Product = B07HNLBZ4Y
Day 157 (6/6/2018): Ship order 29374706 - qty 500 on time at Site = CDC_Tampa, Product = B07HNLBZ4Y
Day 157 (6/6/2018): Collect statistics for Site = CDC_Tampa, Product = B07HNLBZ4Y, OH = 1000, COQ = 3000, BOQ = 0
Day 158 (6/7/2018): Collect statistics for Site = CDC_Tampa, Product = B07HNLBZ4Y, OH = 1000, COQ = 3000, BOQ = 0
Day 159 (6/8/2018): Collect statistics for Site = CDC_Tampa, Product = B07HNLBZ4Y, OH = 1000, COQ = 3000, BOQ = 0
Day 160 (6/9/2018): Receive order 29374707 - qty 500 at Site = CDC_Tampa, Product = B07HNLBZ4Y
Day 160 (6/9/2018): Ship order 29374707 - qty 500 on time at Site = CDC_Tampa, Product = B07HNLBZ4Y
Day 160 (6/9/2018): Collect statistics for Site = CDC_Tampa, Product = B07HNLBZ4Y, OH = 500, COQ = 3000, BOQ = 0
Day 161 (6/10/2018): Collect statistics for Site = CDC_Tampa, Product = B07HNLBZ4Y, OH = 500, COQ = 3000, BOQ = 0
Day 162 (6/11/2018): Collect statistics for Site = CDC_Tampa, Product = B07HNLBZ4Y, OH = 500, COQ = 3000, BOQ = 0
Day 163 (6/12/2018): Receive replen order SRC-CDC_Tampa_B07HNLBZ4Y_15 Qty 3000 at Site = CDC_Tampa, Product = B07HNLBZ4Y, OH = 3500,  POS = 3500
Day 163 (6/12/2018): Receive order 29374708 - qty 3000 at Site = CDC_Tampa, Product = B07HNLBZ4Y
Day 163 (6/12/2018): Ship order 29374708 - qty 3000 on time at Site = CDC_Tampa, Product = B07HNLBZ4Y
Day 163 (6/12/2018): Review inventory for Site = CDC_Tampa, Product = B07HNLBZ4Y, OH = 500, POS = 500, RP = 5000
Day 163 (6/12/2018): Create replen order SRC-CDC_Tampa_B07HNLBZ4Y_16 Qty = 4500 for Site = CDC_Tampa, Product = B07HNLBZ4Y, OH = 500, POS = 5000, RP = 5000
Day 163 (6/12/2018): Collect statistics for Site = CDC_Tampa, Product = B07HNLBZ4Y, OH = 500, COQ = 4500, BOQ = 0
Day 164 (6/13/2018): Collect statistics for Site = CDC_Tampa, Product = B07HNLBZ4Y, OH = 500, COQ = 4500, BOQ = 0
Day 165 (6/14/2018): Collect statistics for Site = CDC_Tampa, Product = B07HNLBZ4Y, OH = 500, COQ = 4500, BOQ = 0
Day 166 (6/15/2018): Receive order 29374709 - qty 500 at Site = CDC_Tampa, Product = B07HNLBZ4Y
Day 166 (6/15/2018): Ship order 29374709 - qty 500 on time at Site = CDC_Tampa, Product = B07HNLBZ4Y
Day 166 (6/15/2018): Collect statistics for Site = CDC_Tampa, Product = B07HNLBZ4Y, OH = 0, COQ = 4500, BOQ = 0
Day 167 (6/16/2018): Receive order 29374710 - qty 500 at Site = CDC_Tampa, Product = B07HNLBZ4Y
Day 167 (6/16/2018): Backorder order 29374710 - qty 500 at Site = CDC_Tampa, Product = B07HNLBZ4Y
Day 167 (6/16/2018): Collect statistics for Site = CDC_Tampa, Product = B07HNLBZ4Y, OH = 0, COQ = 4500, BOQ = 500
Day 168 (6/17/2018): Collect statistics for Site = CDC_Tampa, Product = B07HNLBZ4Y, OH = 0, COQ = 4500, BOQ = 500
Day 169 (6/18/2018): Collect statistics for Site = CDC_Tampa, Product = B07HNLBZ4Y, OH = 0, COQ = 4500, BOQ = 500
Day 170 (6/19/2018): Receive order 29374711 - qty 500 at Site = CDC_Tampa, Product = B07HNLBZ4Y
Day 170 (6/19/2018): Queue order 29374711 - qty 500 at Site = CDC_Tampa, Product = B07HNLBZ4Y
Day 170 (6/19/2018): Collect statistics for Site = CDC_Tampa, Product = B07HNLBZ4Y, OH = 0, COQ = 4500, BOQ = 1000
Day 171 (6/20/2018): Collect statistics for Site = CDC_Tampa, Product = B07HNLBZ4Y, OH = 0, COQ = 4500, BOQ = 1000
Day 172 (6/21/2018): Collect statistics for Site = CDC_Tampa, Product = B07HNLBZ4Y, OH = 0, COQ = 4500, BOQ = 1000
Day 173 (6/22/2018): Receive replen order SRC-CDC_Tampa_B07HNLBZ4Y_16 Qty 4500 at Site = CDC_Tampa, Product = B07HNLBZ4Y, OH = 4500,  POS = 3500
Day 173 (6/22/2018): Ship order 29374710 - qty 500 late at Site = CDC_Tampa, Product = B07HNLBZ4Y
Day 173 (6/22/2018): Unqueue order 29374711 - qty 500 at Site = CDC_Tampa, Product = B07HNLBZ4Y
Day 173 (6/22/2018): Ship order 29374711 - qty 500 on time at Site = CDC_Tampa, Product = B07HNLBZ4Y
Day 173 (6/22/2018): Receive order 29374712 - qty 500 at Site = CDC_Tampa, Product = B07HNLBZ4Y
Day 173 (6/22/2018): Ship order 29374712 - qty 500 on time at Site = CDC_Tampa, Product = B07HNLBZ4Y
Day 173 (6/22/2018): Receive order 29374713 - qty 3000 at Site = CDC_Tampa, Product = B07HNLBZ4Y
Day 173 (6/22/2018): Ship order 29374713 - qty 3000 on time at Site = CDC_Tampa, Product = B07HNLBZ4Y
Day 173 (6/22/2018): Receive order 29374714 - qty 500 at Site = CDC_Tampa, Product = B07HNLBZ4Y
Day 173 (6/22/2018): Backorder order 29374714 - qty 500 at Site = CDC_Tampa, Product = B07HNLBZ4Y
Day 173 (6/22/2018): Review inventory for Site = CDC_Tampa, Product = B07HNLBZ4Y, OH = 0, POS = -500, RP = 5000
Day 173 (6/22/2018): Create replen order SRC-CDC_Tampa_B07HNLBZ4Y_17 Qty = 5500 for Site = CDC_Tampa, Product = B07HNLBZ4Y, OH = 0, POS = 5000, RP = 5000
Day 173 (6/22/2018): Collect statistics for Site = CDC_Tampa, Product = B07HNLBZ4Y, OH = 0, COQ = 5500, BOQ = 500
Day 174 (6/23/2018): Collect statistics for Site = CDC_Tampa, Product = B07HNLBZ4Y, OH = 0, COQ = 5500, BOQ = 500
Day 175 (6/24/2018): Collect statistics for Site = CDC_Tampa, Product = B07HNLBZ4Y, OH = 0, COQ = 5500, BOQ = 500
Day 176 (6/25/2018): Collect statistics for Site = CDC_Tampa, Product = B07HNLBZ4Y, OH = 0, COQ = 5500, BOQ = 500
Day 177 (6/26/2018): Collect statistics for Site = CDC_Tampa, Product = B07HNLBZ4Y, OH = 0, COQ = 5500, BOQ = 500
Day 178 (6/27/2018): Receive order 29374715 - qty 500 at Site = CDC_Tampa, Product = B07HNLBZ4Y
Day 178 (6/27/2018): Queue order 29374715 - qty 500 at Site = CDC_Tampa, Product = B07HNLBZ4Y
Day 178 (6/27/2018): Receive order 29374716 - qty 500 at Site = CDC_Tampa, Product = B07HNLBZ4Y
Day 178 (6/27/2018): Queue order 29374716 - qty 500 at Site = CDC_Tampa, Product = B07HNLBZ4Y
Day 178 (6/27/2018): Collect statistics for Site = CDC_Tampa, Product = B07HNLBZ4Y, OH = 0, COQ = 5500, BOQ = 1500
Day 179 (6/28/2018): Collect statistics for Site = CDC_Tampa, Product = B07HNLBZ4Y, OH = 0, COQ = 5500, BOQ = 1500
Day 180 (6/29/2018): Receive order 29374717 - qty 500 at Site = CDC_Tampa, Product = B07HNLBZ4Y
Day 180 (6/29/2018): Queue order 29374717 - qty 500 at Site = CDC_Tampa, Product = B07HNLBZ4Y
Day 180 (6/29/2018): Collect statistics for Site = CDC_Tampa, Product = B07HNLBZ4Y, OH = 0, COQ = 5500, BOQ = 2000
Day 181 (6/30/2018): Collect statistics for Site = CDC_Tampa, Product = B07HNLBZ4Y, OH = 0, COQ = 5500, BOQ = 2000
Day 182 (7/1/2018): Collect statistics for Site = CDC_Tampa, Product = B07HNLBZ4Y, OH = 0, COQ = 5500, BOQ = 2000
Day 183 (7/2/2018): Receive replen order SRC-CDC_Tampa_B07HNLBZ4Y_17 Qty 5500 at Site = CDC_Tampa, Product = B07HNLBZ4Y, OH = 5500,  POS = 3500
Day 183 (7/2/2018): Ship order 29374714 - qty 500 late at Site = CDC_Tampa, Product = B07HNLBZ4Y
Day 183 (7/2/2018): Unqueue order 29374715 - qty 500 at Site = CDC_Tampa, Product = B07HNLBZ4Y
Day 183 (7/2/2018): Ship order 29374715 - qty 500 late at Site = CDC_Tampa, Product = B07HNLBZ4Y
Day 183 (7/2/2018): Unqueue order 29374716 - qty 500 at Site = CDC_Tampa, Product = B07HNLBZ4Y
Day 183 (7/2/2018): Ship order 29374716 - qty 500 late at Site = CDC_Tampa, Product = B07HNLBZ4Y
Day 183 (7/2/2018): Unqueue order 29374717 - qty 500 at Site = CDC_Tampa, Product = B07HNLBZ4Y
Day 183 (7/2/2018): Ship order 29374717 - qty 500 on time at Site = CDC_Tampa, Product = B07HNLBZ4Y
Day 183 (7/2/2018): Receive order 29374718 - qty 500 at Site = CDC_Tampa, Product = B07HNLBZ4Y
Day 183 (7/2/2018): Ship order 29374718 - qty 500 on time at Site = CDC_Tampa, Product = B07HNLBZ4Y
Day 183 (7/2/2018): Review inventory for Site = CDC_Tampa, Product = B07HNLBZ4Y, OH = 3000, POS = 3000, RP = 5000
Day 183 (7/2/2018): Create replen order SRC-CDC_Tampa_B07HNLBZ4Y_18 Qty = 2000 for Site = CDC_Tampa, Product = B07HNLBZ4Y, OH = 3000, POS = 5000, RP = 5000
Day 183 (7/2/2018): Collect statistics for Site = CDC_Tampa, Product = B07HNLBZ4Y, OH = 3000, COQ = 2000, BOQ = 0
Day 184 (7/3/2018): Receive order 29374719 - qty 500 at Site = CDC_Tampa, Product = B07HNLBZ4Y
Day 184 (7/3/2018): Ship order 29374719 - qty 500 on time at Site = CDC_Tampa, Product = B07HNLBZ4Y
Day 184 (7/3/2018): Collect statistics for Site = CDC_Tampa, Product = B07HNLBZ4Y, OH = 2500, COQ = 2000, BOQ = 0
Day 185 (7/4/2018): Collect statistics for Site = CDC_Tampa, Product = B07HNLBZ4Y, OH = 2500, COQ = 2000, BOQ = 0
Day 186 (7/5/2018): Collect statistics for Site = CDC_Tampa, Product = B07HNLBZ4Y, OH = 2500, COQ = 2000, BOQ = 0
Day 187 (7/6/2018): Collect statistics for Site = CDC_Tampa, Product = B07HNLBZ4Y, OH = 2500, COQ = 2000, BOQ = 0
Day 188 (7/7/2018): Receive order 29374720 - qty 500 at Site = CDC_Tampa, Product = B07HNLBZ4Y
Day 188 (7/7/2018): Ship order 29374720 - qty 500 on time at Site = CDC_Tampa, Product = B07HNLBZ4Y
Day 188 (7/7/2018): Collect statistics for Site = CDC_Tampa, Product = B07HNLBZ4Y, OH = 2000, COQ = 2000, BOQ = 0
Day 189 (7/8/2018): Collect statistics for Site = CDC_Tampa, Product = B07HNLBZ4Y, OH = 2000, COQ = 2000, BOQ = 0
Day 190 (7/9/2018): Receive order 29374721 - qty 500 at Site = CDC_Tampa, Product = B07HNLBZ4Y
Day 190 (7/9/2018): Ship order 29374721 - qty 500 on time at Site = CDC_Tampa, Product = B07HNLBZ4Y
Day 190 (7/9/2018): Receive order 29374722 - qty 500 at Site = CDC_Tampa, Product = B07HNLBZ4Y
Day 190 (7/9/2018): Ship order 29374722 - qty 500 on time at Site = CDC_Tampa, Product = B07HNLBZ4Y
Day 190 (7/9/2018): Collect statistics for Site = CDC_Tampa, Product = B07HNLBZ4Y, OH = 1000, COQ = 2000, BOQ = 0
Day 191 (7/10/2018): Collect statistics for Site = CDC_Tampa, Product = B07HNLBZ4Y, OH = 1000, COQ = 2000, BOQ = 0
Day 192 (7/11/2018): Collect statistics for Site = CDC_Tampa, Product = B07HNLBZ4Y, OH = 1000, COQ = 2000, BOQ = 0
Day 193 (7/12/2018): Receive replen order SRC-CDC_Tampa_B07HNLBZ4Y_18 Qty 2000 at Site = CDC_Tampa, Product = B07HNLBZ4Y, OH = 3000,  POS = 3000
Day 193 (7/12/2018): Review inventory for Site = CDC_Tampa, Product = B07HNLBZ4Y, OH = 3000, POS = 3000, RP = 5000
Day 193 (7/12/2018): Create replen order SRC-CDC_Tampa_B07HNLBZ4Y_19 Qty = 2000 for Site = CDC_Tampa, Product = B07HNLBZ4Y, OH = 3000, POS = 5000, RP = 5000
Day 193 (7/12/2018): Collect statistics for Site = CDC_Tampa, Product = B07HNLBZ4Y, OH = 3000, COQ = 2000, BOQ = 0
Day 194 (7/13/2018): Collect statistics for Site = CDC_Tampa, Product = B07HNLBZ4Y, OH = 3000, COQ = 2000, BOQ = 0
Day 195 (7/14/2018): Collect statistics for Site = CDC_Tampa, Product = B07HNLBZ4Y, OH = 3000, COQ = 2000, BOQ = 0
Day 196 (7/15/2018): Receive order 29374723 - qty 500 at Site = CDC_Tampa, Product = B07HNLBZ4Y
Day 196 (7/15/2018): Ship order 29374723 - qty 500 on time at Site = CDC_Tampa, Product = B07HNLBZ4Y
Day 196 (7/15/2018): Collect statistics for Site = CDC_Tampa, Product = B07HNLBZ4Y, OH = 2500, COQ = 2000, BOQ = 0
Day 197 (7/16/2018): Receive order 29374724 - qty 500 at Site = CDC_Tampa, Product = B07HNLBZ4Y
Day 197 (7/16/2018): Ship order 29374724 - qty 500 on time at Site = CDC_Tampa, Product = B07HNLBZ4Y
Day 197 (7/16/2018): Collect statistics for Site = CDC_Tampa, Product = B07HNLBZ4Y, OH = 2000, COQ = 2000, BOQ = 0
Day 198 (7/17/2018): Collect statistics for Site = CDC_Tampa, Product = B07HNLBZ4Y, OH = 2000, COQ = 2000, BOQ = 0
Day 199 (7/18/2018): Collect statistics for Site = CDC_Tampa, Product = B07HNLBZ4Y, OH = 2000, COQ = 2000, BOQ = 0
Day 200 (7/19/2018): Collect statistics for Site = CDC_Tampa, Product = B07HNLBZ4Y, OH = 2000, COQ = 2000, BOQ = 0
Day 201 (7/20/2018): Receive order 29374725 - qty 500 at Site = CDC_Tampa, Product = B07HNLBZ4Y
Day 201 (7/20/2018): Ship order 29374725 - qty 500 on time at Site = CDC_Tampa, Product = B07HNLBZ4Y
Day 201 (7/20/2018): Collect statistics for Site = CDC_Tampa, Product = B07HNLBZ4Y, OH = 1500, COQ = 2000, BOQ = 0
Day 202 (7/21/2018): Collect statistics for Site = CDC_Tampa, Product = B07HNLBZ4Y, OH = 1500, COQ = 2000, BOQ = 0
Day 203 (7/22/2018): Receive replen order SRC-CDC_Tampa_B07HNLBZ4Y_19 Qty 2000 at Site = CDC_Tampa, Product = B07HNLBZ4Y, OH = 3500,  POS = 3500
Day 203 (7/22/2018): Review inventory for Site = CDC_Tampa, Product = B07HNLBZ4Y, OH = 3500, POS = 3500, RP = 5000
Day 203 (7/22/2018): Create replen order SRC-CDC_Tampa_B07HNLBZ4Y_20 Qty = 1500 for Site = CDC_Tampa, Product = B07HNLBZ4Y, OH = 3500, POS = 5000, RP = 5000
Day 203 (7/22/2018): Collect statistics for Site = CDC_Tampa, Product = B07HNLBZ4Y, OH = 3500, COQ = 1500, BOQ = 0
Day 204 (7/23/2018): Receive order 29374726 - qty 3000 at Site = CDC_Tampa, Product = B07HNLBZ4Y
Day 204 (7/23/2018): Ship order 29374726 - qty 3000 on time at Site = CDC_Tampa, Product = B07HNLBZ4Y
Day 204 (7/23/2018): Collect statistics for Site = CDC_Tampa, Product = B07HNLBZ4Y, OH = 500, COQ = 1500, BOQ = 0
Day 205 (7/24/2018): Collect statistics for Site = CDC_Tampa, Product = B07HNLBZ4Y, OH = 500, COQ = 1500, BOQ = 0
Day 206 (7/25/2018): Collect statistics for Site = CDC_Tampa, Product = B07HNLBZ4Y, OH = 500, COQ = 1500, BOQ = 0
Day 207 (7/26/2018): Receive order 29374727 - qty 500 at Site = CDC_Tampa, Product = B07HNLBZ4Y
Day 207 (7/26/2018): Ship order 29374727 - qty 500 on time at Site = CDC_Tampa, Product = B07HNLBZ4Y
Day 207 (7/26/2018): Collect statistics for Site = CDC_Tampa, Product = B07HNLBZ4Y, OH = 0, COQ = 1500, BOQ = 0
Day 208 (7/27/2018): Collect statistics for Site = CDC_Tampa, Product = B07HNLBZ4Y, OH = 0, COQ = 1500, BOQ = 0
Day 209 (7/28/2018): Collect statistics for Site = CDC_Tampa, Product = B07HNLBZ4Y, OH = 0, COQ = 1500, BOQ = 0
Day 210 (7/29/2018): Collect statistics for Site = CDC_Tampa, Product = B07HNLBZ4Y, OH = 0, COQ = 1500, BOQ = 0
Day 211 (7/30/2018): Receive order 29374728 - qty 500 at Site = CDC_Tampa, Product = B07HNLBZ4Y
Day 211 (7/30/2018): Backorder order 29374728 - qty 500 at Site = CDC_Tampa, Product = B07HNLBZ4Y
Day 211 (7/30/2018): Collect statistics for Site = CDC_Tampa, Product = B07HNLBZ4Y, OH = 0, COQ = 1500, BOQ = 500
Day 212 (7/31/2018): Collect statistics for Site = CDC_Tampa, Product = B07HNLBZ4Y, OH = 0, COQ = 1500, BOQ = 500
Day 213 (8/1/2018): Receive replen order SRC-CDC_Tampa_B07HNLBZ4Y_20 Qty 1500 at Site = CDC_Tampa, Product = B07HNLBZ4Y, OH = 1500,  POS = 1000
Day 213 (8/1/2018): Ship order 29374728 - qty 500 on time at Site = CDC_Tampa, Product = B07HNLBZ4Y
Day 213 (8/1/2018): Review inventory for Site = CDC_Tampa, Product = B07HNLBZ4Y, OH = 1000, POS = 1000, RP = 5000
Day 213 (8/1/2018): Create replen order SRC-CDC_Tampa_B07HNLBZ4Y_21 Qty = 4000 for Site = CDC_Tampa, Product = B07HNLBZ4Y, OH = 1000, POS = 5000, RP = 5000
Day 213 (8/1/2018): Collect statistics for Site = CDC_Tampa, Product = B07HNLBZ4Y, OH = 1000, COQ = 4000, BOQ = 0
Day 214 (8/2/2018): Receive order 29374729 - qty 500 at Site = CDC_Tampa, Product = B07HNLBZ4Y
Day 214 (8/2/2018): Ship order 29374729 - qty 500 on time at Site = CDC_Tampa, Product = B07HNLBZ4Y
Day 214 (8/2/2018): Collect statistics for Site = CDC_Tampa, Product = B07HNLBZ4Y, OH = 500, COQ = 4000, BOQ = 0
Day 215 (8/3/2018): Collect statistics for Site = CDC_Tampa, Product = B07HNLBZ4Y, OH = 500, COQ = 4000, BOQ = 0
Day 216 (8/4/2018): Collect statistics for Site = CDC_Tampa, Product = B07HNLBZ4Y, OH = 500, COQ = 4000, BOQ = 0
Day 217 (8/5/2018): Collect statistics for Site = CDC_Tampa, Product = B07HNLBZ4Y, OH = 500, COQ = 4000, BOQ = 0
Day 218 (8/6/2018): Collect statistics for Site = CDC_Tampa, Product = B07HNLBZ4Y, OH = 500, COQ = 4000, BOQ = 0
Day 219 (8/7/2018): Receive order 29374730 - qty 500 at Site = CDC_Tampa, Product = B07HNLBZ4Y
Day 219 (8/7/2018): Ship order 29374730 - qty 500 on time at Site = CDC_Tampa, Product = B07HNLBZ4Y
Day 219 (8/7/2018): Collect statistics for Site = CDC_Tampa, Product = B07HNLBZ4Y, OH = 0, COQ = 4000, BOQ = 0
Day 220 (8/8/2018): Collect statistics for Site = CDC_Tampa, Product = B07HNLBZ4Y, OH = 0, COQ = 4000, BOQ = 0
Day 221 (8/9/2018): Receive order 29374731 - qty 3000 at Site = CDC_Tampa, Product = B07HNLBZ4Y
Day 221 (8/9/2018): Backorder order 29374731 - qty 3000 at Site = CDC_Tampa, Product = B07HNLBZ4Y
Day 221 (8/9/2018): Collect statistics for Site = CDC_Tampa, Product = B07HNLBZ4Y, OH = 0, COQ = 4000, BOQ = 3000
Day 222 (8/10/2018): Collect statistics for Site = CDC_Tampa, Product = B07HNLBZ4Y, OH = 0, COQ = 4000, BOQ = 3000
Day 223 (8/11/2018): Receive replen order SRC-CDC_Tampa_B07HNLBZ4Y_21 Qty 4000 at Site = CDC_Tampa, Product = B07HNLBZ4Y, OH = 4000,  POS = 1000
Day 223 (8/11/2018): Ship order 29374731 - qty 3000 on time at Site = CDC_Tampa, Product = B07HNLBZ4Y
Day 223 (8/11/2018): Review inventory for Site = CDC_Tampa, Product = B07HNLBZ4Y, OH = 1000, POS = 1000, RP = 5000
Day 223 (8/11/2018): Create replen order SRC-CDC_Tampa_B07HNLBZ4Y_22 Qty = 4000 for Site = CDC_Tampa, Product = B07HNLBZ4Y, OH = 1000, POS = 5000, RP = 5000
Day 223 (8/11/2018): Collect statistics for Site = CDC_Tampa, Product = B07HNLBZ4Y, OH = 1000, COQ = 4000, BOQ = 0
Day 224 (8/12/2018): Receive order 29374732 - qty 500 at Site = CDC_Tampa, Product = B07HNLBZ4Y
Day 224 (8/12/2018): Ship order 29374732 - qty 500 on time at Site = CDC_Tampa, Product = B07HNLBZ4Y
Day 224 (8/12/2018): Collect statistics for Site = CDC_Tampa, Product = B07HNLBZ4Y, OH = 500, COQ = 4000, BOQ = 0
Day 225 (8/13/2018): Collect statistics for Site = CDC_Tampa, Product = B07HNLBZ4Y, OH = 500, COQ = 4000, BOQ = 0
Day 226 (8/14/2018): Collect statistics for Site = CDC_Tampa, Product = B07HNLBZ4Y, OH = 500, COQ = 4000, BOQ = 0
Day 227 (8/15/2018): Collect statistics for Site = CDC_Tampa, Product = B07HNLBZ4Y, OH = 500, COQ = 4000, BOQ = 0
Day 228 (8/16/2018): Receive order 29374733 - qty 500 at Site = CDC_Tampa, Product = B07HNLBZ4Y
Day 228 (8/16/2018): Ship order 29374733 - qty 500 on time at Site = CDC_Tampa, Product = B07HNLBZ4Y
Day 228 (8/16/2018): Collect statistics for Site = CDC_Tampa, Product = B07HNLBZ4Y, OH = 0, COQ = 4000, BOQ = 0
Day 229 (8/17/2018): Collect statistics for Site = CDC_Tampa, Product = B07HNLBZ4Y, OH = 0, COQ = 4000, BOQ = 0
Day 230 (8/18/2018): Receive order 29374734 - qty 500 at Site = CDC_Tampa, Product = B07HNLBZ4Y
Day 230 (8/18/2018): Backorder order 29374734 - qty 500 at Site = CDC_Tampa, Product = B07HNLBZ4Y
Day 230 (8/18/2018): Collect statistics for Site = CDC_Tampa, Product = B07HNLBZ4Y, OH = 0, COQ = 4000, BOQ = 500
Day 231 (8/19/2018): Collect statistics for Site = CDC_Tampa, Product = B07HNLBZ4Y, OH = 0, COQ = 4000, BOQ = 500
Day 232 (8/20/2018): Collect statistics for Site = CDC_Tampa, Product = B07HNLBZ4Y, OH = 0, COQ = 4000, BOQ = 500
Day 233 (8/21/2018): Receive replen order SRC-CDC_Tampa_B07HNLBZ4Y_22 Qty 4000 at Site = CDC_Tampa, Product = B07HNLBZ4Y, OH = 4000,  POS = 3500
Day 233 (8/21/2018): Ship order 29374734 - qty 500 on time at Site = CDC_Tampa, Product = B07HNLBZ4Y
Day 233 (8/21/2018): Review inventory for Site = CDC_Tampa, Product = B07HNLBZ4Y, OH = 3500, POS = 3500, RP = 5000
Day 233 (8/21/2018): Create replen order SRC-CDC_Tampa_B07HNLBZ4Y_23 Qty = 1500 for Site = CDC_Tampa, Product = B07HNLBZ4Y, OH = 3500, POS = 5000, RP = 5000
Day 233 (8/21/2018): Collect statistics for Site = CDC_Tampa, Product = B07HNLBZ4Y, OH = 3500, COQ = 1500, BOQ = 0
Day 234 (8/22/2018): Receive order 29374735 - qty 500 at Site = CDC_Tampa, Product = B07HNLBZ4Y
Day 234 (8/22/2018): Ship order 29374735 - qty 500 on time at Site = CDC_Tampa, Product = B07HNLBZ4Y
Day 234 (8/22/2018): Receive order 29374736 - qty 500 at Site = CDC_Tampa, Product = B07HNLBZ4Y
Day 234 (8/22/2018): Ship order 29374736 - qty 500 on time at Site = CDC_Tampa, Product = B07HNLBZ4Y
Day 234 (8/22/2018): Collect statistics for Site = CDC_Tampa, Product = B07HNLBZ4Y, OH = 2500, COQ = 1500, BOQ = 0
Day 235 (8/23/2018): Collect statistics for Site = CDC_Tampa, Product = B07HNLBZ4Y, OH = 2500, COQ = 1500, BOQ = 0
Day 236 (8/24/2018): Collect statistics for Site = CDC_Tampa, Product = B07HNLBZ4Y, OH = 2500, COQ = 1500, BOQ = 0
Day 237 (8/25/2018): Collect statistics for Site = CDC_Tampa, Product = B07HNLBZ4Y, OH = 2500, COQ = 1500, BOQ = 0
Day 238 (8/26/2018): Collect statistics for Site = CDC_Tampa, Product = B07HNLBZ4Y, OH = 2500, COQ = 1500, BOQ = 0
Day 239 (8/27/2018): Receive order 29374737 - qty 500 at Site = CDC_Tampa, Product = B07HNLBZ4Y
Day 239 (8/27/2018): Ship order 29374737 - qty 500 on time at Site = CDC_Tampa, Product = B07HNLBZ4Y
Day 239 (8/27/2018): Collect statistics for Site = CDC_Tampa, Product = B07HNLBZ4Y, OH = 2000, COQ = 1500, BOQ = 0
Day 240 (8/28/2018): Collect statistics for Site = CDC_Tampa, Product = B07HNLBZ4Y, OH = 2000, COQ = 1500, BOQ = 0
Day 241 (8/29/2018): Collect statistics for Site = CDC_Tampa, Product = B07HNLBZ4Y, OH = 2000, COQ = 1500, BOQ = 0
Day 242 (8/30/2018): Receive order 29374739 - qty 500 at Site = CDC_Tampa, Product = B07HNLBZ4Y
Day 242 (8/30/2018): Ship order 29374739 - qty 500 on time at Site = CDC_Tampa, Product = B07HNLBZ4Y
Day 242 (8/30/2018): Collect statistics for Site = CDC_Tampa, Product = B07HNLBZ4Y, OH = 1500, COQ = 1500, BOQ = 0
Day 243 (8/31/2018): Receive replen order SRC-CDC_Tampa_B07HNLBZ4Y_23 Qty 1500 at Site = CDC_Tampa, Product = B07HNLBZ4Y, OH = 3000,  POS = 3000
Day 243 (8/31/2018): Receive order 29374738 - qty 500 at Site = CDC_Tampa, Product = B07HNLBZ4Y
Day 243 (8/31/2018): Ship order 29374738 - qty 500 on time at Site = CDC_Tampa, Product = B07HNLBZ4Y
Day 243 (8/31/2018): Review inventory for Site = CDC_Tampa, Product = B07HNLBZ4Y, OH = 2500, POS = 2500, RP = 5000
Day 243 (8/31/2018): Create replen order SRC-CDC_Tampa_B07HNLBZ4Y_24 Qty = 2500 for Site = CDC_Tampa, Product = B07HNLBZ4Y, OH = 2500, POS = 5000, RP = 5000
Day 243 (8/31/2018): Collect statistics for Site = CDC_Tampa, Product = B07HNLBZ4Y, OH = 2500, COQ = 2500, BOQ = 0
Day 244 (9/1/2018): Collect statistics for Site = CDC_Tampa, Product = B07HNLBZ4Y, OH = 2500, COQ = 2500, BOQ = 0
Day 245 (9/2/2018): Receive order 29374740 - qty 500 at Site = CDC_Tampa, Product = B07HNLBZ4Y
Day 245 (9/2/2018): Ship order 29374740 - qty 500 on time at Site = CDC_Tampa, Product = B07HNLBZ4Y
Day 245 (9/2/2018): Collect statistics for Site = CDC_Tampa, Product = B07HNLBZ4Y, OH = 2000, COQ = 2500, BOQ = 0
Day 246 (9/3/2018): Collect statistics for Site = CDC_Tampa, Product = B07HNLBZ4Y, OH = 2000, COQ = 2500, BOQ = 0
Day 247 (9/4/2018): Receive order 29374741 - qty 500 at Site = CDC_Tampa, Product = B07HNLBZ4Y
Day 247 (9/4/2018): Ship order 29374741 - qty 500 on time at Site = CDC_Tampa, Product = B07HNLBZ4Y
Day 247 (9/4/2018): Collect statistics for Site = CDC_Tampa, Product = B07HNLBZ4Y, OH = 1500, COQ = 2500, BOQ = 0
Day 248 (9/5/2018): Collect statistics for Site = CDC_Tampa, Product = B07HNLBZ4Y, OH = 1500, COQ = 2500, BOQ = 0
Day 249 (9/6/2018): Collect statistics for Site = CDC_Tampa, Product = B07HNLBZ4Y, OH = 1500, COQ = 2500, BOQ = 0
Day 250 (9/7/2018): Receive order 29374742 - qty 500 at Site = CDC_Tampa, Product = B07HNLBZ4Y
Day 250 (9/7/2018): Ship order 29374742 - qty 500 on time at Site = CDC_Tampa, Product = B07HNLBZ4Y
Day 250 (9/7/2018): Collect statistics for Site = CDC_Tampa, Product = B07HNLBZ4Y, OH = 1000, COQ = 2500, BOQ = 0
Day 251 (9/8/2018): Collect statistics for Site = CDC_Tampa, Product = B07HNLBZ4Y, OH = 1000, COQ = 2500, BOQ = 0
Day 252 (9/9/2018): Collect statistics for Site = CDC_Tampa, Product = B07HNLBZ4Y, OH = 1000, COQ = 2500, BOQ = 0
Day 253 (9/10/2018): Receive replen order SRC-CDC_Tampa_B07HNLBZ4Y_24 Qty 2500 at Site = CDC_Tampa, Product = B07HNLBZ4Y, OH = 3500,  POS = 3500
Day 253 (9/10/2018): Review inventory for Site = CDC_Tampa, Product = B07HNLBZ4Y, OH = 3500, POS = 3500, RP = 5000
Day 253 (9/10/2018): Create replen order SRC-CDC_Tampa_B07HNLBZ4Y_25 Qty = 1500 for Site = CDC_Tampa, Product = B07HNLBZ4Y, OH = 3500, POS = 5000, RP = 5000
Day 253 (9/10/2018): Collect statistics for Site = CDC_Tampa, Product = B07HNLBZ4Y, OH = 3500, COQ = 1500, BOQ = 0
Day 254 (9/11/2018): Receive order 29374743 - qty 500 at Site = CDC_Tampa, Product = B07HNLBZ4Y
Day 254 (9/11/2018): Ship order 29374743 - qty 500 on time at Site = CDC_Tampa, Product = B07HNLBZ4Y
Day 254 (9/11/2018): Collect statistics for Site = CDC_Tampa, Product = B07HNLBZ4Y, OH = 3000, COQ = 1500, BOQ = 0
Day 255 (9/12/2018): Collect statistics for Site = CDC_Tampa, Product = B07HNLBZ4Y, OH = 3000, COQ = 1500, BOQ = 0
Day 256 (9/13/2018): Receive order 29374744 - qty 500 at Site = CDC_Tampa, Product = B07HNLBZ4Y
Day 256 (9/13/2018): Ship order 29374744 - qty 500 on time at Site = CDC_Tampa, Product = B07HNLBZ4Y
Day 256 (9/13/2018): Collect statistics for Site = CDC_Tampa, Product = B07HNLBZ4Y, OH = 2500, COQ = 1500, BOQ = 0
Day 257 (9/14/2018): Collect statistics for Site = CDC_Tampa, Product = B07HNLBZ4Y, OH = 2500, COQ = 1500, BOQ = 0
Day 258 (9/15/2018): Collect statistics for Site = CDC_Tampa, Product = B07HNLBZ4Y, OH = 2500, COQ = 1500, BOQ = 0
Day 259 (9/16/2018): Collect statistics for Site = CDC_Tampa, Product = B07HNLBZ4Y, OH = 2500, COQ = 1500, BOQ = 0
Day 260 (9/17/2018): Collect statistics for Site = CDC_Tampa, Product = B07HNLBZ4Y, OH = 2500, COQ = 1500, BOQ = 0
Day 261 (9/18/2018): Receive order 29374745 - qty 500 at Site = CDC_Tampa, Product = B07HNLBZ4Y
Day 261 (9/18/2018): Ship order 29374745 - qty 500 on time at Site = CDC_Tampa, Product = B07HNLBZ4Y
Day 261 (9/18/2018): Collect statistics for Site = CDC_Tampa, Product = B07HNLBZ4Y, OH = 2000, COQ = 1500, BOQ = 0
Day 262 (9/19/2018): Receive order 29374746 - qty 500 at Site = CDC_Tampa, Product = B07HNLBZ4Y
Day 262 (9/19/2018): Ship order 29374746 - qty 500 on time at Site = CDC_Tampa, Product = B07HNLBZ4Y
Day 262 (9/19/2018): Collect statistics for Site = CDC_Tampa, Product = B07HNLBZ4Y, OH = 1500, COQ = 1500, BOQ = 0
Day 263 (9/20/2018): Receive replen order SRC-CDC_Tampa_B07HNLBZ4Y_25 Qty 1500 at Site = CDC_Tampa, Product = B07HNLBZ4Y, OH = 3000,  POS = 3000
Day 263 (9/20/2018): Review inventory for Site = CDC_Tampa, Product = B07HNLBZ4Y, OH = 3000, POS = 3000, RP = 5000
Day 263 (9/20/2018): Create replen order SRC-CDC_Tampa_B07HNLBZ4Y_26 Qty = 2000 for Site = CDC_Tampa, Product = B07HNLBZ4Y, OH = 3000, POS = 5000, RP = 5000
Day 263 (9/20/2018): Collect statistics for Site = CDC_Tampa, Product = B07HNLBZ4Y, OH = 3000, COQ = 2000, BOQ = 0
Day 264 (9/21/2018): Receive order 29374747 - qty 500 at Site = CDC_Tampa, Product = B07HNLBZ4Y
Day 264 (9/21/2018): Ship order 29374747 - qty 500 on time at Site = CDC_Tampa, Product = B07HNLBZ4Y
Day 264 (9/21/2018): Collect statistics for Site = CDC_Tampa, Product = B07HNLBZ4Y, OH = 2500, COQ = 2000, BOQ = 0
Day 265 (9/22/2018): Collect statistics for Site = CDC_Tampa, Product = B07HNLBZ4Y, OH = 2500, COQ = 2000, BOQ = 0
Day 266 (9/23/2018): Receive order 29374748 - qty 500 at Site = CDC_Tampa, Product = B07HNLBZ4Y
Day 266 (9/23/2018): Ship order 29374748 - qty 500 on time at Site = CDC_Tampa, Product = B07HNLBZ4Y
Day 266 (9/23/2018): Collect statistics for Site = CDC_Tampa, Product = B07HNLBZ4Y, OH = 2000, COQ = 2000, BOQ = 0
Day 267 (9/24/2018): Receive order 29374749 - qty 500 at Site = CDC_Tampa, Product = B07HNLBZ4Y
Day 267 (9/24/2018): Ship order 29374749 - qty 500 on time at Site = CDC_Tampa, Product = B07HNLBZ4Y
Day 267 (9/24/2018): Collect statistics for Site = CDC_Tampa, Product = B07HNLBZ4Y, OH = 1500, COQ = 2000, BOQ = 0
Day 268 (9/25/2018): Collect statistics for Site = CDC_Tampa, Product = B07HNLBZ4Y, OH = 1500, COQ = 2000, BOQ = 0
Day 269 (9/26/2018): Collect statistics for Site = CDC_Tampa, Product = B07HNLBZ4Y, OH = 1500, COQ = 2000, BOQ = 0
Day 270 (9/27/2018): Collect statistics for Site = CDC_Tampa, Product = B07HNLBZ4Y, OH = 1500, COQ = 2000, BOQ = 0
Day 271 (9/28/2018): Collect statistics for Site = CDC_Tampa, Product = B07HNLBZ4Y, OH = 1500, COQ = 2000, BOQ = 0
Day 272 (9/29/2018): Receive order 29374750 - qty 500 at Site = CDC_Tampa, Product = B07HNLBZ4Y
Day 272 (9/29/2018): Ship order 29374750 - qty 500 on time at Site = CDC_Tampa, Product = B07HNLBZ4Y
Day 272 (9/29/2018): Collect statistics for Site = CDC_Tampa, Product = B07HNLBZ4Y, OH = 1000, COQ = 2000, BOQ = 0
Day 273 (9/30/2018): Receive replen order SRC-CDC_Tampa_B07HNLBZ4Y_26 Qty 2000 at Site = CDC_Tampa, Product = B07HNLBZ4Y, OH = 3000,  POS = 3000
Day 273 (9/30/2018): Receive order 29374751 - qty 3000 at Site = CDC_Tampa, Product = B07HNLBZ4Y
Day 273 (9/30/2018): Ship order 29374751 - qty 3000 on time at Site = CDC_Tampa, Product = B07HNLBZ4Y
Day 273 (9/30/2018): Review inventory for Site = CDC_Tampa, Product = B07HNLBZ4Y, OH = 0, POS = 0, RP = 5000
Day 273 (9/30/2018): Create replen order SRC-CDC_Tampa_B07HNLBZ4Y_27 Qty = 5000 for Site = CDC_Tampa, Product = B07HNLBZ4Y, OH = 0, POS = 5000, RP = 5000
Day 273 (9/30/2018): Collect statistics for Site = CDC_Tampa, Product = B07HNLBZ4Y, OH = 0, COQ = 5000, BOQ = 0
Day 274 (10/1/2018): Collect statistics for Site = CDC_Tampa, Product = B07HNLBZ4Y, OH = 0, COQ = 5000, BOQ = 0
Day 275 (10/2/2018): Collect statistics for Site = CDC_Tampa, Product = B07HNLBZ4Y, OH = 0, COQ = 5000, BOQ = 0
Day 276 (10/3/2018): Collect statistics for Site = CDC_Tampa, Product = B07HNLBZ4Y, OH = 0, COQ = 5000, BOQ = 0
Day 277 (10/4/2018): Collect statistics for Site = CDC_Tampa, Product = B07HNLBZ4Y, OH = 0, COQ = 5000, BOQ = 0
Day 278 (10/5/2018): Collect statistics for Site = CDC_Tampa, Product = B07HNLBZ4Y, OH = 0, COQ = 5000, BOQ = 0
Day 279 (10/6/2018): Receive order 29374753 - qty 500 at Site = CDC_Tampa, Product = B07HNLBZ4Y
Day 279 (10/6/2018): Backorder order 29374753 - qty 500 at Site = CDC_Tampa, Product = B07HNLBZ4Y
Day 279 (10/6/2018): Collect statistics for Site = CDC_Tampa, Product = B07HNLBZ4Y, OH = 0, COQ = 5000, BOQ = 500
Day 280 (10/7/2018): Receive order 29374752 - qty 500 at Site = CDC_Tampa, Product = B07HNLBZ4Y
Day 280 (10/7/2018): Queue order 29374752 - qty 500 at Site = CDC_Tampa, Product = B07HNLBZ4Y
Day 280 (10/7/2018): Receive order 29374754 - qty 500 at Site = CDC_Tampa, Product = B07HNLBZ4Y
Day 280 (10/7/2018): Queue order 29374754 - qty 500 at Site = CDC_Tampa, Product = B07HNLBZ4Y
Day 280 (10/7/2018): Collect statistics for Site = CDC_Tampa, Product = B07HNLBZ4Y, OH = 0, COQ = 5000, BOQ = 1500
Day 281 (10/8/2018): Collect statistics for Site = CDC_Tampa, Product = B07HNLBZ4Y, OH = 0, COQ = 5000, BOQ = 1500
Day 282 (10/9/2018): Collect statistics for Site = CDC_Tampa, Product = B07HNLBZ4Y, OH = 0, COQ = 5000, BOQ = 1500
Day 283 (10/10/2018): Receive replen order SRC-CDC_Tampa_B07HNLBZ4Y_27 Qty 5000 at Site = CDC_Tampa, Product = B07HNLBZ4Y, OH = 5000,  POS = 3500
Day 283 (10/10/2018): Ship order 29374753 - qty 500 late at Site = CDC_Tampa, Product = B07HNLBZ4Y
Day 283 (10/10/2018): Unqueue order 29374752 - qty 500 at Site = CDC_Tampa, Product = B07HNLBZ4Y
Day 283 (10/10/2018): Ship order 29374752 - qty 500 late at Site = CDC_Tampa, Product = B07HNLBZ4Y
Day 283 (10/10/2018): Unqueue order 29374754 - qty 500 at Site = CDC_Tampa, Product = B07HNLBZ4Y
Day 283 (10/10/2018): Ship order 29374754 - qty 500 on time at Site = CDC_Tampa, Product = B07HNLBZ4Y
Day 283 (10/10/2018): Receive order 29374755 - qty 500 at Site = CDC_Tampa, Product = B07HNLBZ4Y
Day 283 (10/10/2018): Ship order 29374755 - qty 500 on time at Site = CDC_Tampa, Product = B07HNLBZ4Y
Day 283 (10/10/2018): Receive order 29374756 - qty 3000 at Site = CDC_Tampa, Product = B07HNLBZ4Y
Day 283 (10/10/2018): Ship order 29374756 - qty 3000 on time at Site = CDC_Tampa, Product = B07HNLBZ4Y
Day 283 (10/10/2018): Review inventory for Site = CDC_Tampa, Product = B07HNLBZ4Y, OH = 0, POS = 0, RP = 5000
Day 283 (10/10/2018): Create replen order SRC-CDC_Tampa_B07HNLBZ4Y_28 Qty = 5000 for Site = CDC_Tampa, Product = B07HNLBZ4Y, OH = 0, POS = 5000, RP = 5000
Day 283 (10/10/2018): Collect statistics for Site = CDC_Tampa, Product = B07HNLBZ4Y, OH = 0, COQ = 5000, BOQ = 0
Day 284 (10/11/2018): Collect statistics for Site = CDC_Tampa, Product = B07HNLBZ4Y, OH = 0, COQ = 5000, BOQ = 0
Day 285 (10/12/2018): Collect statistics for Site = CDC_Tampa, Product = B07HNLBZ4Y, OH = 0, COQ = 5000, BOQ = 0
Day 286 (10/13/2018): Collect statistics for Site = CDC_Tampa, Product = B07HNLBZ4Y, OH = 0, COQ = 5000, BOQ = 0
Day 287 (10/14/2018): Collect statistics for Site = CDC_Tampa, Product = B07HNLBZ4Y, OH = 0, COQ = 5000, BOQ = 0
Day 288 (10/15/2018): Collect statistics for Site = CDC_Tampa, Product = B07HNLBZ4Y, OH = 0, COQ = 5000, BOQ = 0
Day 289 (10/16/2018): Receive order 29374757 - qty 500 at Site = CDC_Tampa, Product = B07HNLBZ4Y
Day 289 (10/16/2018): Backorder order 29374757 - qty 500 at Site = CDC_Tampa, Product = B07HNLBZ4Y
Day 289 (10/16/2018): Collect statistics for Site = CDC_Tampa, Product = B07HNLBZ4Y, OH = 0, COQ = 5000, BOQ = 500
Day 290 (10/17/2018): Collect statistics for Site = CDC_Tampa, Product = B07HNLBZ4Y, OH = 0, COQ = 5000, BOQ = 500
Day 291 (10/18/2018): Collect statistics for Site = CDC_Tampa, Product = B07HNLBZ4Y, OH = 0, COQ = 5000, BOQ = 500
Day 292 (10/19/2018): Receive order 29374758 - qty 500 at Site = CDC_Tampa, Product = B07HNLBZ4Y
Day 292 (10/19/2018): Queue order 29374758 - qty 500 at Site = CDC_Tampa, Product = B07HNLBZ4Y
Day 292 (10/19/2018): Collect statistics for Site = CDC_Tampa, Product = B07HNLBZ4Y, OH = 0, COQ = 5000, BOQ = 1000
Day 293 (10/20/2018): Receive replen order SRC-CDC_Tampa_B07HNLBZ4Y_28 Qty 5000 at Site = CDC_Tampa, Product = B07HNLBZ4Y, OH = 5000,  POS = 4000
Day 293 (10/20/2018): Ship order 29374757 - qty 500 late at Site = CDC_Tampa, Product = B07HNLBZ4Y
Day 293 (10/20/2018): Unqueue order 29374758 - qty 500 at Site = CDC_Tampa, Product = B07HNLBZ4Y
Day 293 (10/20/2018): Ship order 29374758 - qty 500 on time at Site = CDC_Tampa, Product = B07HNLBZ4Y
Day 293 (10/20/2018): Review inventory for Site = CDC_Tampa, Product = B07HNLBZ4Y, OH = 4000, POS = 4000, RP = 5000
Day 293 (10/20/2018): Create replen order SRC-CDC_Tampa_B07HNLBZ4Y_29 Qty = 1000 for Site = CDC_Tampa, Product = B07HNLBZ4Y, OH = 4000, POS = 5000, RP = 5000
Day 293 (10/20/2018): Collect statistics for Site = CDC_Tampa, Product = B07HNLBZ4Y, OH = 4000, COQ = 1000, BOQ = 0
Day 294 (10/21/2018): Collect statistics for Site = CDC_Tampa, Product = B07HNLBZ4Y, OH = 4000, COQ = 1000, BOQ = 0
Day 295 (10/22/2018): Collect statistics for Site = CDC_Tampa, Product = B07HNLBZ4Y, OH = 4000, COQ = 1000, BOQ = 0
Day 296 (10/23/2018): Receive order 29374759 - qty 500 at Site = CDC_Tampa, Product = B07HNLBZ4Y
Day 296 (10/23/2018): Ship order 29374759 - qty 500 on time at Site = CDC_Tampa, Product = B07HNLBZ4Y
Day 296 (10/23/2018): Receive order 29374760 - qty 500 at Site = CDC_Tampa, Product = B07HNLBZ4Y
Day 296 (10/23/2018): Ship order 29374760 - qty 500 on time at Site = CDC_Tampa, Product = B07HNLBZ4Y
Day 296 (10/23/2018): Collect statistics for Site = CDC_Tampa, Product = B07HNLBZ4Y, OH = 3000, COQ = 1000, BOQ = 0
Day 297 (10/24/2018): Collect statistics for Site = CDC_Tampa, Product = B07HNLBZ4Y, OH = 3000, COQ = 1000, BOQ = 0
Day 298 (10/25/2018): Collect statistics for Site = CDC_Tampa, Product = B07HNLBZ4Y, OH = 3000, COQ = 1000, BOQ = 0
Day 299 (10/26/2018): Receive order 29374761 - qty 500 at Site = CDC_Tampa, Product = B07HNLBZ4Y
Day 299 (10/26/2018): Ship order 29374761 - qty 500 on time at Site = CDC_Tampa, Product = B07HNLBZ4Y
Day 299 (10/26/2018): Collect statistics for Site = CDC_Tampa, Product = B07HNLBZ4Y, OH = 2500, COQ = 1000, BOQ = 0
Day 300 (10/27/2018): Collect statistics for Site = CDC_Tampa, Product = B07HNLBZ4Y, OH = 2500, COQ = 1000, BOQ = 0
Day 301 (10/28/2018): Collect statistics for Site = CDC_Tampa, Product = B07HNLBZ4Y, OH = 2500, COQ = 1000, BOQ = 0
Day 302 (10/29/2018): Collect statistics for Site = CDC_Tampa, Product = B07HNLBZ4Y, OH = 2500, COQ = 1000, BOQ = 0
Day 303 (10/30/2018): Receive replen order SRC-CDC_Tampa_B07HNLBZ4Y_29 Qty 1000 at Site = CDC_Tampa, Product = B07HNLBZ4Y, OH = 3500,  POS = 3500
Day 303 (10/30/2018): Review inventory for Site = CDC_Tampa, Product = B07HNLBZ4Y, OH = 3500, POS = 3500, RP = 5000
Day 303 (10/30/2018): Create replen order SRC-CDC_Tampa_B07HNLBZ4Y_30 Qty = 1500 for Site = CDC_Tampa, Product = B07HNLBZ4Y, OH = 3500, POS = 5000, RP = 5000
Day 303 (10/30/2018): Collect statistics for Site = CDC_Tampa, Product = B07HNLBZ4Y, OH = 3500, COQ = 1500, BOQ = 0
Day 304 (10/31/2018): Receive order 29374762 - qty 500 at Site = CDC_Tampa, Product = B07HNLBZ4Y
Day 304 (10/31/2018): Ship order 29374762 - qty 500 on time at Site = CDC_Tampa, Product = B07HNLBZ4Y
Day 304 (10/31/2018): Receive order 29374763 - qty 500 at Site = CDC_Tampa, Product = B07HNLBZ4Y
Day 304 (10/31/2018): Ship order 29374763 - qty 500 on time at Site = CDC_Tampa, Product = B07HNLBZ4Y
Day 304 (10/31/2018): Collect statistics for Site = CDC_Tampa, Product = B07HNLBZ4Y, OH = 2500, COQ = 1500, BOQ = 0
Day 305 (11/1/2018): Collect statistics for Site = CDC_Tampa, Product = B07HNLBZ4Y, OH = 2500, COQ = 1500, BOQ = 0
Day 306 (11/2/2018): Collect statistics for Site = CDC_Tampa, Product = B07HNLBZ4Y, OH = 2500, COQ = 1500, BOQ = 0
Day 307 (11/3/2018): Receive order 29374764 - qty 500 at Site = CDC_Tampa, Product = B07HNLBZ4Y
Day 307 (11/3/2018): Ship order 29374764 - qty 500 on time at Site = CDC_Tampa, Product = B07HNLBZ4Y
Day 307 (11/3/2018): Collect statistics for Site = CDC_Tampa, Product = B07HNLBZ4Y, OH = 2000, COQ = 1500, BOQ = 0
Day 308 (11/4/2018): Collect statistics for Site = CDC_Tampa, Product = B07HNLBZ4Y, OH = 2000, COQ = 1500, BOQ = 0
Day 309 (11/5/2018): Collect statistics for Site = CDC_Tampa, Product = B07HNLBZ4Y, OH = 2000, COQ = 1500, BOQ = 0
Day 310 (11/6/2018): Receive order 29374765 - qty 500 at Site = CDC_Tampa, Product = B07HNLBZ4Y
Day 310 (11/6/2018): Ship order 29374765 - qty 500 on time at Site = CDC_Tampa, Product = B07HNLBZ4Y
Day 310 (11/6/2018): Collect statistics for Site = CDC_Tampa, Product = B07HNLBZ4Y, OH = 1500, COQ = 1500, BOQ = 0
Day 311 (11/7/2018): Collect statistics for Site = CDC_Tampa, Product = B07HNLBZ4Y, OH = 1500, COQ = 1500, BOQ = 0
Day 312 (11/8/2018): Receive order 29374766 - qty 500 at Site = CDC_Tampa, Product = B07HNLBZ4Y
Day 312 (11/8/2018): Ship order 29374766 - qty 500 on time at Site = CDC_Tampa, Product = B07HNLBZ4Y
Day 312 (11/8/2018): Collect statistics for Site = CDC_Tampa, Product = B07HNLBZ4Y, OH = 1000, COQ = 1500, BOQ = 0
Day 313 (11/9/2018): Receive replen order SRC-CDC_Tampa_B07HNLBZ4Y_30 Qty 1500 at Site = CDC_Tampa, Product = B07HNLBZ4Y, OH = 2500,  POS = 2500
Day 313 (11/9/2018): Review inventory for Site = CDC_Tampa, Product = B07HNLBZ4Y, OH = 2500, POS = 2500, RP = 5000
Day 313 (11/9/2018): Create replen order SRC-CDC_Tampa_B07HNLBZ4Y_31 Qty = 2500 for Site = CDC_Tampa, Product = B07HNLBZ4Y, OH = 2500, POS = 5000, RP = 5000
Day 313 (11/9/2018): Collect statistics for Site = CDC_Tampa, Product = B07HNLBZ4Y, OH = 2500, COQ = 2500, BOQ = 0
Day 314 (11/10/2018): Receive order 29374767 - qty 500 at Site = CDC_Tampa, Product = B07HNLBZ4Y
Day 314 (11/10/2018): Ship order 29374767 - qty 500 on time at Site = CDC_Tampa, Product = B07HNLBZ4Y
Day 314 (11/10/2018): Collect statistics for Site = CDC_Tampa, Product = B07HNLBZ4Y, OH = 2000, COQ = 2500, BOQ = 0
Day 315 (11/11/2018): Receive order 29374769 - qty 500 at Site = CDC_Tampa, Product = B07HNLBZ4Y
Day 315 (11/11/2018): Ship order 29374769 - qty 500 on time at Site = CDC_Tampa, Product = B07HNLBZ4Y
Day 315 (11/11/2018): Collect statistics for Site = CDC_Tampa, Product = B07HNLBZ4Y, OH = 1500, COQ = 2500, BOQ = 0
Day 316 (11/12/2018): Receive order 29374768 - qty 500 at Site = CDC_Tampa, Product = B07HNLBZ4Y
Day 316 (11/12/2018): Ship order 29374768 - qty 500 on time at Site = CDC_Tampa, Product = B07HNLBZ4Y
Day 316 (11/12/2018): Collect statistics for Site = CDC_Tampa, Product = B07HNLBZ4Y, OH = 1000, COQ = 2500, BOQ = 0
Day 317 (11/13/2018): Collect statistics for Site = CDC_Tampa, Product = B07HNLBZ4Y, OH = 1000, COQ = 2500, BOQ = 0
Day 318 (11/14/2018): Collect statistics for Site = CDC_Tampa, Product = B07HNLBZ4Y, OH = 1000, COQ = 2500, BOQ = 0
Day 319 (11/15/2018): Collect statistics for Site = CDC_Tampa, Product = B07HNLBZ4Y, OH = 1000, COQ = 2500, BOQ = 0
Day 320 (11/16/2018): Collect statistics for Site = CDC_Tampa, Product = B07HNLBZ4Y, OH = 1000, COQ = 2500, BOQ = 0
Day 321 (11/17/2018): Receive order 29374771 - qty 500 at Site = CDC_Tampa, Product = B07HNLBZ4Y
Day 321 (11/17/2018): Ship order 29374771 - qty 500 on time at Site = CDC_Tampa, Product = B07HNLBZ4Y
Day 321 (11/17/2018): Collect statistics for Site = CDC_Tampa, Product = B07HNLBZ4Y, OH = 500, COQ = 2500, BOQ = 0
Day 322 (11/18/2018): Receive order 29374770 - qty 500 at Site = CDC_Tampa, Product = B07HNLBZ4Y
Day 322 (11/18/2018): Ship order 29374770 - qty 500 on time at Site = CDC_Tampa, Product = B07HNLBZ4Y
Day 322 (11/18/2018): Collect statistics for Site = CDC_Tampa, Product = B07HNLBZ4Y, OH = 0, COQ = 2500, BOQ = 0
Day 323 (11/19/2018): Receive replen order SRC-CDC_Tampa_B07HNLBZ4Y_31 Qty 2500 at Site = CDC_Tampa, Product = B07HNLBZ4Y, OH = 2500,  POS = 2500
Day 323 (11/19/2018): Review inventory for Site = CDC_Tampa, Product = B07HNLBZ4Y, OH = 2500, POS = 2500, RP = 5000
Day 323 (11/19/2018): Create replen order SRC-CDC_Tampa_B07HNLBZ4Y_32 Qty = 2500 for Site = CDC_Tampa, Product = B07HNLBZ4Y, OH = 2500, POS = 5000, RP = 5000
Day 323 (11/19/2018): Collect statistics for Site = CDC_Tampa, Product = B07HNLBZ4Y, OH = 2500, COQ = 2500, BOQ = 0
Day 324 (11/20/2018): Collect statistics for Site = CDC_Tampa, Product = B07HNLBZ4Y, OH = 2500, COQ = 2500, BOQ = 0
Day 325 (11/21/2018): Collect statistics for Site = CDC_Tampa, Product = B07HNLBZ4Y, OH = 2500, COQ = 2500, BOQ = 0
Day 326 (11/22/2018): Collect statistics for Site = CDC_Tampa, Product = B07HNLBZ4Y, OH = 2500, COQ = 2500, BOQ = 0
Day 327 (11/23/2018): Receive order 29374772 - qty 500 at Site = CDC_Tampa, Product = B07HNLBZ4Y
Day 327 (11/23/2018): Ship order 29374772 - qty 500 on time at Site = CDC_Tampa, Product = B07HNLBZ4Y
Day 327 (11/23/2018): Collect statistics for Site = CDC_Tampa, Product = B07HNLBZ4Y, OH = 2000, COQ = 2500, BOQ = 0
Day 328 (11/24/2018): Collect statistics for Site = CDC_Tampa, Product = B07HNLBZ4Y, OH = 2000, COQ = 2500, BOQ = 0
Day 329 (11/25/2018): Receive order 29374773 - qty 500 at Site = CDC_Tampa, Product = B07HNLBZ4Y
Day 329 (11/25/2018): Ship order 29374773 - qty 500 on time at Site = CDC_Tampa, Product = B07HNLBZ4Y
Day 329 (11/25/2018): Collect statistics for Site = CDC_Tampa, Product = B07HNLBZ4Y, OH = 1500, COQ = 2500, BOQ = 0
Day 330 (11/26/2018): Collect statistics for Site = CDC_Tampa, Product = B07HNLBZ4Y, OH = 1500, COQ = 2500, BOQ = 0
Day 331 (11/27/2018): Collect statistics for Site = CDC_Tampa, Product = B07HNLBZ4Y, OH = 1500, COQ = 2500, BOQ = 0
Day 332 (11/28/2018): Receive order 29374774 - qty 500 at Site = CDC_Tampa, Product = B07HNLBZ4Y
Day 332 (11/28/2018): Ship order 29374774 - qty 500 on time at Site = CDC_Tampa, Product = B07HNLBZ4Y
Day 332 (11/28/2018): Collect statistics for Site = CDC_Tampa, Product = B07HNLBZ4Y, OH = 1000, COQ = 2500, BOQ = 0
Day 333 (11/29/2018): Receive replen order SRC-CDC_Tampa_B07HNLBZ4Y_32 Qty 2500 at Site = CDC_Tampa, Product = B07HNLBZ4Y, OH = 3500,  POS = 3500
Day 333 (11/29/2018): Review inventory for Site = CDC_Tampa, Product = B07HNLBZ4Y, OH = 3500, POS = 3500, RP = 5000
Day 333 (11/29/2018): Create replen order SRC-CDC_Tampa_B07HNLBZ4Y_33 Qty = 1500 for Site = CDC_Tampa, Product = B07HNLBZ4Y, OH = 3500, POS = 5000, RP = 5000
Day 333 (11/29/2018): Collect statistics for Site = CDC_Tampa, Product = B07HNLBZ4Y, OH = 3500, COQ = 1500, BOQ = 0
Day 334 (11/30/2018): Collect statistics for Site = CDC_Tampa, Product = B07HNLBZ4Y, OH = 3500, COQ = 1500, BOQ = 0
Day 335 (12/1/2018): Receive order 29374775 - qty 500 at Site = CDC_Tampa, Product = B07HNLBZ4Y
Day 335 (12/1/2018): Ship order 29374775 - qty 500 on time at Site = CDC_Tampa, Product = B07HNLBZ4Y
Day 335 (12/1/2018): Collect statistics for Site = CDC_Tampa, Product = B07HNLBZ4Y, OH = 3000, COQ = 1500, BOQ = 0
Day 336 (12/2/2018): Collect statistics for Site = CDC_Tampa, Product = B07HNLBZ4Y, OH = 3000, COQ = 1500, BOQ = 0
Day 337 (12/3/2018): Collect statistics for Site = CDC_Tampa, Product = B07HNLBZ4Y, OH = 3000, COQ = 1500, BOQ = 0
Day 338 (12/4/2018): Collect statistics for Site = CDC_Tampa, Product = B07HNLBZ4Y, OH = 3000, COQ = 1500, BOQ = 0
Day 339 (12/5/2018): Receive order 29374776 - qty 3000 at Site = CDC_Tampa, Product = B07HNLBZ4Y
Day 339 (12/5/2018): Ship order 29374776 - qty 3000 on time at Site = CDC_Tampa, Product = B07HNLBZ4Y
Day 339 (12/5/2018): Collect statistics for Site = CDC_Tampa, Product = B07HNLBZ4Y, OH = 0, COQ = 1500, BOQ = 0
Day 340 (12/6/2018): Collect statistics for Site = CDC_Tampa, Product = B07HNLBZ4Y, OH = 0, COQ = 1500, BOQ = 0
Day 341 (12/7/2018): Receive order 29374778 - qty 500 at Site = CDC_Tampa, Product = B07HNLBZ4Y
Day 341 (12/7/2018): Backorder order 29374778 - qty 500 at Site = CDC_Tampa, Product = B07HNLBZ4Y
Day 341 (12/7/2018): Collect statistics for Site = CDC_Tampa, Product = B07HNLBZ4Y, OH = 0, COQ = 1500, BOQ = 500
Day 342 (12/8/2018): Receive order 29374777 - qty 500 at Site = CDC_Tampa, Product = B07HNLBZ4Y
Day 342 (12/8/2018): Queue order 29374777 - qty 500 at Site = CDC_Tampa, Product = B07HNLBZ4Y
Day 342 (12/8/2018): Collect statistics for Site = CDC_Tampa, Product = B07HNLBZ4Y, OH = 0, COQ = 1500, BOQ = 1000
Day 343 (12/9/2018): Receive replen order SRC-CDC_Tampa_B07HNLBZ4Y_33 Qty 1500 at Site = CDC_Tampa, Product = B07HNLBZ4Y, OH = 1500,  POS = 500
Day 343 (12/9/2018): Ship order 29374778 - qty 500 on time at Site = CDC_Tampa, Product = B07HNLBZ4Y
Day 343 (12/9/2018): Unqueue order 29374777 - qty 500 at Site = CDC_Tampa, Product = B07HNLBZ4Y
Day 343 (12/9/2018): Ship order 29374777 - qty 500 on time at Site = CDC_Tampa, Product = B07HNLBZ4Y
Day 343 (12/9/2018): Review inventory for Site = CDC_Tampa, Product = B07HNLBZ4Y, OH = 500, POS = 500, RP = 5000
Day 343 (12/9/2018): Create replen order SRC-CDC_Tampa_B07HNLBZ4Y_34 Qty = 4500 for Site = CDC_Tampa, Product = B07HNLBZ4Y, OH = 500, POS = 5000, RP = 5000
Day 343 (12/9/2018): Collect statistics for Site = CDC_Tampa, Product = B07HNLBZ4Y, OH = 500, COQ = 4500, BOQ = 0
Day 344 (12/10/2018): Collect statistics for Site = CDC_Tampa, Product = B07HNLBZ4Y, OH = 500, COQ = 4500, BOQ = 0
Day 345 (12/11/2018): Receive order 29374779 - qty 500 at Site = CDC_Tampa, Product = B07HNLBZ4Y
Day 345 (12/11/2018): Ship order 29374779 - qty 500 on time at Site = CDC_Tampa, Product = B07HNLBZ4Y
Day 345 (12/11/2018): Collect statistics for Site = CDC_Tampa, Product = B07HNLBZ4Y, OH = 0, COQ = 4500, BOQ = 0
Day 346 (12/12/2018): Collect statistics for Site = CDC_Tampa, Product = B07HNLBZ4Y, OH = 0, COQ = 4500, BOQ = 0
Day 347 (12/13/2018): Collect statistics for Site = CDC_Tampa, Product = B07HNLBZ4Y, OH = 0, COQ = 4500, BOQ = 0
Day 348 (12/14/2018): Receive order 29374780 - qty 500 at Site = CDC_Tampa, Product = B07HNLBZ4Y
Day 348 (12/14/2018): Backorder order 29374780 - qty 500 at Site = CDC_Tampa, Product = B07HNLBZ4Y
Day 348 (12/14/2018): Collect statistics for Site = CDC_Tampa, Product = B07HNLBZ4Y, OH = 0, COQ = 4500, BOQ = 500
Day 349 (12/15/2018): Collect statistics for Site = CDC_Tampa, Product = B07HNLBZ4Y, OH = 0, COQ = 4500, BOQ = 500
Day 350 (12/16/2018): Collect statistics for Site = CDC_Tampa, Product = B07HNLBZ4Y, OH = 0, COQ = 4500, BOQ = 500
Day 351 (12/17/2018): Collect statistics for Site = CDC_Tampa, Product = B07HNLBZ4Y, OH = 0, COQ = 4500, BOQ = 500
Day 352 (12/18/2018): Collect statistics for Site = CDC_Tampa, Product = B07HNLBZ4Y, OH = 0, COQ = 4500, BOQ = 500
Day 353 (12/19/2018): Receive replen order SRC-CDC_Tampa_B07HNLBZ4Y_34 Qty 4500 at Site = CDC_Tampa, Product = B07HNLBZ4Y, OH = 4500,  POS = 4000
Day 353 (12/19/2018): Ship order 29374780 - qty 500 late at Site = CDC_Tampa, Product = B07HNLBZ4Y
Day 353 (12/19/2018): Receive order 29374781 - qty 3000 at Site = CDC_Tampa, Product = B07HNLBZ4Y
Day 353 (12/19/2018): Ship order 29374781 - qty 3000 on time at Site = CDC_Tampa, Product = B07HNLBZ4Y
Day 353 (12/19/2018): Review inventory for Site = CDC_Tampa, Product = B07HNLBZ4Y, OH = 1000, POS = 1000, RP = 5000
Day 353 (12/19/2018): Create replen order SRC-CDC_Tampa_B07HNLBZ4Y_35 Qty = 4000 for Site = CDC_Tampa, Product = B07HNLBZ4Y, OH = 1000, POS = 5000, RP = 5000
Day 353 (12/19/2018): Collect statistics for Site = CDC_Tampa, Product = B07HNLBZ4Y, OH = 1000, COQ = 4000, BOQ = 0
Day 354 (12/20/2018): Collect statistics for Site = CDC_Tampa, Product = B07HNLBZ4Y, OH = 1000, COQ = 4000, BOQ = 0
Day 355 (12/21/2018): Receive order 29374782 - qty 500 at Site = CDC_Tampa, Product = B07HNLBZ4Y
Day 355 (12/21/2018): Ship order 29374782 - qty 500 on time at Site = CDC_Tampa, Product = B07HNLBZ4Y
Day 355 (12/21/2018): Collect statistics for Site = CDC_Tampa, Product = B07HNLBZ4Y, OH = 500, COQ = 4000, BOQ = 0
Day 356 (12/22/2018): Collect statistics for Site = CDC_Tampa, Product = B07HNLBZ4Y, OH = 500, COQ = 4000, BOQ = 0
Day 357 (12/23/2018): Collect statistics for Site = CDC_Tampa, Product = B07HNLBZ4Y, OH = 500, COQ = 4000, BOQ = 0
Day 358 (12/24/2018): Receive order 29374783 - qty 500 at Site = CDC_Tampa, Product = B07HNLBZ4Y
Day 358 (12/24/2018): Ship order 29374783 - qty 500 on time at Site = CDC_Tampa, Product = B07HNLBZ4Y
Day 358 (12/24/2018): Collect statistics for Site = CDC_Tampa, Product = B07HNLBZ4Y, OH = 0, COQ = 4000, BOQ = 0
Day 359 (12/25/2018): Collect statistics for Site = CDC_Tampa, Product = B07HNLBZ4Y, OH = 0, COQ = 4000, BOQ = 0
Day 360 (12/26/2018): Collect statistics for Site = CDC_Tampa, Product = B07HNLBZ4Y, OH = 0, COQ = 4000, BOQ = 0
Day 361 (12/27/2018): Collect statistics for Site = CDC_Tampa, Product = B07HNLBZ4Y, OH = 0, COQ = 4000, BOQ = 0
Day 362 (12/28/2018): Collect statistics for Site = CDC_Tampa, Product = B07HNLBZ4Y, OH = 0, COQ = 4000, BOQ = 0
Day 363 (12/29/2018): Receive replen order SRC-CDC_Tampa_B07HNLBZ4Y_35 Qty 4000 at Site = CDC_Tampa, Product = B07HNLBZ4Y, OH = 4000,  POS = 4000
Day 363 (12/29/2018): Review inventory for Site = CDC_Tampa, Product = B07HNLBZ4Y, OH = 4000, POS = 4000, RP = 5000
Day 363 (12/29/2018): Create replen order SRC-CDC_Tampa_B07HNLBZ4Y_36 Qty = 1000 for Site = CDC_Tampa, Product = B07HNLBZ4Y, OH = 4000, POS = 5000, RP = 5000
Day 363 (12/29/2018): Collect statistics for Site = CDC_Tampa, Product = B07HNLBZ4Y, OH = 4000, COQ = 1000, BOQ = 0
Day 364 (12/30/2018): Collect statistics for Site = CDC_Tampa, Product = B07HNLBZ4Y, OH = 4000, COQ = 1000, BOQ = 0
Day 365 (12/31/2018): Collect statistics for Site = CDC_Tampa, Product = B07HNLBZ4Y, OH = 4000, COQ = 1000, BOQ = 0
Day 364 (12/30/2018): End simulation run with success in 1.095 seconds
